<?xml version="1.0" encoding="utf-8"  standalone="no"?>
<!DOCTYPE svg PUBLIC "-//W3C//DTD SVG 1.1//EN"
 "http://www.w3.org/Graphics/SVG/1.1/DTD/svg11.dtd">
<svg 
 width="1400" height="900"
 viewBox="0 0 1400 900"
 xmlns="http://www.w3.org/2000/svg"
 xmlns:xlink="http://www.w3.org/1999/xlink"
>

<title>Gnuplot</title>
<desc>Produced by GNUPLOT 5.0 patchlevel 5 </desc>

<g id="gnuplot_canvas">

<rect x="0" y="0" width="1400" height="900" fill="none"/>
<defs>

	<circle id='gpDot' r='0.5' stroke-width='0.5'/>
	<path id='gpPt0' stroke-width='0.103' stroke='currentColor' d='M-1,0 h2 M0,-1 v2'/>
	<path id='gpPt1' stroke-width='0.103' stroke='currentColor' d='M-1,-1 L1,1 M1,-1 L-1,1'/>
	<path id='gpPt2' stroke-width='0.103' stroke='currentColor' d='M-1,0 L1,0 M0,-1 L0,1 M-1,-1 L1,1 M-1,1 L1,-1'/>
	<rect id='gpPt3' stroke-width='0.103' stroke='currentColor' x='-1' y='-1' width='2' height='2'/>
	<rect id='gpPt4' stroke-width='0.103' stroke='currentColor' fill='currentColor' x='-1' y='-1' width='2' height='2'/>
	<circle id='gpPt5' stroke-width='0.103' stroke='currentColor' cx='0' cy='0' r='1'/>
	<use xlink:href='#gpPt5' id='gpPt6' fill='currentColor' stroke='none'/>
	<path id='gpPt7' stroke-width='0.103' stroke='currentColor' d='M0,-1.33 L-1.33,0.67 L1.33,0.67 z'/>
	<use xlink:href='#gpPt7' id='gpPt8' fill='currentColor' stroke='none'/>
	<use xlink:href='#gpPt7' id='gpPt9' stroke='currentColor' transform='rotate(180)'/>
	<use xlink:href='#gpPt9' id='gpPt10' fill='currentColor' stroke='none'/>
	<use xlink:href='#gpPt3' id='gpPt11' stroke='currentColor' transform='rotate(45)'/>
	<use xlink:href='#gpPt11' id='gpPt12' fill='currentColor' stroke='none'/>
	<path id='gpPt13' stroke-width='0.103' stroke='currentColor' d='M0,1.330 L1.265,0.411 L0.782,-1.067 L-0.782,-1.076 L-1.265,0.411 z'/>
	<use xlink:href='#gpPt13' id='gpPt14' fill='currentColor' stroke='none'/>
	<filter id='textbox' filterUnits='objectBoundingBox' x='0' y='0' height='1' width='1'>
	  <feFlood flood-color='white' flood-opacity='1' result='bgnd'/>
	  <feComposite in='SourceGraphic' in2='bgnd' operator='atop'/>
	</filter>
	<filter id='greybox' filterUnits='objectBoundingBox' x='0' y='0' height='1' width='1'>
	  <feFlood flood-color='lightgrey' flood-opacity='1' result='grey'/>
	  <feComposite in='SourceGraphic' in2='grey' operator='atop'/>
	</filter>
</defs>
<g fill="none" color="white" stroke="black" stroke-width="1.00" stroke-linecap="butt" stroke-linejoin="miter">
</g>
<g fill="none" color="black" stroke="currentColor" stroke-width="1.00" stroke-linecap="butt" stroke-linejoin="miter">
	<path stroke='black'  d='M175.5,775.2 L195.0,775.2 M1052.8,775.2 L1033.3,775.2  '/>	<g transform="translate(157.3,783.7)" stroke="none" fill="black" font-family="Helvetica" font-size="26.00"  text-anchor="end">
		<text><tspan font-family="Helvetica" >-0.15</tspan></text>
	</g>
</g>
<g fill="none" color="black" stroke="currentColor" stroke-width="1.00" stroke-linecap="butt" stroke-linejoin="miter">
	<path stroke='black'  d='M175.5,709.4 L195.0,709.4 M1052.8,709.4 L1033.3,709.4  '/>	<g transform="translate(157.3,717.9)" stroke="none" fill="black" font-family="Helvetica" font-size="26.00"  text-anchor="end">
		<text><tspan font-family="Helvetica" >-0.1</tspan></text>
	</g>
</g>
<g fill="none" color="black" stroke="currentColor" stroke-width="1.00" stroke-linecap="butt" stroke-linejoin="miter">
	<path stroke='black'  d='M175.5,643.6 L195.0,643.6 M1052.8,643.6 L1033.3,643.6  '/>	<g transform="translate(157.3,652.1)" stroke="none" fill="black" font-family="Helvetica" font-size="26.00"  text-anchor="end">
		<text><tspan font-family="Helvetica" >-0.05</tspan></text>
	</g>
</g>
<g fill="none" color="black" stroke="currentColor" stroke-width="1.00" stroke-linecap="butt" stroke-linejoin="miter">
	<path stroke='black'  d='M175.5,577.8 L195.0,577.8 M1052.8,577.8 L1033.3,577.8  '/>	<g transform="translate(157.3,586.3)" stroke="none" fill="black" font-family="Helvetica" font-size="26.00"  text-anchor="end">
		<text><tspan font-family="Helvetica" > 0</tspan></text>
	</g>
</g>
<g fill="none" color="black" stroke="currentColor" stroke-width="1.00" stroke-linecap="butt" stroke-linejoin="miter">
	<path stroke='black'  d='M175.5,512.0 L195.0,512.0 M1052.8,512.0 L1033.3,512.0  '/>	<g transform="translate(157.3,520.5)" stroke="none" fill="black" font-family="Helvetica" font-size="26.00"  text-anchor="end">
		<text><tspan font-family="Helvetica" > 0.05</tspan></text>
	</g>
</g>
<g fill="none" color="black" stroke="currentColor" stroke-width="1.00" stroke-linecap="butt" stroke-linejoin="miter">
	<path stroke='black'  d='M175.5,446.1 L195.0,446.1 M1052.8,446.1 L1033.3,446.1  '/>	<g transform="translate(157.3,454.6)" stroke="none" fill="black" font-family="Helvetica" font-size="26.00"  text-anchor="end">
		<text><tspan font-family="Helvetica" > 0.1</tspan></text>
	</g>
</g>
<g fill="none" color="black" stroke="currentColor" stroke-width="1.00" stroke-linecap="butt" stroke-linejoin="miter">
	<path stroke='black'  d='M175.5,380.3 L195.0,380.3 M1052.8,380.3 L1033.3,380.3  '/>	<g transform="translate(157.3,388.8)" stroke="none" fill="black" font-family="Helvetica" font-size="26.00"  text-anchor="end">
		<text><tspan font-family="Helvetica" > 0.15</tspan></text>
	</g>
</g>
<g fill="none" color="black" stroke="currentColor" stroke-width="1.00" stroke-linecap="butt" stroke-linejoin="miter">
	<path stroke='black'  d='M175.5,314.5 L195.0,314.5 M1052.8,314.5 L1033.3,314.5  '/>	<g transform="translate(157.3,323.0)" stroke="none" fill="black" font-family="Helvetica" font-size="26.00"  text-anchor="end">
		<text><tspan font-family="Helvetica" > 0.2</tspan></text>
	</g>
</g>
<g fill="none" color="black" stroke="currentColor" stroke-width="1.00" stroke-linecap="butt" stroke-linejoin="miter">
	<path stroke='black'  d='M175.5,248.7 L195.0,248.7 M1052.8,248.7 L1033.3,248.7  '/>	<g transform="translate(157.3,257.2)" stroke="none" fill="black" font-family="Helvetica" font-size="26.00"  text-anchor="end">
		<text><tspan font-family="Helvetica" > 0.25</tspan></text>
	</g>
</g>
<g fill="none" color="black" stroke="currentColor" stroke-width="1.00" stroke-linecap="butt" stroke-linejoin="miter">
	<path stroke='black'  d='M175.5,182.9 L195.0,182.9 M1052.8,182.9 L1033.3,182.9  '/>	<g transform="translate(157.3,191.4)" stroke="none" fill="black" font-family="Helvetica" font-size="26.00"  text-anchor="end">
		<text><tspan font-family="Helvetica" > 0.3</tspan></text>
	</g>
</g>
<g fill="none" color="black" stroke="currentColor" stroke-width="1.00" stroke-linecap="butt" stroke-linejoin="miter">
	<path stroke='black'  d='M175.5,117.1 L195.0,117.1 M1052.8,117.1 L1033.3,117.1  '/>	<g transform="translate(157.3,125.6)" stroke="none" fill="black" font-family="Helvetica" font-size="26.00"  text-anchor="end">
		<text><tspan font-family="Helvetica" > 0.35</tspan></text>
	</g>
</g>
<g fill="none" color="black" stroke="currentColor" stroke-width="1.00" stroke-linecap="butt" stroke-linejoin="miter">
	<path stroke='black'  d='M175.5,775.2 L175.5,755.7 M175.5,117.1 L175.5,136.6  '/>	<g transform="translate(175.5,822.7)" stroke="none" fill="black" font-family="Helvetica" font-size="26.00"  text-anchor="middle">
		<text><tspan font-family="Helvetica" >-0.35</tspan></text>
	</g>
</g>
<g fill="none" color="black" stroke="currentColor" stroke-width="1.00" stroke-linecap="butt" stroke-linejoin="miter">
	<path stroke='black'  d='M300.8,775.2 L300.8,755.7 M300.8,117.1 L300.8,136.6  '/>	<g transform="translate(300.8,822.7)" stroke="none" fill="black" font-family="Helvetica" font-size="26.00"  text-anchor="middle">
		<text><tspan font-family="Helvetica" >-0.3</tspan></text>
	</g>
</g>
<g fill="none" color="black" stroke="currentColor" stroke-width="1.00" stroke-linecap="butt" stroke-linejoin="miter">
	<path stroke='black'  d='M426.2,775.2 L426.2,755.7 M426.2,117.1 L426.2,136.6  '/>	<g transform="translate(426.2,822.7)" stroke="none" fill="black" font-family="Helvetica" font-size="26.00"  text-anchor="middle">
		<text><tspan font-family="Helvetica" >-0.25</tspan></text>
	</g>
</g>
<g fill="none" color="black" stroke="currentColor" stroke-width="1.00" stroke-linecap="butt" stroke-linejoin="miter">
	<path stroke='black'  d='M551.5,775.2 L551.5,755.7 M551.5,117.1 L551.5,136.6  '/>	<g transform="translate(551.5,822.7)" stroke="none" fill="black" font-family="Helvetica" font-size="26.00"  text-anchor="middle">
		<text><tspan font-family="Helvetica" >-0.2</tspan></text>
	</g>
</g>
<g fill="none" color="black" stroke="currentColor" stroke-width="1.00" stroke-linecap="butt" stroke-linejoin="miter">
	<path stroke='black'  d='M676.8,775.2 L676.8,755.7 M676.8,117.1 L676.8,136.6  '/>	<g transform="translate(676.8,822.7)" stroke="none" fill="black" font-family="Helvetica" font-size="26.00"  text-anchor="middle">
		<text><tspan font-family="Helvetica" >-0.15</tspan></text>
	</g>
</g>
<g fill="none" color="black" stroke="currentColor" stroke-width="1.00" stroke-linecap="butt" stroke-linejoin="miter">
	<path stroke='black'  d='M802.1,775.2 L802.1,755.7 M802.1,117.1 L802.1,136.6  '/>	<g transform="translate(802.1,822.7)" stroke="none" fill="black" font-family="Helvetica" font-size="26.00"  text-anchor="middle">
		<text><tspan font-family="Helvetica" >-0.1</tspan></text>
	</g>
</g>
<g fill="none" color="black" stroke="currentColor" stroke-width="1.00" stroke-linecap="butt" stroke-linejoin="miter">
	<path stroke='black'  d='M927.5,775.2 L927.5,755.7 M927.5,117.1 L927.5,136.6  '/>	<g transform="translate(927.5,822.7)" stroke="none" fill="black" font-family="Helvetica" font-size="26.00"  text-anchor="middle">
		<text><tspan font-family="Helvetica" >-0.05</tspan></text>
	</g>
</g>
<g fill="none" color="black" stroke="currentColor" stroke-width="1.00" stroke-linecap="butt" stroke-linejoin="miter">
	<path stroke='black'  d='M1052.8,775.2 L1052.8,755.7 M1052.8,117.1 L1052.8,136.6  '/>	<g transform="translate(1052.8,822.7)" stroke="none" fill="black" font-family="Helvetica" font-size="26.00"  text-anchor="middle">
		<text><tspan font-family="Helvetica" > 0</tspan></text>
	</g>
</g>
<g fill="none" color="black" stroke="currentColor" stroke-width="1.00" stroke-linecap="butt" stroke-linejoin="miter">
</g>
<g fill="none" color="black" stroke="currentColor" stroke-width="1.00" stroke-linecap="butt" stroke-linejoin="miter">
	<path stroke='black'  d='M175.5,117.1 L175.5,775.2 L1052.8,775.2 L1052.8,117.1 L175.5,117.1 Z  '/></g>
<g fill="none" color="black" stroke="currentColor" stroke-width="1.00" stroke-linecap="butt" stroke-linejoin="miter">
	<g transform="translate(37.0,446.2) rotate(270)" stroke="none" fill="black" font-family="Helvetica-Bold" font-size="26.00"  text-anchor="middle">
		<text><tspan font-family="Helvetica-Bold" >Charge C1</tspan></text>
	</g>
</g>
<g fill="none" color="black" stroke="currentColor" stroke-width="1.00" stroke-linecap="butt" stroke-linejoin="miter">
	<g transform="translate(614.1,881.2)" stroke="none" fill="black" font-family="Helvetica-Bold" font-size="26.00"  text-anchor="middle">
		<text><tspan font-family="Helvetica-Bold" >E(LUMO), Hartree</tspan></text>
	</g>
</g>
<g fill="none" color="black" stroke="currentColor" stroke-width="1.00" stroke-linecap="butt" stroke-linejoin="miter">
	<g transform="translate(614.1,67.1)" stroke="none" fill="black" font-family="Helvetica" font-size="26.00"  text-anchor="middle">
		<text><tspan font-family="Helvetica"  font-weight="bold" >Löwdin (NBO) charges for PhN</tspan><tspan font-family="Helvetica"  font-weight="bold"  font-size="20.8" dy="7.80px">2</tspan><tspan font-family="Helvetica"  font-weight="bold"  dy="-20.80px">+</tspan><tspan font-family="Helvetica"  font-weight="bold"  font-size="26.0" dy="13.00px"> X</tspan><tspan font-family="Helvetica"  font-weight="bold"  font-size="20.8" dy="-13.00px">-</tspan><tspan font-size="26.0" dy="13.00"></tspan></text>
	</g>
</g>
<g fill="none" color="black" stroke="black" stroke-width="0.20" stroke-linecap="butt" stroke-linejoin="miter">
</g>
<g fill="none" color="black" stroke="currentColor" stroke-width="0.20" stroke-linecap="butt" stroke-linejoin="miter">
	<path stroke='black'  d='M1089.2,312.1 L1089.2,117.1 L1381.7,117.1 L1381.7,312.1 L1089.2,312.1 Z  '/></g>
	<g id="gnuplot_plot_1" ><title>PhN2+</title>
<g fill="none" color="white" stroke="black" stroke-width="2.70" stroke-linecap="butt" stroke-linejoin="miter">
</g>
<g fill="none" color="black" stroke="currentColor" stroke-width="2.70" stroke-linecap="butt" stroke-linejoin="miter">
	<g transform="translate(1253.0,145.1)" stroke="none" fill="black" font-family="Helvetica" font-size="26.00"  text-anchor="end">
		<text><tspan font-family="Helvetica" >PhN</tspan><tspan font-family="Helvetica"  font-size="20.8" dy="7.80px">2</tspan><tspan font-family="Helvetica"  dy="-20.80px">+</tspan><tspan font-size="26.0" dy="13.00"></tspan></text>
	</g>
</g>
<g fill="none" color="black" stroke="currentColor" stroke-width="2.70" stroke-linecap="butt" stroke-linejoin="miter">
	<path stroke='rgb(255,   0,   0)'  d='M1271.2,136.6 L1363.5,136.6 M246.1,651.0 L248.3,652.5 L250.6,654.2 L252.8,655.8 L255.0,657.4 L257.1,659.0
		L259.3,660.4 L261.4,661.9 L263.5,663.3 L265.5,664.8 L267.5,666.0 L269.5,667.1 L271.5,668.3 L273.4,669.4
		L275.3,670.2 L277.2,671.0 L279.0,671.6 L280.8,672.1 L282.5,672.5 L284.2,672.8 L285.9,672.9 L287.5,672.9
		L289.1,672.7 L290.6,672.4 L292.1,671.9 L293.6,671.2 L295.1,670.3 L296.5,669.4 L297.8,668.2 L299.2,666.9
		L300.5,665.4 L301.7,663.8 L302.9,662.1 L304.1,660.2 L305.3,658.1 L306.5,655.8 L307.6,653.5 L308.7,651.0
		L309.7,648.3 L310.8,645.6 L311.8,642.7 L312.8,639.6 L313.8,636.3 L314.8,633.1 L315.8,629.6 L316.8,626.2
		L317.7,622.5 L318.7,618.7 L319.7,614.9 L320.7,610.9 L321.6,606.9 L322.6,602.8 L323.7,598.4 L324.7,594.1
		L325.7,589.7 L326.8,585.3 L327.9,580.7 L329.1,576.1 L330.2,571.3 L331.4,566.5 L332.7,561.7 L334.0,556.7
		L335.3,551.8 L336.7,546.8 L338.1,541.7 L339.6,536.6 L341.1,531.4 L342.7,526.3 L344.4,521.2 L346.1,515.9
		L347.9,510.6 L349.7,505.4 L351.6,500.1 L353.5,494.7 L355.6,489.5 L357.6,484.2 L359.8,478.9 L362.0,473.5
		L364.3,468.3 L366.6,463.0 L369.0,457.7 L371.4,452.5 L373.9,447.3 L376.4,442.1 L379.0,436.9 L381.7,431.8
		L384.3,426.8 L387.1,421.7 L389.8,416.7 L392.6,411.7 L395.5,406.8 L398.4,401.9 L401.2,397.1 L397.0,392.3
		L391.5,387.6 L386.1,382.8 L380.8,378.2 L375.7,373.6 L370.8,369.2 L366.0,364.7 L361.4,360.2 L356.9,355.9
		L352.6,351.6 L348.4,347.4 L344.3,343.2 L340.4,339.0 L336.0,335.3 L332.8,331.0 L328.7,327.3 L325.7,323.1
		L321.8,319.5 L319.1,315.5 L315.4,312.0 L312.8,308.1 L309.3,304.7 L307.0,300.8 L303.6,297.6 L301.4,293.9
		L298.3,290.7 L296.2,287.2 L293.2,284.0 L291.4,280.6 L288.5,277.5 L286.7,274.1 L284.0,271.2 L282.4,267.9
		L279.8,265.2 L278.3,262.0 L275.9,259.2 L274.4,256.2 L272.1,253.6 L270.8,250.6 L268.6,248.1 L267.3,245.2
		L265.2,242.7 L263.3,240.3 L262.5,237.4 L260.5,235.0 L258.8,232.7 L258.0,230.0 L256.2,227.8 L254.6,225.6
		L253.9,222.9 L252.2,220.8 L250.7,218.7 L250.1,216.3 L249.1,214.1 L247.9,212.0 L246.7,210.0 L245.6,207.9
		L244.5,205.9 L243.5,204.0 L242.4,202.1 L241.5,200.3 L240.5,198.4 L239.5,196.6 L238.6,194.8 L237.6,193.0
		L236.8,191.5 L235.9,189.8 L235.0,188.2 L234.2,186.5 L233.4,185.0 L232.6,183.4 L231.8,182.0 L231.0,180.5
		L230.3,179.1 L229.5,177.6 L228.8,176.3 L228.1,174.9 L227.4,173.7 L226.7,172.4 L226.1,171.1 L225.4,169.9
		L224.8,168.7 L224.2,167.5 L223.6,166.3 L223.0,165.3 L222.4,164.2 L221.8,163.0 L221.3,162.0 L220.7,161.1
		L220.2,160.0 L219.7,159.1 L219.2,158.2 L218.7,157.1 L218.2,156.3 L217.7,155.4 L217.2,154.5 L216.7,153.7
		L216.3,152.9 L215.8,152.1 L215.4,151.3 L214.9,150.5 L214.5,149.7 L214.1,149.1 L213.7,148.4 L213.3,147.6
		L212.9,147.0 L212.5,146.3 L212.1,145.8 L211.7,145.1 L211.3,144.6 L211.0,144.0 L210.6,143.4 L210.3,142.9
		L209.9,142.4 L209.6,141.8 L209.2,141.3 L208.9,140.8 L208.6,140.4 L208.2,139.9 L207.9,139.5 L207.6,139.1
		L207.3,138.6 L207.0,138.2 L206.7,137.8 L206.4,137.5 L206.1,137.1 L205.8,136.7 L205.5,136.3 L205.3,136.1
		L205.0,135.7 L204.7,135.4 L204.5,135.1 L204.2,134.7 L203.9,134.5 L203.7,134.2 L203.4,133.9 L203.2,133.7
		L203.0,133.4 L202.7,133.2 L202.5,132.9 L202.3,132.8 L202.1,132.5 L201.8,132.2 L201.6,132.1 L201.4,131.8
		L201.2,131.6 L201.0,131.4 L200.8,131.3 L200.6,131.1 L200.4,130.9 L200.2,130.8 L200.0,130.7 L199.9,130.5
		L199.7,130.3 L199.5,130.1 L199.3,130.0 L199.1,129.9 L199.0,129.9 L198.8,129.7 L198.6,129.6 L198.5,129.5
		L198.3,129.3 L198.2,129.3 L198.0,129.2 L197.8,129.1 L197.7,129.1 L197.5,128.9 L197.4,128.8 L197.2,128.8
		L197.1,128.7 L196.9,128.7 L196.8,128.7 L196.7,128.6 L196.5,128.6 L196.4,128.4 L196.3,128.4 L196.1,128.4
		L196.0,128.3 L195.9,128.3 L195.7,128.3 L195.6,128.3 L195.5,128.2 L195.4,128.2 L195.2,128.2 L195.1,128.2
		L195.0,128.2 L194.9,128.0 L194.8,128.0 L194.7,128.0 L194.6,128.0 L194.5,128.0 L194.4,128.0 L194.3,128.0
		L194.2,128.0 L194.1,128.0 L194.0,127.9 L193.9,127.9 L193.8,127.9 L193.7,127.9 L193.6,127.9 L193.5,127.9
		L193.4,127.9 L193.3,127.9 L193.2,127.9 L193.1,127.9 L193.0,127.9 L192.9,127.9 L192.8,128.0 L192.7,128.0
		L192.6,128.0 L192.5,128.0 L192.4,128.0 L192.3,128.2 L192.2,128.2 L192.1,128.2 L192.0,128.2 L191.9,128.3
		L191.8,128.3 L191.7,128.3 L191.6,128.3 L191.6,128.4 L191.5,128.4 L191.4,128.4 L191.3,128.4 L191.3,128.6
		L191.2,128.6 L191.1,128.6 L191.0,128.7 L190.9,128.7 L190.8,128.7 L190.8,128.8 L190.7,128.8 L190.6,128.8
		L190.5,128.9 L190.4,128.9 L190.3,129.1 L190.2,129.1 L190.2,129.2 L190.1,129.2 L190.0,129.2 L190.0,129.3
		L189.9,129.3 L189.8,129.3 L189.8,129.5 L189.7,129.5 L189.6,129.5 L189.6,129.6 L189.5,129.6 L189.5,129.7
		L189.4,129.7 L189.3,129.7 L189.3,129.9 L189.2,129.9 L189.1,130.0 L189.0,130.0 L189.0,130.1 L188.9,130.1
		 '/></g>
	</g>
	<g id="gnuplot_plot_2" ><title>PhN2+ Cl-</title>
<g fill="none" color="black" stroke="currentColor" stroke-width="2.70" stroke-linecap="butt" stroke-linejoin="miter">
	<g transform="translate(1253.0,184.1)" stroke="none" fill="black" font-family="Helvetica" font-size="26.00"  text-anchor="end">
		<text><tspan font-family="Helvetica" >PhN</tspan><tspan font-family="Helvetica"  font-size="20.8" dy="7.80px">2</tspan><tspan font-family="Helvetica"  dy="-20.80px">+</tspan><tspan font-family="Helvetica"  font-size="26.0" dy="13.00px"> Cl</tspan><tspan font-family="Helvetica"  font-size="20.8" dy="-13.00px">-</tspan><tspan font-size="26.0" dy="13.00"></tspan></text>
	</g>
</g>
<g fill="none" color="black" stroke="currentColor" stroke-width="2.70" stroke-linecap="butt" stroke-linejoin="miter">
	<path stroke='rgb(  0,   0, 255)'  d='M1271.2,175.6 L1363.5,175.6 M753.2,644.8 L752.4,645.8 L751.5,647.0 L750.6,648.2 L750.4,649.4 L750.0,650.4
		L748.8,652.3 L748.8,653.3 L746.9,655.6 L747.6,656.2 L732.2,668.7 L731.9,670.6 L731.7,672.3 L724.4,678.3
		L726.4,678.2 L728.8,678.1 L726.4,680.0 L728.8,679.4 L731.2,678.7 L733.6,677.8 L736.0,676.7 L738.5,675.6
		L740.7,674.4 L743.4,672.8 L745.8,671.2 L748.0,669.6 L750.7,667.7 L752.9,666.0 L755.5,663.7 L757.7,661.7
		L760.3,659.4 L762.5,657.0 L765.0,654.5 L767.2,652.0 L769.6,649.4 L771.9,646.6 L774.2,643.8 L776.4,640.9
		L778.5,638.1 L780.8,635.0 L782.9,632.0 L785.2,628.8 L787.2,625.8 L789.4,622.5 L791.4,619.2 L793.5,615.9
		L795.6,612.6 L797.6,609.4 L799.7,605.9 L801.7,602.5 L803.7,599.1 L805.6,595.5 L807.6,592.1 L809.6,588.7
		L811.5,585.1 L813.4,581.6 L815.4,578.2 L817.3,574.6 L819.2,571.1 L821.1,567.6 L822.9,564.1 L824.8,560.5
		L826.7,557.0 L828.5,553.6 L830.4,550.0 L832.2,546.6 L834.0,543.2 L835.8,539.6 L837.7,536.3 L836.5,532.8
		L834.1,529.3 L831.6,526.0 L829.1,522.6 L826.5,519.3 L823.9,515.9 L821.2,512.6 L818.5,509.3 L815.7,506.2
		L812.9,502.9 L810.0,499.6 L807.1,496.4 L804.1,493.3 L801.1,490.1 L798.0,487.0 L794.9,483.9 L791.8,480.8
		L788.6,477.7 L785.4,474.7 L782.1,471.7 L778.9,468.7 L775.5,465.6 L772.3,462.7 L769.0,459.7 L765.6,456.7
		L762.3,453.8 L758.9,450.9 L755.5,448.0 L752.7,445.8 L748.9,442.5 L746.2,440.2 L742.1,436.8 L738.8,434.2
		L735.4,431.3 L732.1,428.6 L728.7,425.7 L725.4,423.0 L722.1,420.2 L718.7,417.5 L715.5,414.8 L712.2,412.2
		L708.9,409.4 L705.7,406.8 L702.6,404.2 L699.5,401.5 L696.6,398.9 L693.7,396.5 L691.0,394.2 L688.5,392.2
		L686.5,390.7 L685.1,390.1 L684.5,389.9 L684.4,390.2 L684.9,391.4 L685.4,391.9 L686.8,393.8 L687.7,394.6
		L689.1,395.7 L690.3,396.7 L691.6,397.5 L692.9,398.1 L694.1,398.8 L695.4,399.3 L696.7,400.0 L697.9,400.5
		L699.3,401.0 L699.3,400.1 L701.5,402.5 L701.7,401.4 L705.1,404.2 L705.4,403.2 L705.7,402.6 L711.0,406.7
		L711.1,405.9 L711.3,405.2 L718.6,411.0 L718.7,410.3 L719.0,409.7 L786.9,479.7 L786.9,479.2 L787.2,479.6
		L787.5,479.2 L788.3,481.0 L788.5,480.4 L788.7,480.1 L789.3,482.0 L789.5,481.3 L789.7,481.0 L789.8,481.7
		L790.1,481.6 L790.3,482.2 L790.6,482.1 L790.8,482.7 L791.2,484.3 L791.4,483.7 L791.5,483.4 L791.5,483.9
		L791.7,483.8 L791.8,484.3 L792.0,484.7 L792.2,484.6 L792.2,485.1 L792.4,485.0 L792.4,485.5 L792.6,485.5
		L792.6,486.0 L792.8,485.4 L792.6,486.8 L793.0,486.0 L793.0,485.6 L793.0,488.1 L793.3,487.1 L793.3,486.4
		L793.0,488.0 L793.5,487.2 L793.4,486.7 L793.2,488.4 L793.7,487.6 L793.6,487.0 L793.3,488.9 L793.8,488.1
		L793.8,487.7 L793.5,489.5 L794.0,488.8 L794.0,488.3 L793.6,490.1 L794.1,489.3 L794.1,488.9 L793.8,490.6
		L794.2,490.0 L794.2,489.6 L793.8,491.3 L794.3,490.5 L794.3,490.1 L793.9,491.8 L794.4,491.2 L794.3,490.8
		L794.0,492.5 L794.5,491.7 L794.4,491.3 L794.0,493.0 L794.5,492.3 L794.5,492.0 L794.4,491.8 L794.3,491.8
		L794.2,491.8 L794.2,492.0 L794.1,492.2 L794.1,492.3 L794.1,492.6 L794.1,492.7 L794.0,493.0 L794.0,493.1
		L794.0,493.4 L794.0,493.7 L794.0,493.8 L794.0,493.9 L794.0,494.2 L793.9,494.3 L793.9,494.5 L793.9,494.7
		L793.9,494.8 L793.9,495.0 L793.9,495.1 L793.9,495.2 L793.9,495.4 L793.9,495.6 L793.9,495.8 L793.9,495.9
		L794.0,496.0 L794.0,496.2 L794.0,496.3 L794.0,496.4 L794.0,496.6 L794.0,496.7 L794.0,496.8 L794.0,497.0
		L794.0,497.1 L794.0,497.2 L794.0,497.4 L794.0,497.5 L794.0,497.6 L794.0,497.7 L794.0,498.0 L794.0,498.1
		L794.0,498.3 L794.0,498.4 L794.0,498.5 L794.1,498.7 L794.1,498.8 L794.1,498.9 L794.1,499.1 L794.1,499.2
		L794.1,499.3 L794.1,499.5 L794.1,499.6 L794.1,499.7 L794.2,499.7 L794.2,499.9 L794.2,500.0 L794.2,500.1
		L794.2,500.2 L794.3,500.4 L794.3,500.5 L794.3,500.6 L794.4,500.8 L794.4,500.9 L794.4,501.0 L794.5,501.0
		L794.5,501.2 L797.4,503.8 L797.5,503.5 L797.4,503.3 L797.4,503.1 L797.3,503.3 L797.5,503.1 L797.3,503.4
		L797.5,503.5 L797.6,503.7 L797.9,505.2 L797.9,504.9 L797.9,504.7 L797.9,504.5 L797.9,504.3 L797.9,504.2
		L797.9,504.1 L798.0,503.9 L798.1,503.9 L798.1,503.8 L798.2,503.8 L798.3,504.5 L798.5,504.2 L798.6,504.2
		L798.6,504.1 L798.7,503.9 L798.6,504.1 L798.7,504.1 L798.8,503.9 L798.8,503.8 L798.9,503.8 L798.9,503.7
		L799.1,503.7 L799.1,503.5 L799.2,503.5 L799.2,503.4 L799.3,503.3 L799.4,503.3 L799.4,503.1 L799.5,503.1
		L799.5,503.0 L799.7,503.1 L799.7,503.0 L799.6,503.0 L799.5,503.0 L799.4,503.0 L799.3,503.1 L799.4,503.1
		L799.3,503.3 L799.2,503.3 L799.3,503.3 L799.2,503.4 L799.3,503.3 L799.1,503.3 L799.2,503.4  '/></g>
	</g>
	<g id="gnuplot_plot_3" ><title>PhN2+ BF4-</title>
<g fill="none" color="black" stroke="currentColor" stroke-width="2.70" stroke-linecap="butt" stroke-linejoin="miter">
	<g transform="translate(1253.0,223.1)" stroke="none" fill="black" font-family="Helvetica" font-size="26.00"  text-anchor="end">
		<text><tspan font-family="Helvetica" >PhN</tspan><tspan font-family="Helvetica"  font-size="20.8" dy="7.80px">2</tspan><tspan font-family="Helvetica"  dy="-20.80px">+</tspan><tspan font-family="Helvetica"  font-size="26.0" dy="13.00px"> BF</tspan><tspan font-family="Helvetica"  font-size="20.8" dy="7.80px">4</tspan><tspan font-family="Helvetica"  dy="-20.80px">-</tspan><tspan font-size="26.0" dy="13.00"></tspan></text>
	</g>
</g>
<g fill="none" color="black" stroke="currentColor" stroke-width="2.70" stroke-linecap="butt" stroke-linejoin="miter">
	<path stroke='rgb(  0, 255,   0)'  d='M1271.2,214.6 L1363.5,214.6 M640.5,660.3 L642.4,661.5 L643.8,662.4 L643.8,663.3 L645.6,664.4 L647.2,665.4
		L646.3,666.5 L647.9,667.7 L649.0,668.5 L650.8,669.5 L652.4,670.3 L653.0,671.6 L654.6,672.3 L655.9,672.7
		L657.4,673.1 L657.7,673.7 L659.3,673.9 L661.0,674.0 L662.3,674.0 L662.8,674.0 L664.3,673.7 L665.8,673.2
		L667.3,672.5 L667.2,671.9 L668.8,671.0 L670.2,669.8 L671.5,668.5 L671.0,667.1 L672.5,665.7 L673.9,663.8
		L672.2,661.7 L673.7,659.8 L675.1,657.4 L674.2,655.3 L675.8,652.9 L677.1,650.2 L678.6,647.5 L680.1,644.4
		L681.5,641.5 L681.5,638.4 L683.1,635.0 L682.1,632.4 L690.7,631.3 L692.4,627.7 L694.0,624.0 L695.6,620.0
		L697.2,615.9 L698.8,612.0 L700.5,607.6 L702.1,603.4 L703.9,599.0 L705.4,594.5 L707.2,589.7 L709.0,585.0
		L710.5,580.4 L712.4,575.5 L714.2,570.5 L718.9,562.4 L720.9,557.4 L722.7,552.4 L724.6,547.2 L726.5,542.1
		L728.4,537.0 L730.3,531.7 L732.3,526.4 L734.3,521.2 L736.4,515.8 L738.3,510.5 L740.5,505.1 L742.5,499.9
		L744.7,494.5 L746.8,489.1 L749.1,483.8 L751.1,478.4 L753.5,473.1 L755.6,467.7 L758.0,462.5 L760.1,457.2
		L762.5,451.9 L764.7,446.8 L765.4,441.9 L767.5,436.8 L769.7,431.8 L771.0,426.9 L772.8,421.9 L774.3,416.9
		L775.5,412.1 L776.1,407.2 L775.9,402.3 L774.6,397.6 L772.2,393.0 L763.8,391.3 L760.7,386.7 L757.0,382.2
		L752.9,377.7 L748.6,373.5 L744.3,369.2 L739.7,365.5 L735.1,361.3 L731.0,356.9 L726.6,352.8 L722.3,348.9
		L718.2,344.9 L714.2,341.1 L710.4,337.6 L706.5,333.7 L703.0,329.9 L699.2,326.4 L695.8,322.8 L692.6,319.1
		L689.3,315.7 L686.3,312.3 L683.3,309.0 L680.4,305.7 L677.7,302.4 L675.0,299.3 L672.5,296.1 L670.0,293.1
		L667.7,290.0 L665.4,287.2 L663.2,284.3 L661.1,281.4 L659.1,278.6 L657.2,276.0 L655.4,273.2 L652.7,270.6
		L651.7,268.1 L649.1,266.2 L647.7,263.5 L645.3,261.0 L644.6,258.6 L643.3,256.1 L641.1,253.9 L640.5,251.5
		L638.5,249.2 L638.1,247.0 L636.1,244.8 L635.9,242.5 L634.0,240.4 L632.0,238.5 L982.4,424.6 L982.8,424.4
		L983.1,424.3 L983.5,424.3 L983.9,424.2 L984.3,424.0 L984.7,423.9 L985.0,423.8 L985.4,423.8 L985.8,423.6
		L986.2,423.5 L986.5,423.4 L986.9,423.2 L987.2,423.1 L987.6,423.0 L987.9,422.9 L988.3,422.7 L988.6,422.6
		L989.0,422.5 L989.3,422.3 L989.7,422.2 L990.0,422.1 L990.3,421.9 L990.7,421.8 L991.0,421.7 L991.3,421.5
		L991.7,421.4 L992.0,421.3 L992.3,421.1 L992.6,421.0 L992.9,420.9 L993.3,420.7 L993.6,420.6 L993.9,420.6
		L994.2,420.5 L994.5,420.4 L994.8,420.2 L995.1,420.1 L995.4,420.0 L995.6,420.0 L995.9,419.8 L996.2,419.7
		L996.5,419.6 L996.8,419.6 L997.1,419.4 L997.4,419.3 L997.7,419.3 L997.9,419.2 L998.2,419.0 L998.5,419.0
		L998.8,418.9 L999.0,418.8 L999.3,418.9 L999.6,418.6 L999.8,418.6 L1000.1,418.6 L1000.4,418.5 L1000.7,418.5
		L1000.9,418.4 L1001.2,418.4 L1001.4,418.4 L1001.7,418.2 L1001.9,418.2 L1002.2,418.2 L1002.4,418.1 L1002.6,418.1
		L1002.9,418.1 L1003.1,418.0 L1003.3,418.0 L1003.6,418.0 L1003.8,418.0 L1004.0,417.9 L1004.2,417.9 L1004.5,418.0
		L1004.6,417.9 L1004.8,417.9 L1005.1,418.0 L1005.3,417.7 L1005.5,417.7 L1005.7,417.9 L1005.8,417.6 L1006.4,417.7
		L1006.5,417.5 L1006.7,417.6 L1006.8,417.5 L1007.0,417.5 L1007.1,417.3 L1007.3,417.5 L1007.5,417.3 L1007.7,417.5
		L1007.8,417.3 L1008.0,417.3 L1008.2,417.2 L1008.4,417.3 L1008.5,417.2 L1008.7,417.2 L1008.8,417.2 L1009.0,417.2
		L1009.1,417.2 L1009.3,417.2 L1009.4,417.2 L1009.6,417.1 L1009.8,417.1 L1009.9,417.1 L1010.1,417.3 L1010.2,417.1
		L1010.4,417.1 L1010.6,417.2 L1010.7,417.1 L1010.8,417.1 L1011.0,417.2 L1011.2,417.1 L1011.3,417.3 L1011.4,417.1
		L1011.6,417.2 L1011.7,417.2 L1011.9,417.3 L1012.0,417.3 L1012.2,417.3 L1012.3,417.3 L1012.4,417.3 L1012.6,417.3
		L1012.7,417.3 L1012.8,417.3 L1012.9,417.5 L1013.0,417.5 L1013.2,417.5 L1013.3,417.5 L1013.4,417.5 L1013.6,417.6
		L1013.7,417.6 L1013.8,417.7 L1014.0,417.7 L1014.1,417.2 L1014.3,417.9 L1014.4,417.3 L1014.5,417.9 L1014.6,417.2
		L1014.7,417.9 L1014.8,417.2 L1015.0,417.9 L1015.1,417.2 L1015.2,417.7 L1015.3,417.2 L1015.4,417.7 L1015.5,417.2
		L1015.6,417.7 L1015.7,417.6 L1015.8,417.5 L1015.9,417.5 L1016.0,417.5 L1016.1,417.5 L1016.2,417.5 L1018.7,417.1
		L1018.6,416.7 L1018.7,416.8 L1018.7,416.7 L1018.8,416.7 L1018.9,416.7 L1019.0,416.7 L1019.1,416.8 L1019.2,416.8
		L1019.3,416.7 L1019.4,416.7 L1019.5,416.7 L1019.6,416.7 L1019.7,416.8 L1019.8,416.8 L1019.9,416.8 L1020.0,416.8
		L1020.1,416.8 L1020.2,416.8 L1020.3,416.8 L1020.4,416.8 L1018.7,417.3 L1018.6,417.2 L1018.6,417.1 L1018.7,417.1
		L1018.6,417.1 L1018.6,417.2 L1018.5,417.2 L1018.5,417.3 L1018.4,417.3 L1018.3,417.3 L1018.3,417.5  '/></g>
	</g>
	<g id="gnuplot_plot_4" ><title>PhN2+ TfO-</title>
<g fill="none" color="black" stroke="currentColor" stroke-width="2.70" stroke-linecap="butt" stroke-linejoin="miter">
	<g transform="translate(1253.0,262.1)" stroke="none" fill="black" font-family="Helvetica" font-size="26.00"  text-anchor="end">
		<text><tspan font-family="Helvetica" >PhN</tspan><tspan font-family="Helvetica"  font-size="20.8" dy="7.80px">2</tspan><tspan font-family="Helvetica"  dy="-20.80px">+</tspan><tspan font-family="Helvetica"  font-size="26.0" dy="13.00px"> TfO</tspan><tspan font-family="Helvetica"  font-size="20.8" dy="-13.00px">-</tspan><tspan font-size="26.0" dy="13.00"></tspan></text>
	</g>
</g>
<g fill="none" color="black" stroke="currentColor" stroke-width="2.70" stroke-linecap="butt" stroke-linejoin="miter">
	<path stroke='rgb(230, 159,   0)'  d='M1271.2,253.6 L1363.5,253.6 M593.3,675.6 L867.3,689.5 L867.5,692.0 L867.8,694.8 L868.2,697.4 L868.2,699.9
		L868.5,702.5 L868.6,705.0 L868.8,707.5 L868.8,709.9 L869.0,712.3 L868.8,714.5 L869.0,716.8 L869.0,718.9
		L868.9,720.8 L868.7,722.7 L868.6,724.5 L868.3,726.1 L868.0,727.7 L867.4,729.0 L867.2,730.3 L866.8,731.4
		L866.3,732.4 L865.3,733.2 L864.9,733.9 L864.3,734.4 L863.5,734.8 L862.7,735.1 L861.7,735.1 L860.7,734.9
		L859.6,734.7 L858.4,734.3 L856.6,733.5 L855.7,732.8 L853.5,731.5 L852.6,730.7 L850.1,729.0 L849.1,727.9
		L845.9,725.6 L844.7,724.1 L840.4,721.1 L838.9,719.0 L684.0,628.6 L695.4,620.7 L697.1,617.0 L699.0,613.2
		L700.8,609.2 L704.2,605.3 L705.9,601.1 L708.8,596.9 L710.5,592.6 L713.3,588.3 L715.1,583.8 L717.8,579.5
		L719.6,575.0 L722.3,570.5 L724.1,565.9 L726.8,561.4 L728.6,556.8 L731.1,552.4 L732.9,547.6 L735.4,543.0
		L737.1,538.3 L739.1,533.7 L740.6,528.9 L741.1,524.1 L739.5,519.5 L737.9,514.7 L736.0,509.9 L733.8,505.0
		L730.8,500.4 L728.8,495.5 L726.4,490.6 L723.8,485.8 L721.2,481.0 L718.5,476.2 L715.8,471.3 L713.0,466.6
		L710.2,461.7 L707.4,456.9 L704.4,452.1 L701.6,447.3 L698.6,442.6 L695.6,437.7 L692.8,433.0 L689.2,428.4
		L686.7,423.6 L682.9,419.0 L680.4,414.4 L676.6,410.0 L674.1,405.3 L670.6,400.9 L668.2,396.4 L665.1,392.1
		L662.8,387.7 L660.1,383.5 L658.3,379.0 L656.6,375.2 L708.2,350.7 L705.5,346.9 L703.2,343.1 L701.2,339.4
		L705.4,339.5 L702.6,336.1 L700.4,332.7 L702.2,334.4 L699.5,331.2 L699.6,333.2 L684.1,340.7 L682.4,337.8
		L682.9,334.5 L681.2,331.8 L679.9,329.1 L680.8,326.5 L679.3,324.0 L678.1,321.6 L679.6,319.8 L678.4,317.7
		L677.3,315.7 L678.7,315.2 L678.0,313.3 L675.7,311.2 L677.4,310.6 L676.1,308.9 L675.1,307.3 L674.3,305.7
		L673.6,304.3 L671.6,302.6 L672.8,302.6 L671.9,300.8 L671.1,299.4 L670.6,298.1 L669.9,296.8 L669.6,295.8
		L668.7,294.7 L668.2,293.7 L667.8,292.8 L668.5,294.4 L667.8,292.8 L667.4,292.0 L667.2,291.1 L667.0,290.3
		L666.9,289.5 L666.9,288.9 L666.9,288.2 L669.9,290.6 L669.2,289.7 L668.9,288.9 L669.0,288.5 L785.5,426.5
		L785.6,427.2 L781.8,429.7 L781.6,428.8 L781.5,428.2 L781.4,428.1 L781.4,427.6 L781.3,427.7 L781.3,427.2
		L781.2,427.2 L781.2,426.8 L781.0,426.8 L781.1,426.4 L780.9,426.5 L780.9,426.1 L780.7,426.1 L780.7,425.6
		L780.5,425.9 L780.5,425.4 L780.3,425.6 L780.4,425.2 L780.0,426.0 L780.3,425.1 L779.9,425.7 L780.2,424.7
		L779.7,425.5 L780.0,424.4 L779.6,425.2 L779.9,424.3 L779.7,425.7 L779.9,424.4 L779.7,423.6 L779.5,425.5
		L779.7,424.2 L779.4,423.4 L779.3,425.2 L779.5,424.0 L779.3,423.2 L779.5,424.3 L779.5,423.2 L779.3,422.6
		L779.0,423.5 L779.2,422.7 L779.0,422.2 L778.6,423.5 L779.0,422.7 L778.4,423.5 L778.8,422.7 L778.7,421.8
		L778.5,421.1 L778.3,420.9 L777.9,422.2 L778.2,421.5 L778.0,421.1 L778.2,423.0 L778.2,422.1 L777.9,421.5
		L777.7,421.1 L777.3,422.3 L777.6,421.8 L777.4,421.4 L777.2,423.5 L777.4,422.6 L777.2,421.9 L777.0,421.7
		L777.3,423.4 L777.3,422.6 L777.1,421.9 L777.0,421.7 L776.8,421.4 L776.4,422.7 L776.8,422.2 L776.7,421.8
		L777.0,423.4 L777.0,423.0 L776.9,422.7 L776.8,422.6 L776.9,422.5 L776.8,422.3 L776.6,423.6 L776.9,423.1
		L776.8,422.7 L776.8,422.6 L776.9,422.2 L777.0,421.9 L776.9,421.8 L776.8,421.9 L777.0,421.8 L776.8,422.1
		L777.4,421.8 L777.5,421.4 L777.4,421.3 L777.4,421.1 L777.3,421.1 L777.3,421.3 L777.3,421.4 L777.2,421.4
		L777.2,421.5 L777.2,421.7 L777.2,421.8 L777.2,421.9 L777.1,421.9 L777.1,422.1 L777.1,422.2 L781.2,417.5
		L781.2,417.2 L781.3,417.1 L781.5,416.9 L781.4,417.1 L781.7,416.8 L781.6,416.9 L781.9,416.7 L782.0,416.5
		L782.4,416.3 L787.6,409.7 L787.7,409.8 L787.8,409.8 L788.0,410.0 L788.1,409.8 L788.5,409.7 L788.9,409.4
		L789.0,409.3 L789.5,409.0 L789.6,408.6 L790.2,408.4 L985.4,497.0 L985.6,497.1 L985.7,497.1 L985.8,497.1
		L985.9,497.1 L986.0,497.1 L986.1,497.1 L986.2,497.1 L986.3,497.1 L986.4,497.1 L986.5,497.1 L986.6,497.1
		L986.7,497.1 L986.8,497.1 L986.9,497.1 L987.0,497.1 L987.1,497.1 L987.2,497.1 L987.3,497.1 L987.4,497.1
		L987.5,497.2 L987.5,497.4 L987.6,497.4 L987.7,498.0 L987.8,498.0 L987.9,497.9 L987.9,497.7 L987.9,497.6
		L988.0,497.6 L988.0,497.7 L987.9,497.9 L988.0,497.6 L988.0,497.7 L982.6,496.4 L982.6,496.3 L982.6,496.2
		L982.7,496.2 L982.8,496.2 L982.9,496.2 L983.0,496.3 L983.1,496.3 L983.0,496.4 L983.0,496.6 L983.1,496.4
		L983.2,496.4 L983.3,496.4 L983.4,496.4 L983.5,496.4 L982.0,497.0 L982.1,496.8 L982.3,496.8 L982.4,496.7
		L982.5,496.8 L982.6,496.7 L982.8,496.8 L982.9,496.7 L983.3,496.8 L983.3,496.7 L983.4,496.7 L983.5,496.6
		L983.6,496.7 L983.7,496.6 L983.8,496.7 L983.9,496.6 L984.3,496.7 L984.4,496.6 L984.9,496.7 L985.0,496.7
		L985.0,496.6 L985.3,496.6 L985.6,496.6  '/></g>
	</g>
	<g id="gnuplot_plot_5" ><title>PhN2+ TsO-</title>
<g fill="none" color="black" stroke="currentColor" stroke-width="2.70" stroke-linecap="butt" stroke-linejoin="miter">
	<g transform="translate(1253.0,301.1)" stroke="none" fill="black" font-family="Helvetica" font-size="26.00"  text-anchor="end">
		<text><tspan font-family="Helvetica" >PhN</tspan><tspan font-family="Helvetica"  font-size="20.8" dy="7.80px">2</tspan><tspan font-family="Helvetica"  dy="-20.80px">+</tspan><tspan font-family="Helvetica"  font-size="26.0" dy="13.00px"> TsO</tspan><tspan font-family="Helvetica"  font-size="20.8" dy="-13.00px">-</tspan><tspan font-size="26.0" dy="13.00"></tspan></text>
	</g>
</g>
<g fill="none" color="black" stroke="currentColor" stroke-width="2.70" stroke-linecap="butt" stroke-linejoin="miter">
	<path stroke='rgb(240, 228,  66)'  d='M1271.2,292.6 L1363.5,292.6 M652.2,676.1 L908.6,689.5 L909.0,692.1 L909.0,694.6 L909.4,697.3 L909.6,699.8
		L909.8,702.4 L910.1,704.9 L910.2,707.4 L910.4,709.8 L910.6,712.2 L910.6,714.4 L910.6,716.6 L910.7,718.7
		L910.7,720.7 L910.7,722.7 L910.6,724.4 L910.4,726.1 L910.2,727.7 L910.0,729.1 L909.7,730.4 L909.3,731.5
		L908.8,732.6 L908.3,733.5 L907.7,734.3 L907.0,734.8 L906.3,735.2 L905.5,735.6 L904.6,735.7 L903.7,735.7
		L902.8,735.7 L901.8,735.5 L900.8,735.1 L899.8,734.5 L898.8,734.0 L897.8,733.2 L897.7,732.9 L899.4,733.3
		L898.4,732.2 L897.3,730.8 L896.2,729.5 L895.0,727.9 L893.8,726.4 L892.6,724.5 L891.4,722.7 L890.2,720.7
		L889.0,718.6 L887.8,716.5 L886.6,714.1 L885.4,711.8 L884.2,709.3 L883.0,706.8 L881.7,704.0 L880.5,701.2
		L879.3,698.3 L877.7,695.2 L876.5,692.1 L875.2,688.9 L873.9,685.6 L871.7,681.7 L870.9,678.6 L869.8,674.9
		L866.6,670.2 L865.8,666.6 L859.9,659.4 L859.1,655.6 L791.7,517.1 L791.1,512.7 L790.5,508.5 L789.7,504.2
		L788.8,500.0 L787.8,495.8 L786.6,491.6 L785.4,487.5 L784.0,483.4 L782.6,479.2 L781.0,475.1 L779.4,471.0
		L777.6,467.1 L775.8,463.0 L773.9,459.0 L772.0,455.0 L769.9,451.0 L767.9,447.1 L765.7,443.3 L763.5,439.3
		L761.2,435.5 L758.9,431.7 L756.5,427.9 L754.1,424.0 L751.6,420.4 L749.2,416.7 L746.6,413.0 L744.2,409.3
		L741.6,405.6 L739.2,401.9 L736.6,398.4 L734.2,394.8 L731.8,391.3 L729.2,387.7 L726.8,384.3 L724.4,380.9
		L722.1,377.3 L719.8,373.9 L717.6,370.5 L715.6,367.0 L713.6,363.8 L711.4,360.6 L709.8,357.2 L708.2,353.9
		L706.6,350.7 L705.4,347.6 L704.1,344.5 L703.5,341.6 L704.0,337.8 L704.3,335.7 L705.1,333.7 L710.3,333.5
		L714.5,329.8 L715.3,329.3 L714.7,327.4 L717.0,328.0 L718.6,327.6 L720.4,327.7 L719.6,326.2 L730.3,334.4
		L814.4,469.7 L814.7,468.8 L814.7,468.3 L814.8,467.9 L814.8,467.5 L814.7,467.2 L814.7,466.8 L814.7,466.6
		L814.7,466.2 L814.7,465.2 L814.8,464.6 L815.0,464.2 L815.1,463.7 L815.2,463.3 L815.3,462.9 L815.3,462.6
		L815.4,462.3 L815.4,461.9 L815.4,461.7 L815.5,461.4 L815.5,461.2 L815.5,460.9 L815.2,461.3 L815.2,460.9
		L814.9,461.0 L815.0,460.6 L814.7,460.9 L814.7,460.5 L814.5,460.6 L814.5,460.2 L814.3,460.5 L814.3,460.1
		L814.0,460.4 L814.1,460.0 L813.8,460.4 L813.9,460.0 L813.7,459.8 L813.5,460.2 L813.6,459.8 L813.3,460.2
		L813.4,459.8 L813.1,460.2 L813.2,460.0 L812.9,460.2 L813.0,460.0 L812.7,460.4 L812.8,460.1 L812.5,460.5
		L812.6,460.2 L812.4,460.6 L812.5,460.4 L812.2,460.6 L812.3,460.5 L812.2,460.4 L812.0,460.9 L812.1,460.6
		L812.0,460.5 L812.9,462.2 L812.9,461.5 L812.6,461.3 L812.6,460.9 L812.3,461.2 L812.4,460.9 L812.1,461.3
		L812.2,461.0 L811.9,461.4 L812.0,461.3 L811.9,461.3 L811.8,463.5 L812.0,462.7 L811.8,461.9 L812.6,463.9
		L812.7,463.3 L812.3,463.0 L812.4,462.7 L812.0,462.9 L812.1,462.7 L811.8,463.0 L811.9,462.9 L811.7,462.5
		L811.7,465.0 L811.8,463.9 L811.6,463.1 L811.5,462.7 L812.6,466.3 L812.6,465.6 L812.3,465.4 L812.3,465.0
		L812.0,465.1 L812.1,464.8 L812.0,464.7 L811.9,464.7 L811.8,464.4 L812.4,465.2 L812.6,464.8 L812.4,464.8
		L812.3,464.8 L812.3,465.0 L812.4,464.8 L812.2,465.2 L812.4,465.1 L812.2,465.5 L812.3,465.4 L812.1,465.8
		L812.3,465.8 L812.1,466.2 L812.3,466.0 L812.1,466.4 L812.4,466.4 L814.1,467.5 L814.0,467.1 L813.9,466.8
		L813.9,466.7 L813.8,466.6 L813.7,466.6 L813.7,466.7 L813.6,466.7 L813.6,466.8 L813.6,466.9 L813.5,467.1
		L813.5,467.2 L813.5,467.3 L813.5,467.5 L813.5,467.6 L813.4,467.7 L813.4,467.9 L813.4,468.0 L813.4,468.1
		L813.4,468.3 L813.4,468.4 L813.4,468.5 L813.4,468.7 L823.0,460.9 L825.0,461.5 L824.9,461.0 L824.9,460.8
		L825.1,460.5 L825.0,460.5 L825.2,460.4 L825.3,460.4 L825.5,460.4 L827.0,460.0 L944.7,504.3 L944.7,504.5
		L944.8,504.3 L944.9,504.2 L944.8,504.2 L944.9,504.2 L944.8,504.2 L944.9,504.1 L944.9,504.2 L944.9,504.1
		L945.0,504.1 L944.8,504.1 L944.9,504.1 L944.9,503.9 L945.0,503.9 L945.1,503.9 L945.2,503.9 L945.2,503.8
		L945.3,503.8 L945.3,503.7 L945.2,503.7 L945.3,503.7 L945.3,503.8 L945.4,503.8 L945.4,503.7 L945.3,503.7
		L945.4,503.7 L945.3,503.7 L945.5,503.7 L945.3,503.7 L945.4,503.7 L945.2,503.7 L945.3,503.8 L945.3,503.7
		L945.4,503.7 L945.2,503.7 L945.3,503.7 L945.2,503.7 L945.4,503.5 L945.2,503.7 L945.3,503.7 L945.3,503.5
		L945.4,503.5 L945.3,503.5 L945.4,503.5 L945.3,503.5 L945.4,503.5 L945.4,503.4 L945.5,503.3 L945.5,503.5
		L945.5,503.3 L945.5,503.4 L945.5,503.3 L945.6,503.3 L945.6,503.1 L945.7,503.1 L945.7,503.0 L945.8,503.0
		L945.8,502.9 L945.9,502.9 L945.9,502.7 L945.9,502.9 L945.9,502.7 L946.0,502.7 L946.1,502.7  '/></g>
	</g>
<g fill="none" color="white" stroke="rgb(240, 228,  66)" stroke-width="2.00" stroke-linecap="butt" stroke-linejoin="miter">
</g>
<g fill="none" color="black" stroke="currentColor" stroke-width="2.00" stroke-linecap="butt" stroke-linejoin="miter">
</g>
<g fill="none" color="black" stroke="black" stroke-width="1.00" stroke-linecap="butt" stroke-linejoin="miter">
</g>
<g fill="none" color="black" stroke="currentColor" stroke-width="1.00" stroke-linecap="butt" stroke-linejoin="miter">
	<path stroke='black'  d='M175.5,117.1 L175.5,775.2 L1052.8,775.2 L1052.8,117.1 L175.5,117.1 Z  '/></g>
<g fill="none" color="black" stroke="currentColor" stroke-width="1.00" stroke-linecap="butt" stroke-linejoin="miter">
</g>
</g>
</svg>

