<?xml version="1.0" encoding="utf-8"  standalone="no"?>
<!DOCTYPE svg PUBLIC "-//W3C//DTD SVG 1.1//EN"
 "http://www.w3.org/Graphics/SVG/1.1/DTD/svg11.dtd">
<svg 
 width="1400" height="900"
 viewBox="0 0 1400 900"
 xmlns="http://www.w3.org/2000/svg"
 xmlns:xlink="http://www.w3.org/1999/xlink"
>

<title>Gnuplot</title>
<desc>Produced by GNUPLOT 5.0 patchlevel 5 </desc>

<g id="gnuplot_canvas">

<rect x="0" y="0" width="1400" height="900" fill="none"/>
<defs>

	<circle id='gpDot' r='0.5' stroke-width='0.5'/>
	<path id='gpPt0' stroke-width='0.103' stroke='currentColor' d='M-1,0 h2 M0,-1 v2'/>
	<path id='gpPt1' stroke-width='0.103' stroke='currentColor' d='M-1,-1 L1,1 M1,-1 L-1,1'/>
	<path id='gpPt2' stroke-width='0.103' stroke='currentColor' d='M-1,0 L1,0 M0,-1 L0,1 M-1,-1 L1,1 M-1,1 L1,-1'/>
	<rect id='gpPt3' stroke-width='0.103' stroke='currentColor' x='-1' y='-1' width='2' height='2'/>
	<rect id='gpPt4' stroke-width='0.103' stroke='currentColor' fill='currentColor' x='-1' y='-1' width='2' height='2'/>
	<circle id='gpPt5' stroke-width='0.103' stroke='currentColor' cx='0' cy='0' r='1'/>
	<use xlink:href='#gpPt5' id='gpPt6' fill='currentColor' stroke='none'/>
	<path id='gpPt7' stroke-width='0.103' stroke='currentColor' d='M0,-1.33 L-1.33,0.67 L1.33,0.67 z'/>
	<use xlink:href='#gpPt7' id='gpPt8' fill='currentColor' stroke='none'/>
	<use xlink:href='#gpPt7' id='gpPt9' stroke='currentColor' transform='rotate(180)'/>
	<use xlink:href='#gpPt9' id='gpPt10' fill='currentColor' stroke='none'/>
	<use xlink:href='#gpPt3' id='gpPt11' stroke='currentColor' transform='rotate(45)'/>
	<use xlink:href='#gpPt11' id='gpPt12' fill='currentColor' stroke='none'/>
	<path id='gpPt13' stroke-width='0.103' stroke='currentColor' d='M0,1.330 L1.265,0.411 L0.782,-1.067 L-0.782,-1.076 L-1.265,0.411 z'/>
	<use xlink:href='#gpPt13' id='gpPt14' fill='currentColor' stroke='none'/>
	<filter id='textbox' filterUnits='objectBoundingBox' x='0' y='0' height='1' width='1'>
	  <feFlood flood-color='white' flood-opacity='1' result='bgnd'/>
	  <feComposite in='SourceGraphic' in2='bgnd' operator='atop'/>
	</filter>
	<filter id='greybox' filterUnits='objectBoundingBox' x='0' y='0' height='1' width='1'>
	  <feFlood flood-color='lightgrey' flood-opacity='1' result='grey'/>
	  <feComposite in='SourceGraphic' in2='grey' operator='atop'/>
	</filter>
</defs>
<g fill="none" color="white" stroke="black" stroke-width="1.00" stroke-linecap="butt" stroke-linejoin="miter">
</g>
<g fill="none" color="black" stroke="currentColor" stroke-width="1.00" stroke-linecap="butt" stroke-linejoin="miter">
	<path stroke='black'  d='M175.5,775.2 L195.0,775.2  '/>	<g transform="translate(157.3,783.7)" stroke="none" fill="black" font-family="Helvetica" font-size="26.00"  text-anchor="end">
		<text><tspan font-family="Helvetica" >-200</tspan></text>
	</g>
</g>
<g fill="none" color="black" stroke="currentColor" stroke-width="1.00" stroke-linecap="butt" stroke-linejoin="miter">
	<path stroke='black'  d='M175.5,692.9 L195.0,692.9  '/>	<g transform="translate(157.3,701.4)" stroke="none" fill="black" font-family="Helvetica" font-size="26.00"  text-anchor="end">
		<text><tspan font-family="Helvetica" > 0</tspan></text>
	</g>
</g>
<g fill="none" color="black" stroke="currentColor" stroke-width="1.00" stroke-linecap="butt" stroke-linejoin="miter">
	<path stroke='black'  d='M175.5,610.7 L195.0,610.7  '/>	<g transform="translate(157.3,619.2)" stroke="none" fill="black" font-family="Helvetica" font-size="26.00"  text-anchor="end">
		<text><tspan font-family="Helvetica" > 200</tspan></text>
	</g>
</g>
<g fill="none" color="black" stroke="currentColor" stroke-width="1.00" stroke-linecap="butt" stroke-linejoin="miter">
	<path stroke='black'  d='M175.5,528.4 L195.0,528.4  '/>	<g transform="translate(157.3,536.9)" stroke="none" fill="black" font-family="Helvetica" font-size="26.00"  text-anchor="end">
		<text><tspan font-family="Helvetica" > 400</tspan></text>
	</g>
</g>
<g fill="none" color="black" stroke="currentColor" stroke-width="1.00" stroke-linecap="butt" stroke-linejoin="miter">
	<path stroke='black'  d='M175.5,446.1 L195.0,446.1  '/>	<g transform="translate(157.3,454.6)" stroke="none" fill="black" font-family="Helvetica" font-size="26.00"  text-anchor="end">
		<text><tspan font-family="Helvetica" > 600</tspan></text>
	</g>
</g>
<g fill="none" color="black" stroke="currentColor" stroke-width="1.00" stroke-linecap="butt" stroke-linejoin="miter">
	<path stroke='black'  d='M175.5,363.9 L195.0,363.9  '/>	<g transform="translate(157.3,372.4)" stroke="none" fill="black" font-family="Helvetica" font-size="26.00"  text-anchor="end">
		<text><tspan font-family="Helvetica" > 800</tspan></text>
	</g>
</g>
<g fill="none" color="black" stroke="currentColor" stroke-width="1.00" stroke-linecap="butt" stroke-linejoin="miter">
	<path stroke='black'  d='M175.5,281.6 L195.0,281.6  '/>	<g transform="translate(157.3,290.1)" stroke="none" fill="black" font-family="Helvetica" font-size="26.00"  text-anchor="end">
		<text><tspan font-family="Helvetica" > 1000</tspan></text>
	</g>
</g>
<g fill="none" color="black" stroke="currentColor" stroke-width="1.00" stroke-linecap="butt" stroke-linejoin="miter">
	<path stroke='black'  d='M175.5,199.4 L195.0,199.4  '/>	<g transform="translate(157.3,207.9)" stroke="none" fill="black" font-family="Helvetica" font-size="26.00"  text-anchor="end">
		<text><tspan font-family="Helvetica" > 1200</tspan></text>
	</g>
</g>
<g fill="none" color="black" stroke="currentColor" stroke-width="1.00" stroke-linecap="butt" stroke-linejoin="miter">
	<path stroke='black'  d='M175.5,117.1 L195.0,117.1  '/>	<g transform="translate(157.3,125.6)" stroke="none" fill="black" font-family="Helvetica" font-size="26.00"  text-anchor="end">
		<text><tspan font-family="Helvetica" > 1400</tspan></text>
	</g>
</g>
<g fill="none" color="black" stroke="currentColor" stroke-width="1.00" stroke-linecap="butt" stroke-linejoin="miter">
	<path stroke='black'  d='M209.4,775.2 L209.4,755.7 M209.4,117.1 L209.4,136.6  '/>	<g transform="translate(209.4,822.7)" stroke="none" fill="black" font-family="Helvetica" font-size="26.00"  text-anchor="middle">
		<text><tspan font-family="Helvetica" > 1</tspan></text>
	</g>
</g>
<g fill="none" color="black" stroke="currentColor" stroke-width="1.00" stroke-linecap="butt" stroke-linejoin="miter">
	<path stroke='black'  d='M378.6,775.2 L378.6,755.7 M378.6,117.1 L378.6,136.6  '/>	<g transform="translate(378.6,822.7)" stroke="none" fill="black" font-family="Helvetica" font-size="26.00"  text-anchor="middle">
		<text><tspan font-family="Helvetica" > 1.5</tspan></text>
	</g>
</g>
<g fill="none" color="black" stroke="currentColor" stroke-width="1.00" stroke-linecap="butt" stroke-linejoin="miter">
	<path stroke='black'  d='M547.9,775.2 L547.9,755.7 M547.9,117.1 L547.9,136.6  '/>	<g transform="translate(547.9,822.7)" stroke="none" fill="black" font-family="Helvetica" font-size="26.00"  text-anchor="middle">
		<text><tspan font-family="Helvetica" > 2</tspan></text>
	</g>
</g>
<g fill="none" color="black" stroke="currentColor" stroke-width="1.00" stroke-linecap="butt" stroke-linejoin="miter">
	<path stroke='black'  d='M717.1,775.2 L717.1,755.7 M717.1,117.1 L717.1,136.6  '/>	<g transform="translate(717.1,822.7)" stroke="none" fill="black" font-family="Helvetica" font-size="26.00"  text-anchor="middle">
		<text><tspan font-family="Helvetica" > 2.5</tspan></text>
	</g>
</g>
<g fill="none" color="black" stroke="currentColor" stroke-width="1.00" stroke-linecap="butt" stroke-linejoin="miter">
	<path stroke='black'  d='M886.4,775.2 L886.4,755.7 M886.4,117.1 L886.4,136.6  '/>	<g transform="translate(886.4,822.7)" stroke="none" fill="black" font-family="Helvetica" font-size="26.00"  text-anchor="middle">
		<text><tspan font-family="Helvetica" > 3</tspan></text>
	</g>
</g>
<g fill="none" color="black" stroke="currentColor" stroke-width="1.00" stroke-linecap="butt" stroke-linejoin="miter">
	<path stroke='black'  d='M886.4,775.2 L866.9,775.2  '/>	<g transform="translate(904.6,783.7)" stroke="none" fill="black" font-family="Helvetica" font-size="26.00"  text-anchor="start">
		<text><tspan font-family="Helvetica" >-200</tspan></text>
	</g>
</g>
<g fill="none" color="black" stroke="currentColor" stroke-width="1.00" stroke-linecap="butt" stroke-linejoin="miter">
	<path stroke='black'  d='M886.4,692.9 L866.9,692.9  '/>	<g transform="translate(904.6,701.4)" stroke="none" fill="black" font-family="Helvetica" font-size="26.00"  text-anchor="start">
		<text><tspan font-family="Helvetica" > 0</tspan></text>
	</g>
</g>
<g fill="none" color="black" stroke="currentColor" stroke-width="1.00" stroke-linecap="butt" stroke-linejoin="miter">
	<path stroke='black'  d='M886.4,610.7 L866.9,610.7  '/>	<g transform="translate(904.6,619.2)" stroke="none" fill="black" font-family="Helvetica" font-size="26.00"  text-anchor="start">
		<text><tspan font-family="Helvetica" > 200</tspan></text>
	</g>
</g>
<g fill="none" color="black" stroke="currentColor" stroke-width="1.00" stroke-linecap="butt" stroke-linejoin="miter">
	<path stroke='black'  d='M886.4,528.4 L866.9,528.4  '/>	<g transform="translate(904.6,536.9)" stroke="none" fill="black" font-family="Helvetica" font-size="26.00"  text-anchor="start">
		<text><tspan font-family="Helvetica" > 400</tspan></text>
	</g>
</g>
<g fill="none" color="black" stroke="currentColor" stroke-width="1.00" stroke-linecap="butt" stroke-linejoin="miter">
	<path stroke='black'  d='M886.4,446.1 L866.9,446.1  '/>	<g transform="translate(904.6,454.6)" stroke="none" fill="black" font-family="Helvetica" font-size="26.00"  text-anchor="start">
		<text><tspan font-family="Helvetica" > 600</tspan></text>
	</g>
</g>
<g fill="none" color="black" stroke="currentColor" stroke-width="1.00" stroke-linecap="butt" stroke-linejoin="miter">
	<path stroke='black'  d='M886.4,363.9 L866.9,363.9  '/>	<g transform="translate(904.6,372.4)" stroke="none" fill="black" font-family="Helvetica" font-size="26.00"  text-anchor="start">
		<text><tspan font-family="Helvetica" > 800</tspan></text>
	</g>
</g>
<g fill="none" color="black" stroke="currentColor" stroke-width="1.00" stroke-linecap="butt" stroke-linejoin="miter">
	<path stroke='black'  d='M886.4,281.6 L866.9,281.6  '/>	<g transform="translate(904.6,290.1)" stroke="none" fill="black" font-family="Helvetica" font-size="26.00"  text-anchor="start">
		<text><tspan font-family="Helvetica" > 1000</tspan></text>
	</g>
</g>
<g fill="none" color="black" stroke="currentColor" stroke-width="1.00" stroke-linecap="butt" stroke-linejoin="miter">
	<path stroke='black'  d='M886.4,199.4 L866.9,199.4  '/>	<g transform="translate(904.6,207.9)" stroke="none" fill="black" font-family="Helvetica" font-size="26.00"  text-anchor="start">
		<text><tspan font-family="Helvetica" > 1200</tspan></text>
	</g>
</g>
<g fill="none" color="black" stroke="currentColor" stroke-width="1.00" stroke-linecap="butt" stroke-linejoin="miter">
	<path stroke='black'  d='M886.4,117.1 L866.9,117.1  '/>	<g transform="translate(904.6,125.6)" stroke="none" fill="black" font-family="Helvetica" font-size="26.00"  text-anchor="start">
		<text><tspan font-family="Helvetica" > 1400</tspan></text>
	</g>
</g>
<g fill="none" color="black" stroke="currentColor" stroke-width="1.00" stroke-linecap="butt" stroke-linejoin="miter">
</g>
<g fill="none" color="black" stroke="currentColor" stroke-width="1.00" stroke-linecap="butt" stroke-linejoin="miter">
	<path stroke='black'  d='M175.5,117.1 L175.5,775.2 L886.4,775.2 L886.4,117.1 L175.5,117.1 Z  '/></g>
<g fill="none" color="black" stroke="currentColor" stroke-width="1.00" stroke-linecap="butt" stroke-linejoin="miter">
	<g transform="translate(37.0,446.2) rotate(270)" stroke="none" fill="black" font-family="Helvetica-Bold" font-size="26.00"  text-anchor="middle">
		<text><tspan font-family="Helvetica-Bold" >E, kJ/mol</tspan></text>
	</g>
</g>
<g fill="none" color="black" stroke="currentColor" stroke-width="1.00" stroke-linecap="butt" stroke-linejoin="miter">
	<g transform="translate(1041.6,446.2) rotate(270)" stroke="none" fill="black" font-family="Helvetica" font-size="26.00"  text-anchor="middle">
		<text><tspan font-family="Helvetica" >E, kJ/mol</tspan></text>
	</g>
</g>
<g fill="none" color="black" stroke="currentColor" stroke-width="1.00" stroke-linecap="butt" stroke-linejoin="miter">
	<g transform="translate(530.9,881.2)" stroke="none" fill="black" font-family="Helvetica-Bold" font-size="26.00"  text-anchor="middle">
		<text><tspan font-family="Helvetica-Bold" >d(C1-N1), A</tspan></text>
	</g>
</g>
<g fill="none" color="black" stroke="currentColor" stroke-width="1.00" stroke-linecap="butt" stroke-linejoin="miter">
	<g transform="translate(530.9,67.1)" stroke="none" fill="black" font-family="Helvetica" font-size="26.00"  text-anchor="middle">
		<text><tspan font-family="Helvetica"  font-weight="bold" >PhN</tspan><tspan font-family="Helvetica"  font-weight="bold"  font-size="20.8" dy="7.80px">2</tspan><tspan font-family="Helvetica"  font-weight="bold"  dy="-20.80px">+</tspan><tspan font-family="Helvetica"  font-weight="bold"  font-size="26.0" dy="13.00px"> X</tspan><tspan font-family="Helvetica"  font-weight="bold"  font-size="20.8" dy="-13.00px">-</tspan><tspan font-size="26.0" dy="13.00"></tspan></text>
	</g>
</g>
<g fill="none" color="black" stroke="black" stroke-width="0.20" stroke-linecap="butt" stroke-linejoin="miter">
</g>
<g fill="none" color="black" stroke="currentColor" stroke-width="0.20" stroke-linecap="butt" stroke-linejoin="miter">
	<path stroke='black'  d='M1089.2,312.1 L1089.2,117.1 L1381.7,117.1 L1381.7,312.1 L1089.2,312.1 Z  '/></g>
	<g id="gnuplot_plot_1" ><title>PhN2+</title>
<g fill="none" color="white" stroke="black" stroke-width="3.00" stroke-linecap="butt" stroke-linejoin="miter">
</g>
<g fill="none" color="black" stroke="currentColor" stroke-width="3.00" stroke-linecap="butt" stroke-linejoin="miter">
	<g transform="translate(1253.0,145.1)" stroke="none" fill="black" font-family="Helvetica" font-size="26.00"  text-anchor="end">
		<text><tspan font-family="Helvetica" >PhN</tspan><tspan font-family="Helvetica"  font-size="20.8" dy="7.80px">2</tspan><tspan font-family="Helvetica"  dy="-20.80px">+</tspan><tspan font-size="26.0" dy="13.00"></tspan></text>
	</g>
</g>
<g fill="none" color="black" stroke="currentColor" stroke-width="3.00" stroke-linecap="butt" stroke-linejoin="miter">
	<path stroke='rgb(255,   0,   0)'  d='M1271.2,136.6 L1363.5,136.6 M175.5,169.2 L178.9,205.7 L182.3,239.9 L185.7,272.2 L189.1,302.5 L192.5,330.9
		L195.9,357.7 L199.3,382.7 L202.6,406.2 L206.0,428.3 L209.4,449.0 L212.8,468.3 L216.2,486.4 L219.6,503.4
		L223.0,519.2 L226.4,534.0 L229.8,547.8 L233.2,560.6 L236.6,572.6 L240.0,583.7 L243.4,594.1 L246.8,603.7
		L250.2,612.5 L253.6,620.8 L256.9,628.4 L260.3,635.4 L263.7,641.8 L267.1,647.7 L270.5,653.2 L273.9,658.1
		L277.3,662.6 L280.7,666.7 L284.1,670.5 L287.5,673.8 L290.9,676.8 L294.3,679.5 L297.7,681.9 L301.1,684.0
		L304.5,685.8 L307.9,687.4 L311.2,688.7 L314.6,689.9 L318.0,690.8 L321.4,691.6 L324.8,692.1 L328.2,692.5
		L331.6,692.8 L335.0,692.9 L338.4,692.9 L341.8,692.8 L345.2,692.6 L348.6,692.3 L352.0,691.9 L355.4,691.4
		L358.8,690.8 L362.2,690.2 L365.5,689.5 L368.9,688.7 L372.3,687.9 L375.7,687.1 L379.1,686.2 L382.5,685.3
		L385.9,684.4 L389.3,683.4 L392.7,682.5 L396.1,681.5 L399.5,680.5 L402.9,679.5 L406.3,678.5 L409.7,677.5
		L413.1,676.6 L416.5,675.6 L419.8,674.6 L423.2,673.6 L426.6,672.7 L430.0,671.7 L433.4,670.8 L436.8,669.9
		L440.2,669.0 L443.6,668.1 L447.0,667.2 L450.4,666.4 L453.8,665.5 L457.2,664.7 L460.6,663.9 L464.0,663.2
		L467.4,662.4 L470.8,661.7 L474.1,661.0 L477.5,660.3 L480.9,659.6 L484.3,659.0 L487.7,658.3 L491.1,657.7
		L494.5,657.1 L497.9,656.6 L501.3,656.0 L504.7,655.5 L508.1,654.9 L511.5,654.4 L514.9,653.9 L518.3,653.5
		L521.7,653.0 L525.1,652.6 L528.4,652.1 L531.8,651.7 L535.2,651.3 L538.6,650.9 L542.0,650.6 L545.4,650.2
		L548.8,649.8 L552.2,649.5 L555.6,649.2 L559.0,648.9 L562.4,648.5 L565.8,648.3 L569.2,648.0 L572.6,647.7
		L576.0,647.4 L579.4,647.2 L582.7,646.9 L586.1,646.6 L589.5,646.4 L592.9,646.2 L596.3,645.9 L599.7,645.7
		L603.1,645.5 L606.5,645.3 L609.9,645.1 L613.3,644.9 L616.7,644.7 L620.1,644.5 L623.5,644.3 L626.9,644.1
		L630.3,644.0 L633.7,643.8 L637.0,643.6 L640.4,643.4 L643.8,643.3 L647.2,643.1 L650.6,643.0 L654.0,642.8
		L657.4,642.6 L660.8,642.5 L664.2,642.3 L667.6,642.2 L671.0,642.0 L674.4,641.9 L677.8,641.8 L681.2,641.6
		L684.6,641.5 L688.0,641.4 L691.3,641.2 L694.7,641.1 L698.1,641.0 L701.5,640.8 L704.9,640.7 L708.3,640.6
		L711.7,640.4 L715.1,640.3 L718.5,640.2 L721.9,640.1 L725.3,639.9 L728.7,639.8 L732.1,639.7 L735.5,639.6
		L738.9,639.5 L742.3,639.4 L745.6,639.2 L749.0,639.1 L752.4,639.0 L755.8,638.9 L759.2,638.8 L762.6,638.7
		L766.0,638.6 L769.4,638.5 L772.8,638.4 L776.2,638.3 L779.6,638.1 L783.0,638.0 L786.4,637.9 L789.8,637.8
		L793.2,637.7 L796.6,637.6 L799.9,637.5 L803.3,637.4 L806.7,637.3 L810.1,637.2 L813.5,637.1 L816.9,637.0
		L820.3,636.9 L823.7,636.8 L827.1,636.8 L830.5,636.7 L833.9,636.6 L837.3,636.5 L840.7,636.4 L844.1,636.3
		L847.5,636.2 L850.9,636.1 L854.2,636.0 L857.6,635.9 L861.0,635.8 L864.4,635.8 L867.8,635.7 L871.2,635.6
		L874.6,635.5 L878.0,635.4 L881.4,635.3 L884.8,635.3 L886.4,635.2  '/></g>
	</g>
	<g id="gnuplot_plot_2" ><title>PhN2+ Cl-</title>
<g fill="none" color="black" stroke="currentColor" stroke-width="3.00" stroke-linecap="butt" stroke-linejoin="miter">
	<g transform="translate(1253.0,184.1)" stroke="none" fill="black" font-family="Helvetica" font-size="26.00"  text-anchor="end">
		<text><tspan font-family="Helvetica" >PhN</tspan><tspan font-family="Helvetica"  font-size="20.8" dy="7.80px">2</tspan><tspan font-family="Helvetica"  dy="-20.80px">+</tspan><tspan font-family="Helvetica"  font-size="26.0" dy="13.00px"> Cl</tspan><tspan font-family="Helvetica"  font-size="20.8" dy="-13.00px">-</tspan><tspan font-size="26.0" dy="13.00"></tspan></text>
	</g>
</g>
<g fill="none" color="black" stroke="currentColor" stroke-width="3.00" stroke-linecap="butt" stroke-linejoin="miter">
	<path stroke='rgb(  0,   0, 255)'  d='M1271.2,175.6 L1363.5,175.6 M175.5,157.7 L178.9,193.4 L182.3,227.0 L185.7,258.6 L189.1,288.3 L192.5,316.2
		L195.9,342.4 L199.3,367.1 L202.6,390.2 L206.0,411.9 L209.4,432.7 L212.8,452.0 L216.2,470.1 L219.6,487.2
		L223.0,503.2 L226.4,518.3 L229.8,532.5 L233.2,545.7 L236.6,558.0 L240.0,569.6 L243.4,580.3 L246.8,590.4
		L250.2,599.7 L253.6,608.5 L256.9,616.6 L260.3,624.1 L263.7,631.0 L267.1,637.5 L270.5,643.5 L273.9,649.0
		L277.3,654.0 L280.7,658.7 L284.1,662.9 L287.5,666.8 L290.9,670.4 L294.3,673.6 L297.7,676.6 L301.1,679.2
		L304.5,681.5 L307.9,683.7 L311.2,685.5 L314.6,687.1 L318.0,688.6 L321.4,689.8 L324.8,690.8 L328.2,691.7
		L331.6,692.4 L335.0,692.9 L338.4,693.3 L341.8,693.6 L345.2,693.7 L348.6,693.8 L352.0,693.7 L355.4,693.5
		L358.8,693.2 L362.2,692.8 L365.5,692.4 L368.9,691.9 L372.3,691.3 L375.7,690.6 L379.1,689.9 L382.5,689.1
		L385.9,688.3 L389.3,687.4 L392.7,686.5 L396.1,685.6 L399.5,684.6 L402.9,683.6 L406.3,682.6 L409.7,681.6
		L413.1,680.5 L416.5,679.4 L419.8,678.3 L423.2,677.2 L426.6,676.1 L430.0,675.0 L433.4,673.8 L436.8,672.7
		L440.2,671.5 L443.6,670.4 L447.0,669.3 L450.4,668.1 L453.8,667.0 L457.2,665.9 L460.6,664.8 L464.0,663.6
		L467.4,662.5 L470.8,661.5 L474.1,660.4 L477.5,659.3 L480.9,658.2 L484.3,657.2 L487.7,656.2 L491.1,655.1
		L494.5,654.1 L497.9,653.2 L501.3,652.2 L504.7,651.2 L508.1,650.3 L511.5,649.4 L514.9,648.5 L518.3,647.6
		L521.7,646.7 L525.1,645.8 L528.4,645.0 L531.8,644.2 L535.2,643.4 L538.6,642.6 L542.0,641.9 L545.4,641.2
		L548.8,640.5 L552.2,639.8 L555.6,639.2 L559.0,638.5 L562.4,637.9 L565.8,637.4 L569.2,636.9 L572.6,636.4
		L576.0,636.0 L579.4,635.6 L582.7,635.3 L586.1,635.1 L589.5,634.9 L592.9,634.7 L596.3,634.6 L599.7,634.5
		L603.1,634.4 L606.5,634.4 L609.9,634.4 L613.3,634.4 L616.7,634.4 L620.1,634.4 L623.5,634.4 L626.9,634.5
		L630.3,634.5 L633.7,634.6 L637.0,634.6 L640.4,634.7 L643.8,634.8 L647.2,634.8 L650.6,634.9 L654.0,635.0
		L657.4,635.1 L660.8,635.2 L664.2,635.3 L667.6,635.4 L671.0,635.5 L674.4,636.4 L677.8,636.6 L681.2,636.8
		L684.6,636.9 L688.0,637.1 L691.3,637.3 L694.7,637.5 L698.1,637.6 L701.5,637.8 L704.9,637.9 L708.3,638.1
		L711.7,638.2 L715.1,638.4 L718.5,638.5 L721.9,638.7 L725.3,638.8 L728.7,638.9 L732.1,639.0 L735.5,639.1
		L738.9,639.3 L742.3,639.4 L745.6,639.5 L749.0,639.6 L752.4,639.7 L755.8,639.8 L759.2,639.9 L762.6,640.0
		L766.0,640.0 L769.4,640.1 L772.8,640.2 L776.2,640.3 L779.6,640.4 L783.0,640.4 L786.4,640.5 L789.8,640.6
		L793.2,640.6 L796.6,640.7 L799.9,640.8 L803.3,640.8 L806.7,640.9 L810.1,640.9 L813.5,641.0 L816.9,641.0
		L820.3,641.1 L823.7,641.1 L827.1,641.1 L830.5,641.2 L833.9,641.2 L837.3,641.3 L840.7,641.3 L844.1,641.3
		L847.5,641.4 L850.9,641.4 L854.2,641.4 L857.6,641.4 L861.0,641.5 L864.4,641.5 L867.8,641.5 L871.2,641.5
		L874.6,641.6 L878.0,641.6 L881.4,641.6 L884.8,641.6 L886.4,641.6  '/></g>
	</g>
	<g id="gnuplot_plot_3" ><title>PhN2+ BF4-</title>
<g fill="none" color="black" stroke="currentColor" stroke-width="3.00" stroke-linecap="butt" stroke-linejoin="miter">
	<g transform="translate(1253.0,223.1)" stroke="none" fill="black" font-family="Helvetica" font-size="26.00"  text-anchor="end">
		<text><tspan font-family="Helvetica" >PhN</tspan><tspan font-family="Helvetica"  font-size="20.8" dy="7.80px">2</tspan><tspan font-family="Helvetica"  dy="-20.80px">+</tspan><tspan font-family="Helvetica"  font-size="26.0" dy="13.00px"> BF</tspan><tspan font-family="Helvetica"  font-size="20.8" dy="7.80px">4</tspan><tspan font-family="Helvetica"  dy="-20.80px">-</tspan><tspan font-size="26.0" dy="13.00"></tspan></text>
	</g>
</g>
<g fill="none" color="black" stroke="currentColor" stroke-width="3.00" stroke-linecap="butt" stroke-linejoin="miter">
	<path stroke='rgb(  0, 255,   0)'  d='M1271.2,214.6 L1363.5,214.6 M175.5,167.0 L178.9,203.3 L182.3,237.4 L185.7,269.5 L189.1,299.6 L192.5,327.9
		L195.9,354.6 L199.3,379.5 L202.6,402.9 L206.0,424.9 L209.4,445.4 L212.8,464.7 L216.2,482.8 L219.6,499.6
		L223.0,515.4 L226.4,530.1 L229.8,543.9 L233.2,556.7 L236.6,568.6 L240.0,579.7 L243.4,590.1 L246.8,599.7
		L250.2,608.5 L253.6,616.8 L256.9,624.4 L260.3,631.4 L263.7,637.9 L267.1,643.8 L270.5,649.3 L273.9,654.3
		L277.3,658.9 L280.7,663.0 L284.1,666.8 L287.5,670.2 L290.9,673.3 L294.3,676.1 L297.7,678.6 L301.1,680.8
		L304.5,682.7 L307.9,684.4 L311.2,687.7 L314.6,689.0 L318.0,690.1 L321.4,691.0 L324.8,691.7 L328.2,692.3
		L331.6,692.7 L335.0,692.9 L338.4,693.1 L341.8,693.1 L345.2,693.0 L348.6,692.8 L352.0,692.5 L355.4,692.1
		L358.8,691.8 L362.2,691.2 L365.5,690.6 L368.9,690.0 L372.3,689.3 L375.7,688.5 L379.1,687.7 L382.5,686.9
		L385.9,686.0 L389.3,685.1 L392.7,684.1 L396.1,683.2 L399.5,682.2 L402.9,681.2 L406.3,680.2 L409.7,679.2
		L413.1,678.2 L416.5,677.2 L419.8,676.2 L423.2,675.1 L426.6,674.1 L430.0,673.1 L433.4,672.1 L436.8,671.1
		L440.2,670.1 L443.6,669.1 L447.0,668.2 L450.4,667.2 L453.8,666.2 L457.2,665.3 L460.6,664.4 L464.0,663.5
		L467.4,662.6 L470.8,661.7 L474.1,660.8 L477.5,660.0 L480.9,659.2 L484.3,658.4 L487.7,657.6 L491.1,656.9
		L494.5,656.1 L497.9,655.4 L501.3,654.7 L504.7,654.0 L508.1,653.3 L511.5,652.7 L514.9,652.1 L518.3,651.5
		L521.7,650.9 L525.1,650.3 L528.4,649.7 L531.8,649.2 L535.2,648.7 L538.6,648.2 L542.0,647.7 L545.4,647.2
		L548.8,646.8 L552.2,646.3 L555.6,645.9 L559.0,645.5 L562.4,645.1 L565.8,644.7 L569.2,644.3 L572.6,644.0
		L576.0,643.6 L579.4,643.3 L582.7,643.0 L586.1,642.7 L589.5,642.4 L592.9,642.1 L596.3,641.8 L599.7,641.5
		L603.1,641.2 L606.5,641.1 L609.9,640.9 L613.3,640.6 L616.7,640.4 L620.1,640.2 L623.5,640.0 L626.9,639.8
		L630.3,639.6 L633.7,639.4 L637.0,639.2 L640.4,639.2 L643.8,639.0 L647.2,638.8 L650.6,638.7 L654.0,638.9
		L657.4,711.3 L660.8,743.7 L664.2,748.4 L667.6,749.0 L671.0,749.6 L674.4,750.2 L677.8,750.7 L681.2,751.3
		L684.6,751.8 L688.0,752.3 L691.3,752.8 L694.7,753.3 L698.1,753.7 L701.5,754.2 L704.9,754.6 L708.3,755.1
		L711.7,755.5 L715.1,755.9 L718.5,756.2 L721.9,756.6 L725.3,757.0 L728.7,757.3 L732.1,757.7 L735.5,758.0
		L738.9,758.3 L742.3,758.6 L745.6,758.9 L749.0,759.2 L752.4,759.5 L755.8,759.7 L759.2,760.0 L762.6,760.2
		L766.0,760.5 L769.4,760.7 L772.8,760.9 L776.2,761.2 L779.6,761.4 L783.0,761.6 L786.4,761.8 L789.8,762.0
		L793.2,762.1 L796.6,762.3 L799.9,762.5 L803.3,762.6 L806.7,762.8 L810.1,762.9 L813.5,763.1 L816.9,763.2
		L820.3,763.4 L823.7,763.5 L827.1,763.6 L830.5,763.7 L833.9,763.9 L837.3,764.0 L840.7,764.1 L844.1,764.2
		L847.5,764.3 L850.9,764.4 L854.2,764.4 L857.6,764.5 L861.0,764.6 L864.4,764.7 L867.8,764.8 L871.2,764.8
		L874.6,764.9 L878.0,765.0 L881.4,765.0 L884.8,765.1 L886.4,765.1  '/></g>
	</g>
	<g id="gnuplot_plot_4" ><title>PhN2+ TfO-</title>
<g fill="none" color="black" stroke="currentColor" stroke-width="3.00" stroke-linecap="butt" stroke-linejoin="miter">
	<g transform="translate(1253.0,262.1)" stroke="none" fill="black" font-family="Helvetica" font-size="26.00"  text-anchor="end">
		<text><tspan font-family="Helvetica" >PhN</tspan><tspan font-family="Helvetica"  font-size="20.8" dy="7.80px">2</tspan><tspan font-family="Helvetica"  dy="-20.80px">+</tspan><tspan font-family="Helvetica"  font-size="26.0" dy="13.00px"> TfO</tspan><tspan font-family="Helvetica"  font-size="20.8" dy="-13.00px">-</tspan><tspan font-size="26.0" dy="13.00"></tspan></text>
	</g>
</g>
<g fill="none" color="black" stroke="currentColor" stroke-width="3.00" stroke-linecap="butt" stroke-linejoin="miter">
	<path stroke='rgb(230, 159,   0)'  d='M1271.2,253.6 L1363.5,253.6 M175.5,149.7 L178.9,230.2 L182.3,263.4 L185.7,294.5 L189.1,323.6 L192.5,351.0
		L195.9,376.6 L199.3,400.6 L202.6,423.0 L206.0,444.0 L209.4,463.6 L212.8,481.9 L216.2,498.9 L219.6,514.8
		L223.0,529.6 L226.4,543.4 L229.8,556.1 L233.2,568.0 L236.6,578.9 L240.0,589.1 L243.4,598.4 L246.8,607.0
		L250.2,615.0 L253.6,622.2 L256.9,628.9 L260.3,634.9 L263.7,640.4 L267.1,645.4 L270.5,649.9 L273.9,654.0
		L277.3,657.6 L280.7,660.8 L284.1,663.7 L287.5,666.1 L290.9,668.3 L294.3,670.1 L297.7,671.6 L301.1,672.9
		L304.5,673.9 L307.9,674.7 L311.2,675.2 L314.6,675.5 L318.0,687.3 L321.4,691.0 L324.8,691.7 L328.2,692.3
		L331.6,692.7 L335.0,692.9 L338.4,693.1 L341.8,693.1 L345.2,693.0 L348.6,692.7 L352.0,692.4 L355.4,692.0
		L358.8,691.6 L362.2,691.0 L365.5,690.4 L368.9,689.7 L372.3,689.0 L375.7,688.2 L379.1,687.4 L382.5,686.5
		L385.9,685.6 L389.3,684.7 L392.7,683.7 L396.1,682.7 L399.5,681.7 L402.9,680.7 L406.3,679.7 L409.7,678.6
		L413.1,677.6 L416.5,676.5 L419.8,675.4 L423.2,674.4 L426.6,673.3 L430.0,672.2 L433.4,671.2 L436.8,670.1
		L440.2,669.1 L443.6,668.1 L447.0,667.0 L450.4,666.0 L453.8,665.0 L457.2,664.1 L460.6,663.1 L464.0,662.1
		L467.4,661.2 L470.8,660.3 L474.1,659.4 L477.5,658.6 L480.9,657.7 L484.3,656.9 L487.7,656.2 L491.1,655.4
		L494.5,654.7 L497.9,654.0 L501.3,653.3 L504.7,652.7 L508.1,654.9 L511.5,654.3 L514.9,653.7 L518.3,653.2
		L521.7,652.7 L525.1,652.2 L528.4,651.7 L531.8,651.3 L535.2,650.9 L538.6,650.6 L542.0,650.9 L545.4,650.5
		L548.8,650.1 L552.2,649.8 L555.6,649.4 L559.0,649.1 L562.4,648.8 L565.8,648.6 L569.2,648.3 L572.6,648.1
		L576.0,647.9 L579.4,647.7 L582.7,647.5 L586.1,647.4 L589.5,647.3 L592.9,647.1 L596.3,647.0 L599.7,646.9
		L603.1,646.8 L606.5,646.7 L609.9,646.6 L613.3,646.5 L616.7,646.4 L620.1,646.4 L623.5,646.3 L626.9,646.3
		L630.3,646.2 L633.7,646.2 L637.0,646.1 L640.4,646.1 L643.8,646.1 L647.2,646.1 L650.6,646.0 L654.0,646.0
		L657.4,646.0 L660.8,646.0 L664.2,646.0 L667.6,646.0 L671.0,646.0 L674.4,646.0 L677.8,646.0 L681.2,650.3
		L684.6,650.6 L688.0,650.8 L691.3,651.0 L694.7,651.1 L698.1,651.2 L701.5,651.4 L704.9,651.5 L708.3,651.6
		L711.7,651.8 L715.1,651.9 L718.5,652.0 L721.9,652.1 L725.3,652.2 L728.7,652.3 L732.1,652.4 L735.5,652.5
		L738.9,652.6 L742.3,652.7 L745.6,652.8 L749.0,652.9 L752.4,653.0 L755.8,653.1 L759.2,653.2 L762.6,653.2
		L766.0,653.3 L769.4,653.4 L772.8,653.5 L776.2,653.5 L779.6,653.6 L783.0,653.6 L786.4,653.7 L789.8,653.8
		L793.2,653.8 L796.6,653.9 L799.9,653.9 L803.3,654.0 L806.7,654.0 L810.1,654.1 L813.5,654.1 L816.9,654.1
		L820.3,654.2 L823.7,654.2 L827.1,654.3 L830.5,654.3 L833.9,654.3 L837.3,654.3 L840.7,654.4 L844.1,654.4
		L847.5,654.5 L850.9,654.5 L854.2,654.5 L857.6,654.6 L861.0,654.6 L864.4,654.6 L867.8,654.6 L871.2,654.7
		L874.6,654.7 L878.0,654.7 L881.4,654.7 L884.8,654.7 L886.4,654.7  '/></g>
	</g>
	<g id="gnuplot_plot_5" ><title>PhN2+ TsO-</title>
<g fill="none" color="black" stroke="currentColor" stroke-width="3.00" stroke-linecap="butt" stroke-linejoin="miter">
	<g transform="translate(1253.0,301.1)" stroke="none" fill="black" font-family="Helvetica" font-size="26.00"  text-anchor="end">
		<text><tspan font-family="Helvetica" >PhN</tspan><tspan font-family="Helvetica"  font-size="20.8" dy="7.80px">2</tspan><tspan font-family="Helvetica"  dy="-20.80px">+</tspan><tspan font-family="Helvetica"  font-size="26.0" dy="13.00px"> TsO</tspan><tspan font-family="Helvetica"  font-size="20.8" dy="-13.00px">-</tspan><tspan font-size="26.0" dy="13.00"></tspan></text>
	</g>
</g>
<g fill="none" color="black" stroke="currentColor" stroke-width="3.00" stroke-linecap="butt" stroke-linejoin="miter">
	<path stroke='rgb(240, 228,  66)'  d='M1271.2,292.6 L1363.5,292.6 M175.5,177.5 L178.9,253.0 L182.3,286.1 L185.7,317.1 L189.1,346.2 L192.5,373.5
		L195.9,399.0 L199.3,422.9 L202.6,445.3 L206.0,466.2 L209.4,485.7 L212.8,503.9 L216.2,520.9 L219.6,536.7
		L223.0,551.4 L226.4,565.1 L229.8,577.8 L233.2,589.6 L236.6,600.5 L240.0,610.5 L243.4,619.8 L246.8,628.3
		L250.2,636.2 L253.6,643.4 L256.9,649.9 L260.3,655.9 L263.7,661.3 L267.1,666.3 L270.5,670.7 L273.9,674.6
		L277.3,678.2 L280.7,681.3 L284.1,684.0 L287.5,686.4 L290.9,688.4 L294.3,690.2 L297.7,691.6 L301.1,692.9
		L304.5,693.8 L307.9,694.5 L311.2,694.9 L314.6,695.2 L318.0,695.2 L321.4,695.1 L324.8,694.8 L328.2,694.3
		L331.6,693.7 L335.0,692.9 L338.4,692.1 L341.8,691.1 L345.2,690.0 L348.6,688.9 L352.0,687.6 L355.4,686.3
		L358.8,684.9 L362.2,683.5 L365.5,682.0 L368.9,680.5 L372.3,678.9 L375.7,677.3 L379.1,675.7 L382.5,674.1
		L385.9,672.4 L389.3,670.8 L392.7,669.1 L396.1,667.5 L399.5,696.7 L402.9,695.9 L406.3,695.0 L409.7,694.2
		L413.1,693.3 L416.5,692.4 L419.8,691.5 L423.2,690.6 L426.6,689.6 L430.0,688.7 L433.4,687.8 L436.8,686.8
		L440.2,685.9 L443.6,684.9 L447.0,684.0 L450.4,683.0 L453.8,682.1 L457.2,681.2 L460.6,680.2 L464.0,679.3
		L467.4,678.4 L470.8,677.5 L474.1,676.6 L477.5,675.7 L480.9,674.9 L484.3,674.0 L487.7,673.2 L491.1,672.3
		L494.5,671.5 L497.9,670.7 L501.3,670.0 L504.7,669.2 L508.1,668.5 L511.5,667.7 L514.9,667.0 L518.3,666.3
		L521.7,665.7 L525.1,665.0 L528.4,664.4 L531.8,663.8 L535.2,663.2 L538.6,662.6 L542.0,662.1 L545.4,661.6
		L548.8,661.1 L552.2,660.6 L555.6,660.2 L559.0,659.8 L562.4,659.4 L565.8,659.0 L569.2,658.7 L572.6,658.4
		L576.0,658.5 L579.4,658.4 L582.7,658.2 L586.1,658.1 L589.5,657.9 L592.9,657.8 L596.3,657.7 L599.7,657.7
		L603.1,665.1 L606.5,665.4 L609.9,665.7 L613.3,666.0 L616.7,666.2 L620.1,666.5 L623.5,666.8 L626.9,667.1
		L630.3,667.3 L633.7,667.6 L637.0,667.8 L640.4,668.1 L643.8,668.3 L647.2,668.6 L650.6,668.8 L654.0,669.0
		L657.4,669.2 L660.8,669.5 L664.2,669.7 L667.6,669.9 L671.0,670.1 L674.4,670.3 L677.8,670.5 L681.2,670.7
		L684.6,670.8 L688.0,671.0 L691.3,671.2 L694.7,671.4 L698.1,671.5 L701.5,671.7 L704.9,671.8 L708.3,672.0
		L711.7,672.1 L715.1,672.3 L718.5,672.4 L721.9,672.5 L725.3,672.7 L728.7,672.8 L732.1,672.9 L735.5,673.0
		L738.9,673.1 L742.3,673.3 L745.6,673.4 L749.0,673.5 L752.4,673.6 L755.8,673.7 L759.2,673.8 L762.6,673.9
		L766.0,673.9 L769.4,674.0 L772.8,674.1 L776.2,674.2 L779.6,674.3 L783.0,674.3 L786.4,674.4 L789.8,674.5
		L793.2,674.5 L796.6,674.6 L799.9,674.7 L803.3,674.7 L806.7,674.8 L810.1,674.8 L813.5,674.9 L816.9,674.9
		L820.3,675.0 L823.7,675.0 L827.1,675.1 L830.5,675.1 L833.9,675.1 L837.3,675.2 L840.7,675.2 L844.1,675.3
		L847.5,675.3 L850.9,675.3 L854.2,675.4 L857.6,675.4 L861.0,675.4 L864.4,675.4 L867.8,675.5 L871.2,675.5
		L874.6,675.5 L878.0,675.5 L881.4,675.6 L884.8,675.6 L886.4,675.6  '/></g>
	</g>
<g fill="none" color="white" stroke="rgb(240, 228,  66)" stroke-width="2.00" stroke-linecap="butt" stroke-linejoin="miter">
</g>
<g fill="none" color="black" stroke="currentColor" stroke-width="2.00" stroke-linecap="butt" stroke-linejoin="miter">
</g>
<g fill="none" color="black" stroke="black" stroke-width="1.00" stroke-linecap="butt" stroke-linejoin="miter">
</g>
<g fill="none" color="black" stroke="currentColor" stroke-width="1.00" stroke-linecap="butt" stroke-linejoin="miter">
	<path stroke='black'  d='M175.5,117.1 L175.5,775.2 L886.4,775.2 L886.4,117.1 L175.5,117.1 Z  '/></g>
<g fill="none" color="black" stroke="currentColor" stroke-width="1.00" stroke-linecap="butt" stroke-linejoin="miter">
</g>
</g>
</svg>

