<?xml version="1.0" encoding="utf-8"  standalone="no"?>
<!DOCTYPE svg PUBLIC "-//W3C//DTD SVG 1.1//EN"
 "http://www.w3.org/Graphics/SVG/1.1/DTD/svg11.dtd">
<svg 
 width="1400" height="900"
 viewBox="0 0 1400 900"
 xmlns="http://www.w3.org/2000/svg"
 xmlns:xlink="http://www.w3.org/1999/xlink"
>

<title>Gnuplot</title>
<desc>Produced by GNUPLOT 5.0 patchlevel 5 </desc>

<g id="gnuplot_canvas">

<rect x="0" y="0" width="1400" height="900" fill="none"/>
<defs>

	<circle id='gpDot' r='0.5' stroke-width='0.5'/>
	<path id='gpPt0' stroke-width='0.103' stroke='currentColor' d='M-1,0 h2 M0,-1 v2'/>
	<path id='gpPt1' stroke-width='0.103' stroke='currentColor' d='M-1,-1 L1,1 M1,-1 L-1,1'/>
	<path id='gpPt2' stroke-width='0.103' stroke='currentColor' d='M-1,0 L1,0 M0,-1 L0,1 M-1,-1 L1,1 M-1,1 L1,-1'/>
	<rect id='gpPt3' stroke-width='0.103' stroke='currentColor' x='-1' y='-1' width='2' height='2'/>
	<rect id='gpPt4' stroke-width='0.103' stroke='currentColor' fill='currentColor' x='-1' y='-1' width='2' height='2'/>
	<circle id='gpPt5' stroke-width='0.103' stroke='currentColor' cx='0' cy='0' r='1'/>
	<use xlink:href='#gpPt5' id='gpPt6' fill='currentColor' stroke='none'/>
	<path id='gpPt7' stroke-width='0.103' stroke='currentColor' d='M0,-1.33 L-1.33,0.67 L1.33,0.67 z'/>
	<use xlink:href='#gpPt7' id='gpPt8' fill='currentColor' stroke='none'/>
	<use xlink:href='#gpPt7' id='gpPt9' stroke='currentColor' transform='rotate(180)'/>
	<use xlink:href='#gpPt9' id='gpPt10' fill='currentColor' stroke='none'/>
	<use xlink:href='#gpPt3' id='gpPt11' stroke='currentColor' transform='rotate(45)'/>
	<use xlink:href='#gpPt11' id='gpPt12' fill='currentColor' stroke='none'/>
	<path id='gpPt13' stroke-width='0.103' stroke='currentColor' d='M0,1.330 L1.265,0.411 L0.782,-1.067 L-0.782,-1.076 L-1.265,0.411 z'/>
	<use xlink:href='#gpPt13' id='gpPt14' fill='currentColor' stroke='none'/>
	<filter id='textbox' filterUnits='objectBoundingBox' x='0' y='0' height='1' width='1'>
	  <feFlood flood-color='white' flood-opacity='1' result='bgnd'/>
	  <feComposite in='SourceGraphic' in2='bgnd' operator='atop'/>
	</filter>
	<filter id='greybox' filterUnits='objectBoundingBox' x='0' y='0' height='1' width='1'>
	  <feFlood flood-color='lightgrey' flood-opacity='1' result='grey'/>
	  <feComposite in='SourceGraphic' in2='grey' operator='atop'/>
	</filter>
</defs>
<g fill="none" color="white" stroke="black" stroke-width="1.00" stroke-linecap="butt" stroke-linejoin="miter">
</g>
<g fill="none" color="black" stroke="currentColor" stroke-width="1.00" stroke-linecap="butt" stroke-linejoin="miter">
	<path stroke='black'  d='M175.5,775.2 L195.0,775.2  '/>	<g transform="translate(157.3,783.7)" stroke="none" fill="black" font-family="Helvetica" font-size="26.00"  text-anchor="end">
		<text><tspan font-family="Helvetica" >-0.35</tspan></text>
	</g>
</g>
<g fill="none" color="black" stroke="currentColor" stroke-width="1.00" stroke-linecap="butt" stroke-linejoin="miter">
	<path stroke='black'  d='M175.5,681.2 L195.0,681.2  '/>	<g transform="translate(157.3,689.7)" stroke="none" fill="black" font-family="Helvetica" font-size="26.00"  text-anchor="end">
		<text><tspan font-family="Helvetica" >-0.3</tspan></text>
	</g>
</g>
<g fill="none" color="black" stroke="currentColor" stroke-width="1.00" stroke-linecap="butt" stroke-linejoin="miter">
	<path stroke='black'  d='M175.5,587.2 L195.0,587.2  '/>	<g transform="translate(157.3,595.7)" stroke="none" fill="black" font-family="Helvetica" font-size="26.00"  text-anchor="end">
		<text><tspan font-family="Helvetica" >-0.25</tspan></text>
	</g>
</g>
<g fill="none" color="black" stroke="currentColor" stroke-width="1.00" stroke-linecap="butt" stroke-linejoin="miter">
	<path stroke='black'  d='M175.5,493.2 L195.0,493.2  '/>	<g transform="translate(157.3,501.7)" stroke="none" fill="black" font-family="Helvetica" font-size="26.00"  text-anchor="end">
		<text><tspan font-family="Helvetica" >-0.2</tspan></text>
	</g>
</g>
<g fill="none" color="black" stroke="currentColor" stroke-width="1.00" stroke-linecap="butt" stroke-linejoin="miter">
	<path stroke='black'  d='M175.5,399.1 L195.0,399.1  '/>	<g transform="translate(157.3,407.6)" stroke="none" fill="black" font-family="Helvetica" font-size="26.00"  text-anchor="end">
		<text><tspan font-family="Helvetica" >-0.15</tspan></text>
	</g>
</g>
<g fill="none" color="black" stroke="currentColor" stroke-width="1.00" stroke-linecap="butt" stroke-linejoin="miter">
	<path stroke='black'  d='M175.5,305.1 L195.0,305.1  '/>	<g transform="translate(157.3,313.6)" stroke="none" fill="black" font-family="Helvetica" font-size="26.00"  text-anchor="end">
		<text><tspan font-family="Helvetica" >-0.1</tspan></text>
	</g>
</g>
<g fill="none" color="black" stroke="currentColor" stroke-width="1.00" stroke-linecap="butt" stroke-linejoin="miter">
	<path stroke='black'  d='M175.5,211.1 L195.0,211.1  '/>	<g transform="translate(157.3,219.6)" stroke="none" fill="black" font-family="Helvetica" font-size="26.00"  text-anchor="end">
		<text><tspan font-family="Helvetica" >-0.05</tspan></text>
	</g>
</g>
<g fill="none" color="black" stroke="currentColor" stroke-width="1.00" stroke-linecap="butt" stroke-linejoin="miter">
	<path stroke='black'  d='M175.5,117.1 L195.0,117.1  '/>	<g transform="translate(157.3,125.6)" stroke="none" fill="black" font-family="Helvetica" font-size="26.00"  text-anchor="end">
		<text><tspan font-family="Helvetica" > 0</tspan></text>
	</g>
</g>
<g fill="none" color="black" stroke="currentColor" stroke-width="1.00" stroke-linecap="butt" stroke-linejoin="miter">
	<path stroke='black'  d='M175.5,775.2 L175.5,755.7 M175.5,117.1 L175.5,136.6  '/>	<g transform="translate(175.5,822.7)" stroke="none" fill="black" font-family="Helvetica" font-size="26.00"  text-anchor="middle">
		<text><tspan font-family="Helvetica" > 0.5</tspan></text>
	</g>
</g>
<g fill="none" color="black" stroke="currentColor" stroke-width="1.00" stroke-linecap="butt" stroke-linejoin="miter">
	<path stroke='black'  d='M254.5,775.2 L254.5,755.7 M254.5,117.1 L254.5,136.6  '/>	<g transform="translate(254.5,822.7)" stroke="none" fill="black" font-family="Helvetica" font-size="26.00"  text-anchor="middle">
		<text><tspan font-family="Helvetica" > 1</tspan></text>
	</g>
</g>
<g fill="none" color="black" stroke="currentColor" stroke-width="1.00" stroke-linecap="butt" stroke-linejoin="miter">
	<path stroke='black'  d='M333.5,775.2 L333.5,755.7 M333.5,117.1 L333.5,136.6  '/>	<g transform="translate(333.5,822.7)" stroke="none" fill="black" font-family="Helvetica" font-size="26.00"  text-anchor="middle">
		<text><tspan font-family="Helvetica" > 1.5</tspan></text>
	</g>
</g>
<g fill="none" color="black" stroke="currentColor" stroke-width="1.00" stroke-linecap="butt" stroke-linejoin="miter">
	<path stroke='black'  d='M412.5,775.2 L412.5,755.7 M412.5,117.1 L412.5,136.6  '/>	<g transform="translate(412.5,822.7)" stroke="none" fill="black" font-family="Helvetica" font-size="26.00"  text-anchor="middle">
		<text><tspan font-family="Helvetica" > 2</tspan></text>
	</g>
</g>
<g fill="none" color="black" stroke="currentColor" stroke-width="1.00" stroke-linecap="butt" stroke-linejoin="miter">
	<path stroke='black'  d='M491.5,775.2 L491.5,755.7 M491.5,117.1 L491.5,136.6  '/>	<g transform="translate(491.5,822.7)" stroke="none" fill="black" font-family="Helvetica" font-size="26.00"  text-anchor="middle">
		<text><tspan font-family="Helvetica" > 2.5</tspan></text>
	</g>
</g>
<g fill="none" color="black" stroke="currentColor" stroke-width="1.00" stroke-linecap="butt" stroke-linejoin="miter">
	<path stroke='black'  d='M570.4,775.2 L570.4,755.7 M570.4,117.1 L570.4,136.6  '/>	<g transform="translate(570.4,822.7)" stroke="none" fill="black" font-family="Helvetica" font-size="26.00"  text-anchor="middle">
		<text><tspan font-family="Helvetica" > 3</tspan></text>
	</g>
</g>
<g fill="none" color="black" stroke="currentColor" stroke-width="1.00" stroke-linecap="butt" stroke-linejoin="miter">
	<path stroke='black'  d='M649.4,775.2 L649.4,755.7 M649.4,117.1 L649.4,136.6  '/>	<g transform="translate(649.4,822.7)" stroke="none" fill="black" font-family="Helvetica" font-size="26.00"  text-anchor="middle">
		<text><tspan font-family="Helvetica" > 3.5</tspan></text>
	</g>
</g>
<g fill="none" color="black" stroke="currentColor" stroke-width="1.00" stroke-linecap="butt" stroke-linejoin="miter">
	<path stroke='black'  d='M728.4,775.2 L728.4,755.7 M728.4,117.1 L728.4,136.6  '/>	<g transform="translate(728.4,822.7)" stroke="none" fill="black" font-family="Helvetica" font-size="26.00"  text-anchor="middle">
		<text><tspan font-family="Helvetica" > 4</tspan></text>
	</g>
</g>
<g fill="none" color="black" stroke="currentColor" stroke-width="1.00" stroke-linecap="butt" stroke-linejoin="miter">
	<path stroke='black'  d='M807.4,775.2 L807.4,755.7 M807.4,117.1 L807.4,136.6  '/>	<g transform="translate(807.4,822.7)" stroke="none" fill="black" font-family="Helvetica" font-size="26.00"  text-anchor="middle">
		<text><tspan font-family="Helvetica" > 4.5</tspan></text>
	</g>
</g>
<g fill="none" color="black" stroke="currentColor" stroke-width="1.00" stroke-linecap="butt" stroke-linejoin="miter">
	<path stroke='black'  d='M886.4,775.2 L886.4,755.7 M886.4,117.1 L886.4,136.6  '/>	<g transform="translate(886.4,822.7)" stroke="none" fill="black" font-family="Helvetica" font-size="26.00"  text-anchor="middle">
		<text><tspan font-family="Helvetica" > 5</tspan></text>
	</g>
</g>
<g fill="none" color="black" stroke="currentColor" stroke-width="1.00" stroke-linecap="butt" stroke-linejoin="miter">
	<path stroke='black'  d='M886.4,775.2 L866.9,775.2  '/>	<g transform="translate(904.6,783.7)" stroke="none" fill="black" font-family="Helvetica" font-size="26.00"  text-anchor="start">
		<text><tspan font-family="Helvetica" >-0.35</tspan></text>
	</g>
</g>
<g fill="none" color="black" stroke="currentColor" stroke-width="1.00" stroke-linecap="butt" stroke-linejoin="miter">
	<path stroke='black'  d='M886.4,681.2 L866.9,681.2  '/>	<g transform="translate(904.6,689.7)" stroke="none" fill="black" font-family="Helvetica" font-size="26.00"  text-anchor="start">
		<text><tspan font-family="Helvetica" >-0.3</tspan></text>
	</g>
</g>
<g fill="none" color="black" stroke="currentColor" stroke-width="1.00" stroke-linecap="butt" stroke-linejoin="miter">
	<path stroke='black'  d='M886.4,587.2 L866.9,587.2  '/>	<g transform="translate(904.6,595.7)" stroke="none" fill="black" font-family="Helvetica" font-size="26.00"  text-anchor="start">
		<text><tspan font-family="Helvetica" >-0.25</tspan></text>
	</g>
</g>
<g fill="none" color="black" stroke="currentColor" stroke-width="1.00" stroke-linecap="butt" stroke-linejoin="miter">
	<path stroke='black'  d='M886.4,493.2 L866.9,493.2  '/>	<g transform="translate(904.6,501.7)" stroke="none" fill="black" font-family="Helvetica" font-size="26.00"  text-anchor="start">
		<text><tspan font-family="Helvetica" >-0.2</tspan></text>
	</g>
</g>
<g fill="none" color="black" stroke="currentColor" stroke-width="1.00" stroke-linecap="butt" stroke-linejoin="miter">
	<path stroke='black'  d='M886.4,399.1 L866.9,399.1  '/>	<g transform="translate(904.6,407.6)" stroke="none" fill="black" font-family="Helvetica" font-size="26.00"  text-anchor="start">
		<text><tspan font-family="Helvetica" >-0.15</tspan></text>
	</g>
</g>
<g fill="none" color="black" stroke="currentColor" stroke-width="1.00" stroke-linecap="butt" stroke-linejoin="miter">
	<path stroke='black'  d='M886.4,305.1 L866.9,305.1  '/>	<g transform="translate(904.6,313.6)" stroke="none" fill="black" font-family="Helvetica" font-size="26.00"  text-anchor="start">
		<text><tspan font-family="Helvetica" >-0.1</tspan></text>
	</g>
</g>
<g fill="none" color="black" stroke="currentColor" stroke-width="1.00" stroke-linecap="butt" stroke-linejoin="miter">
	<path stroke='black'  d='M886.4,211.1 L866.9,211.1  '/>	<g transform="translate(904.6,219.6)" stroke="none" fill="black" font-family="Helvetica" font-size="26.00"  text-anchor="start">
		<text><tspan font-family="Helvetica" >-0.05</tspan></text>
	</g>
</g>
<g fill="none" color="black" stroke="currentColor" stroke-width="1.00" stroke-linecap="butt" stroke-linejoin="miter">
	<path stroke='black'  d='M886.4,117.1 L866.9,117.1  '/>	<g transform="translate(904.6,125.6)" stroke="none" fill="black" font-family="Helvetica" font-size="26.00"  text-anchor="start">
		<text><tspan font-family="Helvetica" > 0</tspan></text>
	</g>
</g>
<g fill="none" color="black" stroke="currentColor" stroke-width="1.00" stroke-linecap="butt" stroke-linejoin="miter">
</g>
<g fill="none" color="black" stroke="currentColor" stroke-width="1.00" stroke-linecap="butt" stroke-linejoin="miter">
	<path stroke='black'  d='M175.5,117.1 L175.5,775.2 L886.4,775.2 L886.4,117.1 L175.5,117.1 Z  '/></g>
<g fill="none" color="black" stroke="currentColor" stroke-width="1.00" stroke-linecap="butt" stroke-linejoin="miter">
	<g transform="translate(37.0,446.2) rotate(270)" stroke="none" fill="black" font-family="Helvetica-Bold" font-size="26.00"  text-anchor="middle">
		<text><tspan font-family="Helvetica-Bold" >LUMO, Hartree</tspan></text>
	</g>
</g>
<g fill="none" color="black" stroke="currentColor" stroke-width="1.00" stroke-linecap="butt" stroke-linejoin="miter">
	<g transform="translate(1041.6,446.2) rotate(270)" stroke="none" fill="black" font-family="Helvetica" font-size="26.00"  text-anchor="middle">
		<text><tspan font-family="Helvetica" >E, kJ/mol</tspan></text>
	</g>
</g>
<g fill="none" color="black" stroke="currentColor" stroke-width="1.00" stroke-linecap="butt" stroke-linejoin="miter">
	<g transform="translate(530.9,881.2)" stroke="none" fill="black" font-family="Helvetica-Bold" font-size="26.00"  text-anchor="middle">
		<text><tspan font-family="Helvetica-Bold" >d(C1-N1), A</tspan></text>
	</g>
</g>
<g fill="none" color="black" stroke="currentColor" stroke-width="1.00" stroke-linecap="butt" stroke-linejoin="miter">
	<g transform="translate(530.9,67.1)" stroke="none" fill="black" font-family="Helvetica" font-size="26.00"  text-anchor="middle">
		<text><tspan font-family="Helvetica"  font-weight="bold" >PhN</tspan><tspan font-family="Helvetica"  font-weight="bold"  font-size="20.8" dy="7.80px">2</tspan><tspan font-family="Helvetica"  font-weight="bold"  dy="-20.80px">+</tspan><tspan font-family="Helvetica"  font-weight="bold"  font-size="26.0" dy="13.00px"> X</tspan><tspan font-family="Helvetica"  font-weight="bold"  font-size="20.8" dy="-13.00px">-</tspan><tspan font-size="26.0" dy="13.00"></tspan></text>
	</g>
</g>
<g fill="none" color="black" stroke="black" stroke-width="0.20" stroke-linecap="butt" stroke-linejoin="miter">
</g>
<g fill="none" color="black" stroke="currentColor" stroke-width="0.20" stroke-linecap="butt" stroke-linejoin="miter">
	<path stroke='black'  d='M1089.2,312.1 L1089.2,117.1 L1381.7,117.1 L1381.7,312.1 L1089.2,312.1 Z  '/></g>
	<g id="gnuplot_plot_1" ><title>PhN2+</title>
<g fill="none" color="white" stroke="black" stroke-width="3.00" stroke-linecap="butt" stroke-linejoin="miter">
</g>
<g fill="none" color="black" stroke="currentColor" stroke-width="3.00" stroke-linecap="butt" stroke-linejoin="miter">
	<g transform="translate(1253.0,145.1)" stroke="none" fill="black" font-family="Helvetica" font-size="26.00"  text-anchor="end">
		<text><tspan font-family="Helvetica" >PhN</tspan><tspan font-family="Helvetica"  font-size="20.8" dy="7.80px">2</tspan><tspan font-family="Helvetica"  dy="-20.80px">+</tspan><tspan font-size="26.0" dy="13.00"></tspan></text>
	</g>
</g>
<g fill="none" color="black" stroke="currentColor" stroke-width="3.00" stroke-linecap="butt" stroke-linejoin="miter">
	<path stroke='rgb(255,   0,   0)'  d='M1271.2,136.6 L1363.5,136.6 M238.7,722.3 L240.3,720.6 L241.9,718.9 L243.4,717.2 L245.0,715.6 L246.6,714.0
		L248.2,712.4 L249.8,710.8 L251.4,709.2 L252.9,707.7 L254.5,706.2 L256.1,704.7 L257.7,703.2 L259.3,701.8
		L260.9,700.3 L262.4,698.9 L264.0,697.6 L265.6,696.2 L267.2,694.9 L268.8,693.7 L270.4,692.4 L271.9,691.2
		L273.5,690.0 L275.1,688.8 L276.7,687.7 L278.3,686.6 L279.9,685.5 L281.5,684.5 L283.0,683.4 L284.6,682.4
		L286.2,681.5 L287.8,680.5 L289.4,679.6 L291.0,678.7 L292.5,677.8 L294.1,677.0 L295.7,676.1 L297.3,675.3
		L298.9,674.5 L300.5,673.7 L302.0,672.9 L303.6,672.2 L305.2,671.4 L306.8,670.7 L308.4,670.0 L310.0,669.2
		L311.5,668.5 L313.1,667.8 L314.7,667.0 L316.3,666.3 L317.9,665.6 L319.5,664.8 L321.0,664.1 L322.6,663.3
		L324.2,662.5 L325.8,661.7 L327.4,660.9 L329.0,660.0 L330.5,659.1 L332.1,658.2 L333.7,657.3 L335.3,656.3
		L336.9,655.3 L338.5,654.3 L340.1,653.2 L341.6,652.1 L343.2,651.0 L344.8,649.8 L346.4,648.5 L348.0,647.2
		L349.6,645.9 L351.1,644.5 L352.7,643.1 L354.3,641.6 L355.9,640.1 L357.5,638.6 L359.1,637.0 L360.6,635.3
		L362.2,633.6 L363.8,631.9 L365.4,630.1 L367.0,628.3 L368.6,626.4 L370.1,624.5 L371.7,622.5 L373.3,620.5
		L374.9,618.5 L376.5,616.5 L378.1,614.4 L379.6,612.3 L381.2,610.2 L382.8,608.0 L384.4,605.9 L386.0,609.0
		L387.6,613.2 L389.1,617.3 L390.7,621.2 L392.3,625.0 L393.9,628.7 L395.5,632.3 L397.1,635.7 L398.6,639.1
		L400.2,642.4 L401.8,645.5 L403.4,648.6 L405.0,651.5 L406.6,654.8 L408.2,657.2 L409.7,660.3 L411.3,662.5
		L412.9,665.5 L414.5,667.5 L416.1,670.3 L417.7,672.2 L419.2,674.8 L420.8,676.6 L422.4,679.1 L424.0,680.7
		L425.6,683.1 L427.2,684.6 L428.7,686.9 L430.3,688.3 L431.9,690.4 L433.5,691.7 L435.1,693.8 L436.7,695.0
		L438.2,696.9 L439.8,698.1 L441.4,699.9 L443.0,701.0 L444.6,702.7 L446.2,703.7 L447.7,705.4 L449.3,706.3
		L450.9,707.9 L452.5,709.3 L454.1,710.0 L455.7,711.4 L457.2,712.8 L458.8,713.3 L460.4,714.7 L462.0,715.9
		L463.6,716.4 L465.2,717.7 L466.7,718.8 L468.3,719.2 L469.9,720.0 L471.5,720.9 L473.1,721.8 L474.7,722.6
		L476.3,723.4 L477.8,724.2 L479.4,725.0 L481.0,725.7 L482.6,726.5 L484.2,727.2 L485.8,727.9 L487.3,728.6
		L488.9,729.3 L490.5,729.9 L492.1,730.6 L493.7,731.2 L495.3,731.8 L496.8,732.4 L498.4,733.0 L500.0,733.6
		L501.6,734.1 L503.2,734.7 L504.8,735.2 L506.3,735.7 L507.9,736.3 L509.5,736.8 L511.1,737.3 L512.7,737.7
		L514.3,738.2 L515.8,738.7 L517.4,739.1 L519.0,739.6 L520.6,740.0 L522.2,740.4 L523.8,740.9 L525.3,741.3
		L526.9,741.7 L528.5,742.1 L530.1,742.4 L531.7,742.8 L533.3,743.2 L534.8,743.6 L536.4,743.9 L538.0,744.3
		L539.6,744.6 L541.2,745.0 L542.8,745.3 L544.4,745.6 L545.9,745.9 L547.5,746.2 L549.1,746.6 L550.7,746.9
		L552.3,747.2 L553.9,747.5 L555.4,747.7 L557.0,748.0 L558.6,748.3 L560.2,748.6 L561.8,748.9 L563.4,749.1
		L564.9,749.4 L566.5,749.6 L568.1,749.9 L569.7,750.1 L571.3,750.4 L572.9,750.6 L574.4,750.9 L576.0,751.1
		L577.6,751.3 L579.2,751.6 L580.8,751.8 L582.4,752.0 L583.9,752.2 L585.5,752.4 L587.1,752.7 L588.7,752.9
		L590.3,753.1 L591.9,753.3 L593.4,753.5 L595.0,753.7 L596.6,753.9 L598.2,754.1 L599.8,754.2 L601.4,754.4
		L603.0,754.6 L604.5,754.8 L606.1,754.9 L607.7,755.1 L609.3,755.3 L610.9,755.4 L612.5,755.6 L614.0,755.8
		L615.6,755.9 L617.2,756.1 L618.8,756.2 L620.4,756.4 L622.0,756.5 L623.5,756.7 L625.1,756.8 L626.7,756.9
		L628.3,757.1 L629.9,757.2 L631.5,757.3 L633.0,757.5 L634.6,757.6 L636.2,757.7 L637.8,757.8 L639.4,758.0
		L641.0,758.1 L642.5,758.2 L644.1,758.3 L645.7,758.4 L647.3,758.6 L648.9,758.7 L650.5,758.8 L652.0,758.9
		L653.6,759.0 L655.2,759.1 L656.8,759.2 L658.4,759.3 L660.0,759.4 L661.5,759.5 L663.1,759.6 L664.7,759.7
		L666.3,759.8 L667.9,759.9 L669.5,760.0 L671.1,760.1 L672.6,760.2 L674.2,760.3 L675.8,760.4 L677.4,760.5
		L679.0,760.6 L680.6,760.6 L682.1,760.7 L683.7,760.8 L685.3,760.9 L686.9,760.9 L688.5,761.0 L690.1,761.1
		L691.6,761.2 L693.2,761.2 L694.8,761.3 L696.4,761.4 L698.0,761.4 L699.6,761.5 L701.1,761.6 L702.7,761.6
		L704.3,761.7 L705.9,761.7 L707.5,761.8 L709.1,761.9 L710.6,761.9 L712.2,762.0 L713.8,762.0 L715.4,762.1
		L717.0,762.1 L718.6,762.2 L720.1,762.2 L721.7,762.3 L723.3,762.3 L724.9,762.4 L726.5,762.5 L728.1,762.5
		L729.6,762.6 L731.2,762.6 L732.8,762.7 L734.4,762.7 L736.0,762.8 L737.6,762.8 L739.2,762.9 L740.7,762.9
		L742.3,763.0 L743.9,763.0 L745.5,763.0 L747.1,763.1 L748.7,763.1 L750.2,763.2 L751.8,763.2 L753.4,763.3
		L755.0,763.3 L756.6,763.4 L758.2,763.4 L759.7,763.4 L761.3,763.5 L762.9,763.5 L764.5,763.5 L766.1,763.6
		L767.7,763.6 L769.2,763.6 L770.8,763.7 L772.4,763.7 L774.0,763.7 L775.6,763.8 L777.2,763.8 L778.7,763.8
		L780.3,763.9 L781.9,763.9 L783.5,763.9 L785.1,763.9 L786.7,764.0 L788.2,764.0 L789.8,764.0 L791.4,764.0
		L793.0,764.1 L794.6,764.1 L796.2,764.1 L797.8,764.2 L799.3,764.2 L800.9,764.2 L802.5,764.2 L804.1,764.3
		L805.7,764.3 L807.3,764.3 L808.8,764.3 L810.4,764.4 L812.0,764.4 L813.6,764.4 L815.2,764.4 L816.8,764.5
		L818.3,764.5 L819.9,764.5 L821.5,764.5 L823.1,764.5 L824.7,764.6 L826.3,764.6 L827.8,764.6 L829.4,764.6
		L831.0,764.7 L832.6,764.7 L834.2,764.7 L835.8,764.7 L837.3,764.7 L838.9,764.8 L840.5,764.8 L842.1,764.8
		L843.7,764.8 L845.3,764.8 L846.8,764.9 L848.4,764.9 L850.0,764.9 L851.6,764.9 L853.2,765.0 L854.8,765.0
		L856.3,765.0 L857.9,765.0 L859.5,765.1 L861.1,765.1 L862.7,765.1 L864.3,765.1 L865.9,765.1 L867.4,765.1
		L869.0,765.2 L870.6,765.2  '/></g>
	</g>
	<g id="gnuplot_plot_2" ><title>PhN2+ Cl-</title>
<g fill="none" color="black" stroke="currentColor" stroke-width="3.00" stroke-linecap="butt" stroke-linejoin="miter">
	<g transform="translate(1253.0,184.1)" stroke="none" fill="black" font-family="Helvetica" font-size="26.00"  text-anchor="end">
		<text><tspan font-family="Helvetica" >PhN</tspan><tspan font-family="Helvetica"  font-size="20.8" dy="7.80px">2</tspan><tspan font-family="Helvetica"  dy="-20.80px">+</tspan><tspan font-family="Helvetica"  font-size="26.0" dy="13.00px"> Cl</tspan><tspan font-family="Helvetica"  font-size="20.8" dy="-13.00px">-</tspan><tspan font-size="26.0" dy="13.00"></tspan></text>
	</g>
</g>
<g fill="none" color="black" stroke="currentColor" stroke-width="3.00" stroke-linecap="butt" stroke-linejoin="miter">
	<path stroke='rgb(  0,   0, 255)'  d='M1271.2,175.6 L1363.5,175.6 M238.7,341.9 L240.3,342.4 L241.9,343.1 L243.4,343.8 L245.0,344.0 L246.6,344.2
		L248.2,345.1 L249.8,345.2 L251.4,346.6 L252.9,346.1 L254.5,357.6 L256.1,357.8 L257.7,358.0 L259.3,363.4
		L260.9,361.9 L262.4,360.1 L264.0,361.9 L265.6,360.1 L267.2,358.3 L268.8,356.5 L270.4,354.8 L271.9,352.9
		L273.5,351.2 L275.1,349.2 L276.7,347.4 L278.3,345.7 L279.9,343.7 L281.5,342.1 L283.0,340.1 L284.6,338.4
		L286.2,336.5 L287.8,334.9 L289.4,333.0 L291.0,331.3 L292.5,329.5 L294.1,327.8 L295.7,326.1 L297.3,324.4
		L298.9,322.8 L300.5,321.1 L302.0,319.6 L303.6,317.9 L305.2,316.3 L306.8,314.7 L308.4,313.2 L310.0,311.6
		L311.5,310.1 L313.1,308.5 L314.7,307.0 L316.3,305.5 L317.9,304.0 L319.5,302.5 L321.0,301.0 L322.6,299.6
		L324.2,298.1 L325.8,296.7 L327.4,295.2 L329.0,293.8 L330.5,292.4 L332.1,290.9 L333.7,289.5 L335.3,288.1
		L336.9,286.7 L338.5,285.3 L340.1,284.0 L341.6,282.6 L343.2,281.2 L344.8,279.9 L346.4,278.5 L348.0,279.4
		L349.6,281.2 L351.1,283.0 L352.7,284.9 L354.3,286.8 L355.9,288.8 L357.5,290.8 L359.1,292.9 L360.6,295.0
		L362.2,297.1 L363.8,299.2 L365.4,301.4 L367.0,303.7 L368.6,305.9 L370.1,308.2 L371.7,310.5 L373.3,312.9
		L374.9,315.3 L376.5,317.7 L378.1,320.1 L379.6,322.6 L381.2,325.1 L382.8,327.5 L384.4,330.0 L386.0,332.5
		L387.6,335.0 L389.1,337.6 L390.7,340.1 L392.3,342.2 L393.9,345.0 L395.5,347.1 L397.1,350.2 L398.6,352.7
		L400.2,355.2 L401.8,357.6 L403.4,360.2 L405.0,362.7 L406.6,365.2 L408.2,367.7 L409.7,370.1 L411.3,372.6
		L412.9,375.0 L414.5,377.5 L416.1,379.8 L417.7,382.1 L419.2,384.3 L420.8,386.5 L422.4,388.5 L424.0,390.4
		L425.6,391.9 L427.2,392.9 L428.7,393.4 L430.3,393.5 L431.9,393.1 L433.5,392.7 L435.1,391.7 L436.7,391.0
		L438.2,389.9 L439.8,389.0 L441.4,388.1 L443.0,387.1 L444.6,386.2 L446.2,385.2 L447.7,384.3 L449.3,383.3
		L450.9,382.3 L452.5,382.3 L454.1,380.6 L455.7,380.4 L457.2,377.9 L458.8,377.7 L460.4,377.5 L462.0,373.5
		L463.6,373.4 L465.2,373.2 L466.7,367.8 L468.3,367.7 L469.9,367.5 L471.5,316.6 L473.1,316.5 L474.7,316.4
		L476.3,316.1 L477.8,315.5 L479.4,315.3 L481.0,315.2 L482.6,314.8 L484.2,314.6 L485.8,314.5 L487.3,314.4
		L488.9,314.1 L490.5,314.0 L492.1,313.8 L493.7,313.7 L495.3,313.3 L496.8,313.2 L498.4,313.1 L500.0,313.1
		L501.6,312.9 L503.2,312.9 L504.8,312.8 L506.3,312.6 L507.9,312.6 L509.5,312.4 L511.1,312.4 L512.7,312.3
		L514.3,312.3 L515.8,312.1 L517.4,312.3 L519.0,312.0 L520.6,312.0 L522.2,312.0 L523.8,311.7 L525.3,311.8
		L526.9,312.0 L528.5,311.6 L530.1,311.7 L531.7,311.9 L533.3,311.5 L534.8,311.5 L536.4,311.7 L538.0,311.4
		L539.6,311.4 L541.2,311.6 L542.8,311.2 L544.4,311.3 L545.9,311.5 L547.5,311.1 L549.1,311.2 L550.7,311.4
		L552.3,311.1 L553.9,311.1 L555.4,311.4 L557.0,311.0 L558.6,311.0 L560.2,311.3 L561.8,310.9 L563.4,311.0
		L564.9,311.3 L566.5,310.9 L568.1,310.9 L569.7,311.2 L571.3,310.9 L572.9,310.9 L574.4,310.9 L576.0,311.0
		L577.6,311.1 L579.2,311.1 L580.8,311.1 L582.4,311.2 L583.9,311.2 L585.5,311.2 L587.1,311.2 L588.7,311.2
		L590.3,311.2 L591.9,311.2 L593.4,311.3 L595.0,311.3 L596.6,311.3 L598.2,311.3 L599.8,311.3 L601.4,311.3
		L603.0,311.3 L604.5,311.3 L606.1,311.3 L607.7,311.3 L609.3,311.3 L610.9,311.3 L612.5,311.3 L614.0,311.3
		L615.6,311.3 L617.2,311.3 L618.8,311.3 L620.4,311.3 L622.0,311.3 L623.5,311.2 L625.1,311.2 L626.7,311.2
		L628.3,311.2 L629.9,311.2 L631.5,311.2 L633.0,311.2 L634.6,311.2 L636.2,311.2 L637.8,311.2 L639.4,311.2
		L641.0,311.2 L642.5,311.2 L644.1,311.2 L645.7,311.2 L647.3,311.2 L648.9,311.2 L650.5,311.2 L652.0,311.2
		L653.6,311.2 L655.2,311.2 L656.8,311.2 L658.4,311.1 L660.0,311.1 L661.5,311.1 L663.1,311.1 L664.7,311.1
		L666.3,311.1 L667.9,311.1 L669.5,311.1 L671.1,311.1 L672.6,311.0 L674.2,311.0 L675.8,311.0 L677.4,311.0
		L679.0,311.0 L680.6,311.0 L682.1,311.0 L683.7,310.9 L685.3,310.9 L686.9,310.9 L688.5,310.9 L690.1,310.9
		L691.6,310.9 L693.2,308.7 L694.8,308.6 L696.4,308.7 L698.0,308.7 L699.6,308.8 L701.1,308.6 L702.7,308.7
		L704.3,308.6 L705.9,308.6 L707.5,308.6 L709.1,308.6 L710.6,308.6 L712.2,308.6 L713.8,308.5 L715.4,308.3
		L717.0,308.3 L718.6,308.3 L720.1,308.3 L721.7,308.3 L723.3,308.3 L724.9,308.3 L726.5,308.3 L728.1,308.3
		L729.6,308.2 L731.2,308.2 L732.8,308.2 L734.4,308.2 L736.0,308.2 L737.6,308.2 L739.2,308.2 L740.7,308.1
		L742.3,308.1 L743.9,308.1 L745.5,308.0 L747.1,307.9 L748.7,307.8 L750.2,307.8 L751.8,307.8 L753.4,307.7
		L755.0,307.8 L756.6,307.7 L758.2,307.7 L759.7,307.6 L761.3,307.6 L762.9,307.6 L764.5,307.6 L766.1,307.6
		L767.7,307.6 L769.2,307.6 L770.8,307.5 L772.4,307.4 L774.0,307.4 L775.6,307.4 L777.2,307.4 L778.7,307.4
		L780.3,307.4 L781.9,307.4 L783.5,307.3 L785.1,307.3 L786.7,307.3 L788.2,307.3 L789.8,307.3 L791.4,307.3
		L793.0,307.3 L794.6,307.2 L796.2,307.2 L797.8,307.2 L799.3,307.2 L800.9,307.2 L802.5,307.2 L804.1,307.2
		L805.7,307.2 L807.3,307.1 L808.8,307.1 L810.4,307.1 L812.0,307.1 L813.6,307.1 L815.2,307.1 L816.8,307.1
		L818.3,307.1 L819.9,307.1 L821.5,307.1 L823.1,307.1 L824.7,307.1 L826.3,307.1 L827.8,307.1 L829.4,307.1
		L831.0,307.0 L832.6,307.0 L834.2,307.0 L835.8,307.0 L837.3,307.0 L838.9,307.0 L840.5,307.0 L842.1,307.1
		L843.7,307.1 L845.3,307.1 L846.8,307.1 L848.4,307.1 L850.0,307.1 L851.6,307.2 L853.2,307.2 L854.8,307.2
		L856.3,307.2 L857.9,307.3 L859.5,307.2 L861.1,307.3 L862.7,307.3 L864.3,307.3 L865.9,307.3 L867.4,307.4
		L869.0,307.3 L870.6,307.3  '/></g>
	</g>
	<g id="gnuplot_plot_3" ><title>PhN2+ BF4-</title>
<g fill="none" color="black" stroke="currentColor" stroke-width="3.00" stroke-linecap="butt" stroke-linejoin="miter">
	<g transform="translate(1253.0,223.1)" stroke="none" fill="black" font-family="Helvetica" font-size="26.00"  text-anchor="end">
		<text><tspan font-family="Helvetica" >PhN</tspan><tspan font-family="Helvetica"  font-size="20.8" dy="7.80px">2</tspan><tspan font-family="Helvetica"  dy="-20.80px">+</tspan><tspan font-family="Helvetica"  font-size="26.0" dy="13.00px"> BF</tspan><tspan font-family="Helvetica"  font-size="20.8" dy="7.80px">4</tspan><tspan font-family="Helvetica"  dy="-20.80px">-</tspan><tspan font-size="26.0" dy="13.00"></tspan></text>
	</g>
</g>
<g fill="none" color="black" stroke="currentColor" stroke-width="3.00" stroke-linecap="butt" stroke-linejoin="miter">
	<path stroke='rgb(  0, 255,   0)'  d='M1271.2,214.6 L1363.5,214.6 M238.7,426.3 L240.3,425.0 L241.9,423.9 L243.4,423.9 L245.0,422.6 L246.6,421.4
		L248.2,422.1 L249.8,420.9 L251.4,420.0 L252.9,418.7 L254.5,417.5 L256.1,417.0 L257.7,415.8 L259.3,414.9
		L260.9,413.7 L262.4,413.5 L264.0,412.3 L265.6,411.0 L267.2,410.0 L268.8,409.6 L270.4,408.5 L271.9,407.4
		L273.5,406.3 L275.1,406.3 L276.7,405.2 L278.3,404.1 L279.9,403.1 L281.5,403.5 L283.0,402.3 L284.6,401.3
		L286.2,402.6 L287.8,401.5 L289.4,400.4 L291.0,401.1 L292.5,399.9 L294.1,398.9 L295.7,397.8 L297.3,396.7
		L298.9,395.7 L300.5,395.7 L302.0,394.4 L303.6,395.2 L305.2,388.8 L306.8,387.5 L308.4,386.3 L310.0,385.0
		L311.5,383.8 L313.1,382.7 L314.7,381.4 L316.3,380.2 L317.9,378.9 L319.5,377.7 L321.0,376.3 L322.6,375.0
		L324.2,373.8 L325.8,372.4 L327.4,371.1 L329.0,367.5 L330.5,366.1 L332.1,364.7 L333.7,363.3 L335.3,361.9
		L336.9,360.5 L338.5,359.0 L340.1,357.5 L341.6,356.0 L343.2,354.5 L344.8,353.0 L346.4,351.4 L348.0,349.9
		L349.6,348.2 L351.1,346.7 L352.7,344.9 L354.3,343.4 L355.9,341.6 L357.5,340.1 L359.1,338.2 L360.6,336.6
		L362.2,334.9 L363.8,333.2 L365.4,332.7 L367.0,331.1 L368.6,329.5 L370.1,328.5 L371.7,327.2 L373.3,326.0
		L374.9,325.1 L376.5,324.6 L378.1,324.8 L379.6,325.8 L381.2,327.6 L382.8,333.9 L384.4,336.2 L386.0,339.0
		L387.6,342.0 L389.1,345.3 L390.7,348.5 L392.3,352.0 L393.9,355.4 L395.5,358.5 L397.1,361.8 L398.6,365.0
		L400.2,368.1 L401.8,371.1 L403.4,374.0 L405.0,376.9 L406.6,379.5 L408.2,382.3 L409.7,384.9 L411.3,387.3
		L412.9,389.8 L414.5,392.0 L416.1,394.3 L417.7,396.4 L419.2,398.5 L420.8,400.5 L422.4,402.4 L424.0,404.2
		L425.6,406.0 L427.2,407.7 L428.7,409.3 L430.3,410.9 L431.9,412.4 L433.5,413.8 L435.1,415.2 L436.7,417.3
		L438.2,418.0 L439.8,419.9 L441.4,421.0 L443.0,422.8 L444.6,423.3 L446.2,424.3 L447.7,425.9 L449.3,426.4
		L450.9,427.9 L452.5,428.2 L454.1,429.7 L455.7,429.9 L457.2,431.3 L458.8,432.7 L460.4,169.9 L462.0,169.6
		L463.6,169.4 L465.2,169.1 L466.7,168.8 L468.3,168.5 L469.9,168.2 L471.5,167.9 L473.1,167.6 L474.7,167.4
		L476.3,167.1 L477.8,166.8 L479.4,166.6 L481.0,166.3 L482.6,166.0 L484.2,165.8 L485.8,165.5 L487.3,165.2
		L488.9,165.0 L490.5,164.7 L492.1,164.5 L493.7,164.2 L495.3,164.0 L496.8,163.7 L498.4,163.5 L500.0,163.2
		L501.6,163.0 L503.2,162.7 L504.8,162.5 L506.3,162.2 L507.9,162.0 L509.5,161.8 L511.1,161.5 L512.7,161.3
		L514.3,161.1 L515.8,160.9 L517.4,160.6 L519.0,160.4 L520.6,160.2 L522.2,160.0 L523.8,159.8 L525.3,159.5
		L526.9,159.3 L528.5,159.1 L530.1,158.9 L531.7,158.7 L533.3,158.4 L534.8,158.2 L536.4,158.1 L538.0,157.8
		L539.6,157.6 L541.2,157.4 L542.8,157.2 L544.4,157.0 L545.9,156.9 L547.5,156.6 L549.1,156.4 L550.7,156.2
		L552.3,156.0 L553.9,155.8 L555.4,155.6 L557.0,155.5 L558.6,155.3 L560.2,155.1 L561.8,154.9 L563.4,154.7
		L564.9,154.6 L566.5,154.4 L568.1,154.2 L569.7,154.0 L571.3,153.9 L572.9,153.7 L574.4,153.5 L576.0,153.3
		L577.6,153.2 L579.2,153.1 L580.8,152.9 L582.4,152.8 L583.9,152.6 L585.5,152.4 L587.1,152.4 L588.7,151.9
		L590.3,151.9 L591.9,151.7 L593.4,151.6 L595.0,151.5 L596.6,151.4 L598.2,151.2 L599.8,151.1 L601.4,150.9
		L603.0,150.8 L604.5,150.7 L606.1,150.6 L607.7,150.4 L609.3,150.3 L610.9,150.2 L612.5,150.1 L614.0,150.0
		L615.6,149.9 L617.2,149.7 L618.8,149.6 L620.4,149.5 L622.0,149.4 L623.5,149.3 L625.1,149.1 L626.7,149.0
		L628.3,148.9 L629.9,148.8 L631.5,148.7 L633.0,148.6 L634.6,148.4 L636.2,148.3 L637.8,148.2 L639.4,148.1
		L641.0,148.0 L642.5,147.9 L644.1,147.8 L645.7,147.7 L647.3,147.6 L648.9,147.5 L650.5,147.4 L652.0,147.3
		L653.6,147.2 L655.2,147.1 L656.8,147.0 L658.4,146.9 L660.0,146.8 L661.5,146.7 L663.1,146.7 L664.7,146.5
		L666.3,146.4 L667.9,146.3 L669.5,146.2 L671.1,146.1 L672.6,146.0 L674.2,145.9 L675.8,145.8 L677.4,145.7
		L679.0,145.7 L680.6,145.6 L682.1,145.5 L683.7,145.4 L685.3,145.3 L686.9,145.2 L688.5,145.2 L690.1,145.1
		L691.6,145.0 L693.2,145.0 L694.8,144.9 L696.4,144.8 L698.0,144.7 L699.6,144.7 L701.1,144.6 L702.7,144.5
		L704.3,142.7 L705.9,142.7 L707.5,142.7 L709.1,142.7 L710.6,142.6 L712.2,142.6 L713.8,142.5 L715.4,142.5
		L717.0,142.4 L718.6,142.3 L720.1,142.3 L721.7,142.2 L723.3,142.2 L724.9,142.1 L726.5,142.1 L728.1,142.0
		L729.6,142.0 L731.2,141.9 L732.8,141.9 L734.4,141.8 L736.0,141.8 L737.6,141.7 L739.2,141.7 L740.7,141.7
		L742.3,141.6 L743.9,141.6 L745.5,141.6 L747.1,141.5 L748.7,141.5 L750.2,141.5 L751.8,141.5 L753.4,141.5
		L755.0,141.4 L756.6,141.4 L758.2,141.4 L759.7,141.4 L761.3,141.4 L762.9,141.4 L764.5,142.7 L766.1,142.8
		L767.7,142.8 L769.2,142.8 L770.8,142.8 L772.4,142.8 L774.0,142.8 L775.6,142.8 L777.2,142.8 L778.7,142.7
		L780.3,142.7 L781.9,142.7 L783.5,142.7 L785.1,142.7 L786.7,142.7 L788.2,142.7 L789.8,142.7 L791.4,142.7
		L793.0,142.7 L794.6,142.7 L796.2,142.7 L797.8,142.7 L799.3,142.7 L800.9,142.7 L802.5,142.7 L804.1,142.7
		L805.7,142.7 L807.3,142.7 L808.8,142.7 L810.4,142.7 L812.0,142.7 L813.6,142.7 L815.2,142.7 L816.8,142.7
		L818.3,142.7 L819.9,142.7 L821.5,142.7 L823.1,142.8 L824.7,142.8 L826.3,142.8 L827.8,142.8 L829.4,142.8
		L831.0,142.8 L832.6,142.8 L834.2,142.8 L835.8,142.8 L837.3,142.8 L838.9,142.8 L840.5,142.8 L842.1,142.8
		L843.7,142.8 L845.3,142.8 L846.8,142.9 L848.4,142.9 L850.0,142.9 L851.6,142.9 L853.2,142.9 L854.8,142.9
		L856.3,142.9 L857.9,142.9 L859.5,142.9 L861.1,142.9 L862.7,142.9 L864.3,142.9 L865.9,143.0 L867.4,143.0
		L869.0,143.0 L870.6,143.0  '/></g>
	</g>
	<g id="gnuplot_plot_4" ><title>PhN2+ TfO-</title>
<g fill="none" color="black" stroke="currentColor" stroke-width="3.00" stroke-linecap="butt" stroke-linejoin="miter">
	<g transform="translate(1253.0,262.1)" stroke="none" fill="black" font-family="Helvetica" font-size="26.00"  text-anchor="end">
		<text><tspan font-family="Helvetica" >PhN</tspan><tspan font-family="Helvetica"  font-size="20.8" dy="7.80px">2</tspan><tspan font-family="Helvetica"  dy="-20.80px">+</tspan><tspan font-family="Helvetica"  font-size="26.0" dy="13.00px"> TfO</tspan><tspan font-family="Helvetica"  font-size="20.8" dy="-13.00px">-</tspan><tspan font-size="26.0" dy="13.00"></tspan></text>
	</g>
</g>
<g fill="none" color="black" stroke="currentColor" stroke-width="3.00" stroke-linecap="butt" stroke-linejoin="miter">
	<path stroke='rgb(230, 159,   0)'  d='M1271.2,253.6 L1363.5,253.6 M238.7,461.8 L240.3,256.3 L241.9,256.1 L243.4,255.9 L245.0,255.6 L246.6,255.5
		L248.2,255.3 L249.8,255.3 L251.4,255.1 L252.9,255.1 L254.5,255.0 L256.1,255.1 L257.7,255.0 L259.3,255.0
		L260.9,255.1 L262.4,255.2 L264.0,255.3 L265.6,255.5 L267.2,255.7 L268.8,256.2 L270.4,256.3 L271.9,256.6
		L273.5,257.0 L275.1,257.8 L276.7,258.0 L278.3,258.5 L279.9,259.1 L281.5,259.7 L283.0,260.4 L284.6,261.2
		L286.2,262.1 L287.8,263.0 L289.4,264.3 L291.0,264.9 L292.5,266.6 L294.1,267.3 L295.7,269.2 L297.3,269.9
		L298.9,272.3 L300.5,273.2 L302.0,276.4 L303.6,277.6 L305.2,393.8 L306.8,385.2 L308.4,383.9 L310.0,382.5
		L311.5,381.1 L313.1,378.6 L314.7,377.3 L316.3,375.1 L317.9,373.8 L319.5,371.8 L321.0,370.5 L322.6,368.4
		L324.2,367.0 L325.8,365.0 L327.4,363.7 L329.0,361.7 L330.5,360.3 L332.1,358.4 L333.7,357.1 L335.3,355.2
		L336.9,353.9 L338.5,352.4 L340.1,351.3 L341.6,350.9 L343.2,352.1 L344.8,353.3 L346.4,354.8 L348.0,356.4
		L349.6,358.6 L351.1,360.1 L352.7,362.0 L354.3,363.9 L355.9,365.9 L357.5,367.8 L359.1,369.9 L360.6,372.0
		L362.2,374.1 L363.8,376.2 L365.4,378.4 L367.0,380.5 L368.6,382.8 L370.1,385.1 L371.7,387.1 L373.3,389.8
		L374.9,391.8 L376.5,394.6 L378.1,396.5 L379.6,399.3 L381.2,401.2 L382.8,403.8 L384.4,405.6 L386.0,408.0
		L387.6,409.6 L389.1,411.7 L390.7,413.0 L392.3,414.3 L393.9,375.6 L395.5,377.7 L397.1,379.3 L398.6,380.8
		L400.2,377.7 L401.8,379.8 L403.4,381.5 L405.0,380.1 L406.6,382.1 L408.2,382.1 L409.7,393.7 L411.3,395.0
		L412.9,394.6 L414.5,395.9 L416.1,396.8 L417.7,396.2 L419.2,397.3 L420.8,398.2 L422.4,397.0 L424.0,398.0
		L425.6,398.8 L427.2,397.7 L428.7,398.2 L430.3,400.0 L431.9,398.7 L433.5,399.7 L435.1,400.4 L436.7,401.0
		L438.2,401.5 L439.8,403.0 L441.4,402.1 L443.0,402.8 L444.6,403.4 L446.2,403.8 L447.7,404.3 L449.3,404.5
		L450.9,405.2 L452.5,405.6 L454.1,405.9 L455.7,405.4 L457.2,405.9 L458.8,406.2 L460.4,406.4 L462.0,406.5
		L463.6,406.6 L465.2,406.6 L466.7,406.6 L468.3,404.3 L469.9,404.9 L471.5,405.1 L473.1,405.0 L474.7,317.6
		L476.3,317.5 L477.8,320.4 L479.4,320.5 L481.0,320.6 L482.6,320.7 L484.2,320.7 L485.8,320.8 L487.3,320.8
		L488.9,320.9 L490.5,320.8 L492.1,321.0 L493.7,320.9 L495.3,321.1 L496.8,321.0 L498.4,321.2 L500.0,321.2
		L501.6,321.2 L503.2,321.4 L504.8,321.3 L506.3,321.5 L507.9,321.5 L509.5,321.7 L511.1,321.5 L512.7,321.8
		L514.3,321.6 L515.8,321.9 L517.4,321.7 L519.0,322.1 L520.6,321.8 L522.2,322.0 L523.8,321.8 L525.3,322.0
		L526.9,322.1 L528.5,322.0 L530.1,322.2 L531.7,322.3 L533.3,322.1 L534.8,322.3 L536.4,322.1 L538.0,322.1
		L539.6,322.2 L541.2,322.5 L542.8,322.3 L544.4,322.5 L545.9,322.8 L547.5,322.5 L549.1,322.9 L550.7,322.7
		L552.3,322.6 L553.9,322.7 L555.4,322.9 L557.0,323.0 L558.6,323.3 L560.2,323.1 L561.8,323.2 L563.4,323.1
		L564.9,323.1 L566.5,323.3 L568.1,323.4 L569.7,323.8 L571.3,323.5 L572.9,323.7 L574.4,323.9 L576.0,323.7
		L577.6,323.8 L579.2,324.0 L580.8,323.8 L582.4,323.7 L583.9,323.9 L585.5,324.0 L587.1,324.1 L588.7,324.4
		L590.3,324.1 L591.9,324.2 L593.4,324.0 L595.0,324.0 L596.6,324.1 L598.2,324.1 L599.8,324.1 L601.4,324.1
		L603.0,324.3 L604.5,324.0 L606.1,324.1 L607.7,324.2 L609.3,324.0 L610.9,324.0 L612.5,324.1 L614.0,324.1
		L615.6,324.1 L617.2,324.1 L618.8,324.0 L620.4,324.2 L622.0,323.7 L623.5,323.6 L625.1,323.7 L626.7,323.7
		L628.3,323.7 L629.9,323.8 L631.5,323.8 L633.0,323.8 L634.6,323.8 L636.2,323.8 L637.8,323.8 L639.4,323.8
		L641.0,323.8 L642.5,323.9 L644.1,323.9 L645.7,323.9 L647.3,323.9 L648.9,323.9 L650.5,323.9 L652.0,320.8
		L653.6,320.8 L655.2,320.8 L656.8,320.8 L658.4,320.8 L660.0,320.6 L661.5,320.7 L663.1,320.5 L664.7,320.5
		L666.3,320.3 L667.9,320.2 L669.5,320.3 L671.1,319.9 L672.6,320.0 L674.2,316.1 L675.8,315.9 L677.4,315.9
		L679.0,315.8 L680.6,315.6 L682.1,315.4 L683.7,315.4 L685.3,315.0 L686.9,315.0 L688.5,314.6 L690.1,314.5
		L691.6,314.1 L693.2,167.7 L694.8,167.5 L696.4,167.4 L698.0,167.3 L699.6,167.3 L701.1,167.2 L702.7,167.2
		L704.3,167.2 L705.9,167.1 L707.5,167.1 L709.1,167.0 L710.6,167.0 L712.2,166.9 L713.8,166.9 L715.4,166.9
		L717.0,166.8 L718.6,166.8 L720.1,166.8 L721.7,166.7 L723.3,166.7 L724.9,166.6 L726.5,166.6 L728.1,166.6
		L729.6,166.5 L731.2,166.5 L732.8,166.5 L734.4,166.4 L736.0,166.4 L737.6,166.3 L739.2,166.3 L740.7,166.3
		L742.3,166.3 L743.9,166.2 L745.5,166.2 L747.1,166.2 L748.7,166.2 L750.2,166.2 L751.8,166.2 L753.4,166.2
		L755.0,166.1 L756.6,166.1 L758.2,166.1 L759.7,166.1 L761.3,166.1 L762.9,166.1 L764.5,166.1 L766.1,166.1
		L767.7,166.1 L769.2,166.1 L770.8,166.1 L772.4,166.1 L774.0,166.0 L775.6,166.0 L777.2,165.9 L778.7,165.9
		L780.3,165.9 L781.9,165.8 L783.5,165.8 L785.1,165.8 L786.7,165.8 L788.2,165.8 L789.8,165.8 L791.4,165.8
		L793.0,165.7 L794.6,165.7 L796.2,165.7 L797.8,165.7 L799.3,165.7 L800.9,165.7 L802.5,165.8 L804.1,165.7
		L805.7,165.7 L807.3,169.8 L808.8,169.8 L810.4,169.7 L812.0,169.7 L813.6,169.6 L815.2,169.5 L816.8,169.5
		L818.3,169.4 L819.9,169.5 L821.5,169.4 L823.1,169.4 L824.7,169.4 L826.3,169.3 L827.8,169.2 L829.4,169.2
		L831.0,169.1 L832.6,170.2 L834.2,170.1 L835.8,170.0 L837.3,169.9 L838.9,169.8 L840.5,169.7 L842.1,169.6
		L843.7,169.5 L845.3,169.3 L846.8,169.2 L848.4,169.2 L850.0,169.1 L851.6,169.0 L853.2,168.9 L854.8,168.8
		L856.3,168.8 L857.9,168.5 L859.5,168.5 L861.1,168.4 L862.7,168.1 L864.3,168.0 L865.9,167.9 L867.4,167.7
		L869.0,167.7 L870.6,167.5  '/></g>
	</g>
	<g id="gnuplot_plot_5" ><title>PhN2+ TsO-</title>
<g fill="none" color="black" stroke="currentColor" stroke-width="3.00" stroke-linecap="butt" stroke-linejoin="miter">
	<g transform="translate(1253.0,301.1)" stroke="none" fill="black" font-family="Helvetica" font-size="26.00"  text-anchor="end">
		<text><tspan font-family="Helvetica" >PhN</tspan><tspan font-family="Helvetica"  font-size="20.8" dy="7.80px">2</tspan><tspan font-family="Helvetica"  dy="-20.80px">+</tspan><tspan font-family="Helvetica"  font-size="26.0" dy="13.00px"> TsO</tspan><tspan font-family="Helvetica"  font-size="20.8" dy="-13.00px">-</tspan><tspan font-size="26.0" dy="13.00"></tspan></text>
	</g>
</g>
<g fill="none" color="black" stroke="currentColor" stroke-width="3.00" stroke-linecap="butt" stroke-linejoin="miter">
	<path stroke='rgb(240, 228,  66)'  d='M1271.2,292.6 L1363.5,292.6 M238.7,417.6 L240.3,225.3 L241.9,225.0 L243.4,224.9 L245.0,224.7 L246.6,224.5
		L248.2,224.4 L249.8,224.2 L251.4,224.1 L252.9,223.9 L254.5,223.8 L256.1,223.7 L257.7,223.8 L259.3,223.7
		L260.9,223.7 L262.4,223.7 L264.0,223.8 L265.6,223.9 L267.2,224.0 L268.8,224.2 L270.4,224.5 L271.9,224.8
		L273.5,225.1 L275.1,225.5 L276.7,226.0 L278.3,226.5 L279.9,227.0 L281.5,227.6 L283.0,228.2 L284.6,228.9
		L286.2,229.6 L287.8,230.4 L289.4,231.1 L291.0,231.9 L292.5,232.7 L294.1,233.4 L295.7,233.5 L297.3,232.2
		L298.9,232.9 L300.5,233.8 L302.0,234.6 L303.6,235.5 L305.2,236.4 L306.8,237.3 L308.4,238.2 L310.0,239.1
		L311.5,240.0 L313.1,240.9 L314.7,241.8 L316.3,242.7 L317.9,243.6 L319.5,244.5 L321.0,245.4 L322.6,246.3
		L324.2,247.3 L325.8,248.4 L327.4,249.3 L329.0,250.3 L330.5,251.3 L332.1,252.9 L333.7,253.5 L335.3,254.4
		L336.9,256.7 L338.5,257.4 L340.1,261.8 L341.6,262.4 L343.2,313.0 L344.8,313.4 L346.4,313.9 L348.0,314.5
		L349.6,315.2 L351.1,315.9 L352.7,316.8 L354.3,317.7 L355.9,318.7 L357.5,319.8 L359.1,321.0 L360.6,322.2
		L362.2,323.5 L363.8,324.9 L365.4,326.3 L367.0,327.8 L368.6,329.3 L370.1,330.8 L371.7,332.5 L373.3,334.1
		L374.9,335.9 L376.5,337.6 L378.1,339.4 L379.6,341.2 L381.2,343.0 L382.8,344.9 L384.4,346.8 L386.0,348.6
		L387.6,350.5 L389.1,352.4 L390.7,354.3 L392.3,356.1 L393.9,357.9 L395.5,359.8 L397.1,361.6 L398.6,363.4
		L400.2,365.2 L401.8,366.9 L403.4,368.5 L405.0,370.0 L406.6,371.5 L408.2,373.2 L409.7,374.4 L411.3,375.6
		L412.9,376.8 L414.5,377.7 L416.1,378.7 L417.7,379.1 L419.2,378.8 L420.8,378.6 L422.4,378.0 L424.0,374.0
		L425.6,370.9 L427.2,370.3 L428.7,370.7 L430.3,369.0 L431.9,367.8 L433.5,366.5 L435.1,367.0 L436.7,359.0
		L438.2,295.9 L439.8,295.7 L441.4,295.7 L443.0,295.6 L444.6,295.7 L446.2,295.7 L447.7,295.7 L449.3,295.7
		L450.9,295.7 L452.5,295.7 L454.1,295.6 L455.7,295.5 L457.2,295.4 L458.8,295.3 L460.4,295.3 L462.0,295.2
		L463.6,295.2 L465.2,295.2 L466.7,295.1 L468.3,295.1 L469.9,295.1 L471.5,295.1 L473.1,295.4 L474.7,295.3
		L476.3,295.5 L477.8,295.5 L479.4,295.7 L481.0,295.7 L482.6,295.9 L484.2,295.9 L485.8,296.0 L487.3,296.0
		L488.9,296.2 L490.5,296.2 L492.1,296.4 L493.7,296.3 L495.3,296.4 L496.8,296.6 L498.4,296.5 L500.0,296.8
		L501.6,296.7 L503.2,296.9 L504.8,296.9 L506.3,297.1 L507.9,297.0 L509.5,297.2 L511.1,297.1 L512.7,297.3
		L514.3,297.3 L515.8,297.5 L517.4,297.4 L519.0,297.6 L520.6,297.5 L522.2,297.6 L523.8,297.8 L525.3,297.6
		L526.9,297.7 L528.5,297.1 L530.1,297.1 L531.7,297.3 L533.3,297.3 L534.8,297.5 L536.4,297.5 L538.0,297.7
		L539.6,297.6 L541.2,297.8 L542.8,297.7 L544.4,297.8 L545.9,297.9 L547.5,297.7 L549.1,297.9 L550.7,297.3
		L552.3,297.2 L553.9,297.5 L555.4,297.5 L557.0,297.7 L558.6,297.6 L560.2,297.9 L561.8,297.8 L563.4,297.9
		L564.9,298.0 L566.5,297.9 L568.1,298.0 L569.7,298.1 L571.3,297.3 L572.9,297.3 L574.4,297.5 L576.0,297.5
		L577.6,297.7 L579.2,297.6 L580.8,297.7 L582.4,297.8 L583.9,297.9 L585.5,297.4 L587.1,297.3 L588.7,297.5
		L590.3,297.5 L591.9,297.5 L593.4,297.4 L595.0,297.6 L596.6,297.4 L598.2,297.6 L599.8,297.5 L601.4,297.7
		L603.0,297.5 L604.5,297.7 L606.1,297.5 L607.7,297.7 L609.3,297.5 L610.9,296.2 L612.5,296.2 L614.0,296.3
		L615.6,296.3 L617.2,296.4 L618.8,296.4 L620.4,296.5 L622.0,296.5 L623.5,296.5 L625.1,296.5 L626.7,296.6
		L628.3,296.6 L629.9,296.6 L631.5,296.6 L633.0,296.6 L634.6,296.6 L636.2,296.6 L637.8,296.7 L639.4,296.7
		L641.0,296.7 L642.5,296.7 L644.1,296.7 L645.7,296.7 L647.3,296.7 L648.9,296.7 L650.5,296.7 L652.0,296.7
		L653.6,289.5 L655.2,288.0 L656.8,288.1 L658.4,288.1 L660.0,287.9 L661.5,288.0 L663.1,288.0 L664.7,287.9
		L666.3,287.7 L667.9,287.6 L669.5,286.5 L671.1,198.2 L672.6,198.2 L674.2,198.2 L675.8,198.1 L677.4,198.1
		L679.0,198.1 L680.6,198.1 L682.1,198.1 L683.7,198.0 L685.3,198.1 L686.9,198.0 L688.5,198.1 L690.1,198.0
		L691.6,198.1 L693.2,198.0 L694.8,198.1 L696.4,198.0 L698.0,198.0 L699.6,198.0 L701.1,198.0 L702.7,198.0
		L704.3,197.9 L705.9,197.9 L707.5,197.8 L709.1,197.8 L710.6,197.8 L712.2,197.8 L713.8,197.8 L715.4,197.7
		L717.0,197.7 L718.6,197.7 L720.1,197.7 L721.7,197.8 L723.3,197.8 L724.9,197.8 L726.5,197.7 L728.1,197.7
		L729.6,197.7 L731.2,197.8 L732.8,197.6 L734.4,197.8 L736.0,197.6 L737.6,197.7 L739.2,197.7 L740.7,197.8
		L742.3,197.7 L743.9,197.7 L745.5,197.7 L747.1,197.7 L748.7,197.7 L750.2,197.7 L751.8,197.7 L753.4,197.8
		L755.0,197.7 L756.6,197.8 L758.2,197.7 L759.7,197.8 L761.3,197.7 L762.9,197.7 L764.5,197.7 L766.1,197.7
		L767.7,197.7 L769.2,197.8 L770.8,197.7 L772.4,197.8 L774.0,197.7 L775.6,197.7 L777.2,197.7 L778.7,197.7
		L780.3,197.7 L781.9,197.6 L783.5,197.6 L785.1,197.6 L786.7,197.6 L788.2,197.6 L789.8,197.5 L791.4,197.5
		L793.0,197.5 L794.6,197.5 L796.2,197.5 L797.8,197.5 L799.3,197.5 L800.9,197.4 L802.5,197.4 L804.1,197.4
		L805.7,197.4 L807.3,197.4 L808.8,197.4 L810.4,197.4 L812.0,197.4 L813.6,197.4 L815.2,197.4 L816.8,197.4
		L818.3,197.4 L819.9,197.4 L821.5,197.4 L823.1,197.4 L824.7,197.4 L826.3,197.4 L827.8,197.3 L829.4,197.3
		L831.0,197.4 L832.6,197.3 L834.2,197.3 L835.8,197.3 L837.3,197.3 L838.9,197.3 L840.5,197.3 L842.1,197.3
		L843.7,197.3 L845.3,197.3 L846.8,197.3 L848.4,197.3 L850.0,197.3 L851.6,197.3 L853.2,197.3 L854.8,197.2
		L856.3,197.2 L857.9,197.2 L859.5,197.2 L861.1,197.2 L862.7,197.2 L864.3,197.2 L865.9,197.2 L867.4,197.2
		L869.0,197.2 L870.6,197.2  '/></g>
	</g>
<g fill="none" color="white" stroke="rgb(240, 228,  66)" stroke-width="2.00" stroke-linecap="butt" stroke-linejoin="miter">
</g>
<g fill="none" color="black" stroke="currentColor" stroke-width="2.00" stroke-linecap="butt" stroke-linejoin="miter">
</g>
<g fill="none" color="black" stroke="black" stroke-width="1.00" stroke-linecap="butt" stroke-linejoin="miter">
</g>
<g fill="none" color="black" stroke="currentColor" stroke-width="1.00" stroke-linecap="butt" stroke-linejoin="miter">
	<path stroke='black'  d='M175.5,117.1 L175.5,775.2 L886.4,775.2 L886.4,117.1 L175.5,117.1 Z  '/></g>
<g fill="none" color="black" stroke="currentColor" stroke-width="1.00" stroke-linecap="butt" stroke-linejoin="miter">
</g>
</g>
</svg>

