26
Coordinates from ORCA-job C6H6+HOTf+NH2--N2+-scan
  N   2.19655104098168     -4.74091097211884     -1.61607789873894
  N   2.93159144124569     -5.54179141127559     -1.81326331225558
  N   1.72076896094523     -3.23051695474872     -1.85176344836950
  H   0.73585898654101     -3.39745567036453     -2.09080299064817
  H   3.60376077828960     -1.60291217947605      2.66367026496955
  C   -1.13996388720419     -1.18298750003666     -2.48535031692089
  C   -1.11917101562462     -1.49418705929708     -3.84826717828253
  C   0.08869714579964     -1.51732292868016     -4.55819020374681
  C   1.27882328545247     -1.23155883462566     -3.90664134203931
  C   1.27076881071461     -0.93054095081555     -2.52706773564049
  C   0.04844334635876     -0.88808981790342     -1.82272672370841
  H   -2.08237536064481     -1.14544126321869     -1.95185046791582
  H   -2.04862305617041     -1.70673240515885     -4.36443698764881
  H   0.08817221766653     -1.74297934455096     -5.61796915896977
  H   2.21677764684911     -1.23191543623942     -4.44922302695235
  H   2.18512059610641     -0.60205714179460     -2.04605526427000
  H   0.03607133048600     -0.60435887003957     -0.77612597031491
  S   1.56576789567020     -1.84426013812171      1.97993157816285
  O   0.55465188552281     -0.87043361985791      1.66663146878426
  O   2.08728731598417     -2.74744133954854      0.94888067072896
  O   2.79012033461831     -1.07077708637016      2.67351143262136
  C   0.96808844044720     -2.93983048931554      3.40479166892628
  F   2.00716944372432     -3.63745721699817      3.84908530202760
  F   0.47403217082777     -2.18111317153784      4.35787736593475
  F   0.04189630701934     -3.75284556333734      2.92133957975086
  H   1.74921393839364     -2.91628263456827     -0.85970730548410
