17
Coordinates from ORCA-job C6H6+NH2N2+-aug-scan
  N   1.09111651188480     -1.51530662123980     -1.53589662709027
  N   1.04366003730771     -2.02684910005745     -2.54922917497198
  N   0.88219741620546     -0.57197842090728     -0.65617219851049
  H   -0.01227597740146     -0.08599343160313     -0.76538909875673
  H   1.19860449316803     -0.80466744053835      0.28436769174632
  C   -0.22847141811176     -3.47813474286990     -5.12092312822944
  C   0.95803515528904     -2.99574840004317     -5.69990704981268
  C   1.31277479214348     -1.64726325539948     -5.57848871555171
  C   0.48509403900818     -0.77378375430809     -4.86595988339198
  C   -0.70119056817745     -1.25950267727953     -4.26898790152856
  C   -1.06190519625355     -2.61377916470568     -4.41175706716415
  H   -0.50246440261696     -4.52662266303840     -5.23931851692962
  H   1.59970685281520     -3.67579172490504     -6.26110267023647
  H   2.22388766775717     -1.27693537079395     -6.04831802026952
  H   0.73915052041554      0.28435748287958     -4.79109826193128
  H   -1.37824553135357     -0.56736155489418     -3.76428475795894
  H   -1.99387439207992     -2.97883916029615     -3.97953461941229
