17
Coordinates from ORCA-job C6H6+NH2N2+-aug-scan
  N   1.07419067067696     -1.55014464007368     -1.51617414368687
  N   0.74102300789730     -2.13891742033370     -2.42979997460553
  N   1.47177036524726     -0.49683901476780     -0.85325603931809
  H   1.07731674254857      0.38629677388825     -1.18896101586069
  H   1.55295514827839     -0.64381109995853      0.15192876400282
  C   -0.24969593154691     -3.50124085921007     -5.30260562813731
  C   1.02799741636452     -2.94674996793640     -5.47280087091864
  C   1.26505911949203     -1.62110785149723     -5.10805001182970
  C   0.21780033298328     -0.84902611558095     -4.55873970211214
  C   -1.07168431767648     -1.40566935542042     -4.40964341044956
  C   -1.29886400846445     -2.73256873568838     -4.77691335211151
  H   -0.43260112069906     -4.53552610866925     -5.59588739818853
  H   1.82956433981946     -3.54792262200928     -5.90199966181881
  H   2.24887057209796     -1.17593603186649     -5.25948759523731
  H   0.38322743122247      0.20690494505246     -4.33478530516518
  H   -1.88880024154726     -0.79399291753601     -4.02556824629647
  H   -2.29232952669408     -3.16794897839248     -4.66925640826624
