<?xml version="1.0" encoding="utf-8"  standalone="no"?>
<!DOCTYPE svg PUBLIC "-//W3C//DTD SVG 1.1//EN"
 "http://www.w3.org/Graphics/SVG/1.1/DTD/svg11.dtd">
<svg 
 width="1400" height="900"
 viewBox="0 0 1400 900"
 xmlns="http://www.w3.org/2000/svg"
 xmlns:xlink="http://www.w3.org/1999/xlink"
>

<title>Gnuplot</title>
<desc>Produced by GNUPLOT 5.0 patchlevel 5 </desc>

<g id="gnuplot_canvas">

<rect x="0" y="0" width="1400" height="900" fill="none"/>
<defs>

	<circle id='gpDot' r='0.5' stroke-width='0.5'/>
	<path id='gpPt0' stroke-width='0.103' stroke='currentColor' d='M-1,0 h2 M0,-1 v2'/>
	<path id='gpPt1' stroke-width='0.103' stroke='currentColor' d='M-1,-1 L1,1 M1,-1 L-1,1'/>
	<path id='gpPt2' stroke-width='0.103' stroke='currentColor' d='M-1,0 L1,0 M0,-1 L0,1 M-1,-1 L1,1 M-1,1 L1,-1'/>
	<rect id='gpPt3' stroke-width='0.103' stroke='currentColor' x='-1' y='-1' width='2' height='2'/>
	<rect id='gpPt4' stroke-width='0.103' stroke='currentColor' fill='currentColor' x='-1' y='-1' width='2' height='2'/>
	<circle id='gpPt5' stroke-width='0.103' stroke='currentColor' cx='0' cy='0' r='1'/>
	<use xlink:href='#gpPt5' id='gpPt6' fill='currentColor' stroke='none'/>
	<path id='gpPt7' stroke-width='0.103' stroke='currentColor' d='M0,-1.33 L-1.33,0.67 L1.33,0.67 z'/>
	<use xlink:href='#gpPt7' id='gpPt8' fill='currentColor' stroke='none'/>
	<use xlink:href='#gpPt7' id='gpPt9' stroke='currentColor' transform='rotate(180)'/>
	<use xlink:href='#gpPt9' id='gpPt10' fill='currentColor' stroke='none'/>
	<use xlink:href='#gpPt3' id='gpPt11' stroke='currentColor' transform='rotate(45)'/>
	<use xlink:href='#gpPt11' id='gpPt12' fill='currentColor' stroke='none'/>
	<path id='gpPt13' stroke-width='0.103' stroke='currentColor' d='M0,1.330 L1.265,0.411 L0.782,-1.067 L-0.782,-1.076 L-1.265,0.411 z'/>
	<use xlink:href='#gpPt13' id='gpPt14' fill='currentColor' stroke='none'/>
	<filter id='textbox' filterUnits='objectBoundingBox' x='0' y='0' height='1' width='1'>
	  <feFlood flood-color='white' flood-opacity='1' result='bgnd'/>
	  <feComposite in='SourceGraphic' in2='bgnd' operator='atop'/>
	</filter>
	<filter id='greybox' filterUnits='objectBoundingBox' x='0' y='0' height='1' width='1'>
	  <feFlood flood-color='lightgrey' flood-opacity='1' result='grey'/>
	  <feComposite in='SourceGraphic' in2='grey' operator='atop'/>
	</filter>
</defs>
<g fill="none" color="white" stroke="black" stroke-width="1.00" stroke-linecap="butt" stroke-linejoin="miter">
</g>
<g fill="none" color="black" stroke="currentColor" stroke-width="1.00" stroke-linecap="butt" stroke-linejoin="miter">
	<path stroke='black'  d='M175.5,775.2 L195.0,775.2 M1052.8,775.2 L1033.3,775.2  '/>	<g transform="translate(157.3,783.7)" stroke="none" fill="black" font-family="Helvetica" font-size="26.00"  text-anchor="end">
		<text><tspan font-family="Helvetica" > 1.1</tspan></text>
	</g>
</g>
<g fill="none" color="black" stroke="currentColor" stroke-width="1.00" stroke-linecap="butt" stroke-linejoin="miter">
	<path stroke='black'  d='M175.5,681.2 L195.0,681.2 M1052.8,681.2 L1033.3,681.2  '/>	<g transform="translate(157.3,689.7)" stroke="none" fill="black" font-family="Helvetica" font-size="26.00"  text-anchor="end">
		<text><tspan font-family="Helvetica" > 1.11</tspan></text>
	</g>
</g>
<g fill="none" color="black" stroke="currentColor" stroke-width="1.00" stroke-linecap="butt" stroke-linejoin="miter">
	<path stroke='black'  d='M175.5,587.2 L195.0,587.2 M1052.8,587.2 L1033.3,587.2  '/>	<g transform="translate(157.3,595.7)" stroke="none" fill="black" font-family="Helvetica" font-size="26.00"  text-anchor="end">
		<text><tspan font-family="Helvetica" > 1.12</tspan></text>
	</g>
</g>
<g fill="none" color="black" stroke="currentColor" stroke-width="1.00" stroke-linecap="butt" stroke-linejoin="miter">
	<path stroke='black'  d='M175.5,493.2 L195.0,493.2 M1052.8,493.2 L1033.3,493.2  '/>	<g transform="translate(157.3,501.7)" stroke="none" fill="black" font-family="Helvetica" font-size="26.00"  text-anchor="end">
		<text><tspan font-family="Helvetica" > 1.13</tspan></text>
	</g>
</g>
<g fill="none" color="black" stroke="currentColor" stroke-width="1.00" stroke-linecap="butt" stroke-linejoin="miter">
	<path stroke='black'  d='M175.5,399.1 L195.0,399.1 M1052.8,399.1 L1033.3,399.1  '/>	<g transform="translate(157.3,407.6)" stroke="none" fill="black" font-family="Helvetica" font-size="26.00"  text-anchor="end">
		<text><tspan font-family="Helvetica" > 1.14</tspan></text>
	</g>
</g>
<g fill="none" color="black" stroke="currentColor" stroke-width="1.00" stroke-linecap="butt" stroke-linejoin="miter">
	<path stroke='black'  d='M175.5,305.1 L195.0,305.1 M1052.8,305.1 L1033.3,305.1  '/>	<g transform="translate(157.3,313.6)" stroke="none" fill="black" font-family="Helvetica" font-size="26.00"  text-anchor="end">
		<text><tspan font-family="Helvetica" > 1.15</tspan></text>
	</g>
</g>
<g fill="none" color="black" stroke="currentColor" stroke-width="1.00" stroke-linecap="butt" stroke-linejoin="miter">
	<path stroke='black'  d='M175.5,211.1 L195.0,211.1 M1052.8,211.1 L1033.3,211.1  '/>	<g transform="translate(157.3,219.6)" stroke="none" fill="black" font-family="Helvetica" font-size="26.00"  text-anchor="end">
		<text><tspan font-family="Helvetica" > 1.16</tspan></text>
	</g>
</g>
<g fill="none" color="black" stroke="currentColor" stroke-width="1.00" stroke-linecap="butt" stroke-linejoin="miter">
	<path stroke='black'  d='M175.5,117.1 L195.0,117.1 M1052.8,117.1 L1033.3,117.1  '/>	<g transform="translate(157.3,125.6)" stroke="none" fill="black" font-family="Helvetica" font-size="26.00"  text-anchor="end">
		<text><tspan font-family="Helvetica" > 1.17</tspan></text>
	</g>
</g>
<g fill="none" color="black" stroke="currentColor" stroke-width="1.00" stroke-linecap="butt" stroke-linejoin="miter">
	<path stroke='black'  d='M175.5,775.2 L175.5,755.7 M175.5,117.1 L175.5,136.6  '/>	<g transform="translate(175.5,822.7)" stroke="none" fill="black" font-family="Helvetica" font-size="26.00"  text-anchor="middle">
		<text><tspan font-family="Helvetica" > 0.5</tspan></text>
	</g>
</g>
<g fill="none" color="black" stroke="currentColor" stroke-width="1.00" stroke-linecap="butt" stroke-linejoin="miter">
	<path stroke='black'  d='M273.0,775.2 L273.0,755.7 M273.0,117.1 L273.0,136.6  '/>	<g transform="translate(273.0,822.7)" stroke="none" fill="black" font-family="Helvetica" font-size="26.00"  text-anchor="middle">
		<text><tspan font-family="Helvetica" > 1</tspan></text>
	</g>
</g>
<g fill="none" color="black" stroke="currentColor" stroke-width="1.00" stroke-linecap="butt" stroke-linejoin="miter">
	<path stroke='black'  d='M370.5,775.2 L370.5,755.7 M370.5,117.1 L370.5,136.6  '/>	<g transform="translate(370.5,822.7)" stroke="none" fill="black" font-family="Helvetica" font-size="26.00"  text-anchor="middle">
		<text><tspan font-family="Helvetica" > 1.5</tspan></text>
	</g>
</g>
<g fill="none" color="black" stroke="currentColor" stroke-width="1.00" stroke-linecap="butt" stroke-linejoin="miter">
	<path stroke='black'  d='M467.9,775.2 L467.9,755.7 M467.9,117.1 L467.9,136.6  '/>	<g transform="translate(467.9,822.7)" stroke="none" fill="black" font-family="Helvetica" font-size="26.00"  text-anchor="middle">
		<text><tspan font-family="Helvetica" > 2</tspan></text>
	</g>
</g>
<g fill="none" color="black" stroke="currentColor" stroke-width="1.00" stroke-linecap="butt" stroke-linejoin="miter">
	<path stroke='black'  d='M565.4,775.2 L565.4,755.7 M565.4,117.1 L565.4,136.6  '/>	<g transform="translate(565.4,822.7)" stroke="none" fill="black" font-family="Helvetica" font-size="26.00"  text-anchor="middle">
		<text><tspan font-family="Helvetica" > 2.5</tspan></text>
	</g>
</g>
<g fill="none" color="black" stroke="currentColor" stroke-width="1.00" stroke-linecap="butt" stroke-linejoin="miter">
	<path stroke='black'  d='M662.9,775.2 L662.9,755.7 M662.9,117.1 L662.9,136.6  '/>	<g transform="translate(662.9,822.7)" stroke="none" fill="black" font-family="Helvetica" font-size="26.00"  text-anchor="middle">
		<text><tspan font-family="Helvetica" > 3</tspan></text>
	</g>
</g>
<g fill="none" color="black" stroke="currentColor" stroke-width="1.00" stroke-linecap="butt" stroke-linejoin="miter">
	<path stroke='black'  d='M760.4,775.2 L760.4,755.7 M760.4,117.1 L760.4,136.6  '/>	<g transform="translate(760.4,822.7)" stroke="none" fill="black" font-family="Helvetica" font-size="26.00"  text-anchor="middle">
		<text><tspan font-family="Helvetica" > 3.5</tspan></text>
	</g>
</g>
<g fill="none" color="black" stroke="currentColor" stroke-width="1.00" stroke-linecap="butt" stroke-linejoin="miter">
	<path stroke='black'  d='M857.8,775.2 L857.8,755.7 M857.8,117.1 L857.8,136.6  '/>	<g transform="translate(857.8,822.7)" stroke="none" fill="black" font-family="Helvetica" font-size="26.00"  text-anchor="middle">
		<text><tspan font-family="Helvetica" > 4</tspan></text>
	</g>
</g>
<g fill="none" color="black" stroke="currentColor" stroke-width="1.00" stroke-linecap="butt" stroke-linejoin="miter">
	<path stroke='black'  d='M955.3,775.2 L955.3,755.7 M955.3,117.1 L955.3,136.6  '/>	<g transform="translate(955.3,822.7)" stroke="none" fill="black" font-family="Helvetica" font-size="26.00"  text-anchor="middle">
		<text><tspan font-family="Helvetica" > 4.5</tspan></text>
	</g>
</g>
<g fill="none" color="black" stroke="currentColor" stroke-width="1.00" stroke-linecap="butt" stroke-linejoin="miter">
	<path stroke='black'  d='M1052.8,775.2 L1052.8,755.7 M1052.8,117.1 L1052.8,136.6  '/>	<g transform="translate(1052.8,822.7)" stroke="none" fill="black" font-family="Helvetica" font-size="26.00"  text-anchor="middle">
		<text><tspan font-family="Helvetica" > 5</tspan></text>
	</g>
</g>
<g fill="none" color="black" stroke="currentColor" stroke-width="1.00" stroke-linecap="butt" stroke-linejoin="miter">
</g>
<g fill="none" color="black" stroke="currentColor" stroke-width="1.00" stroke-linecap="butt" stroke-linejoin="miter">
	<path stroke='black'  d='M175.5,117.1 L175.5,775.2 L1052.8,775.2 L1052.8,117.1 L175.5,117.1 Z  '/></g>
<g fill="none" color="black" stroke="currentColor" stroke-width="1.00" stroke-linecap="butt" stroke-linejoin="miter">
	<g transform="translate(37.0,446.2) rotate(270)" stroke="none" fill="black" font-family="Helvetica-Bold" font-size="26.00"  text-anchor="middle">
		<text><tspan font-family="Helvetica-Bold" >d(N1-N2), A</tspan></text>
	</g>
</g>
<g fill="none" color="black" stroke="currentColor" stroke-width="1.00" stroke-linecap="butt" stroke-linejoin="miter">
	<g transform="translate(614.1,881.2)" stroke="none" fill="black" font-family="Helvetica-Bold" font-size="26.00"  text-anchor="middle">
		<text><tspan font-family="Helvetica-Bold" >d(C1-N1), A</tspan></text>
	</g>
</g>
<g fill="none" color="black" stroke="currentColor" stroke-width="1.00" stroke-linecap="butt" stroke-linejoin="miter">
	<g transform="translate(614.1,67.1)" stroke="none" fill="black" font-family="Helvetica" font-size="26.00"  text-anchor="middle">
		<text><tspan font-family="Helvetica"  font-weight="bold" >MeOPhN</tspan><tspan font-family="Helvetica"  font-weight="bold"  font-size="20.8" dy="7.80px">2</tspan><tspan font-family="Helvetica"  font-weight="bold"  dy="-20.80px">+</tspan><tspan font-size="26.0" dy="13.00"></tspan></text>
	</g>
</g>
<g fill="none" color="black" stroke="black" stroke-width="0.20" stroke-linecap="butt" stroke-linejoin="miter">
</g>
<g fill="none" color="black" stroke="currentColor" stroke-width="0.20" stroke-linecap="butt" stroke-linejoin="miter">
	<path stroke='black'  d='M1089.2,273.1 L1089.2,117.1 L1381.7,117.1 L1381.7,273.1 L1089.2,273.1 Z  '/></g>
	<g id="gnuplot_plot_1" ><title>PhN2+</title>
<g fill="none" color="white" stroke="black" stroke-width="3.00" stroke-linecap="butt" stroke-linejoin="miter">
</g>
<g fill="none" color="black" stroke="currentColor" stroke-width="3.00" stroke-linecap="butt" stroke-linejoin="miter">
	<g transform="translate(1253.0,145.1)" stroke="none" fill="black" font-family="Helvetica" font-size="26.00"  text-anchor="end">
		<text><tspan font-family="Helvetica" >PhN</tspan><tspan font-family="Helvetica"  font-size="20.8" dy="7.80px">2</tspan><tspan font-family="Helvetica"  dy="-20.80px">+</tspan><tspan font-size="26.0" dy="13.00"></tspan></text>
	</g>
</g>
<g fill="none" color="black" stroke="currentColor" stroke-width="3.00" stroke-linecap="butt" stroke-linejoin="miter">
	<path stroke='rgb(255,   0,   0)'  d='M1271.2,136.6 L1363.5,136.6 M253.5,212.1 L255.4,231.7 L257.4,243.2 L259.3,267.9 L261.3,276.8 L263.3,288.2
		L265.2,306.9 L267.2,324.9 L269.1,330.3 L271.1,350.5 L273.0,355.7 L275.0,374.9 L276.9,379.7 L278.9,395.7
		L280.8,401.8 L282.8,411.8 L284.8,422.0 L286.7,435.6 L288.7,442.9 L290.6,451.9 L292.6,461.0 L294.5,473.2
		L296.5,479.6 L298.4,487.6 L300.4,495.8 L302.3,503.8 L304.3,513.9 L306.3,519.9 L308.2,527.0 L310.2,534.1
		L312.1,541.1 L314.1,548.0 L316.0,554.7 L318.0,561.3 L319.9,567.6 L321.9,573.9 L323.8,580.0 L325.8,585.9
		L327.8,591.7 L329.7,597.3 L331.7,602.8 L333.6,608.2 L335.6,613.5 L337.5,618.6 L339.5,623.6 L341.4,628.4
		L343.4,633.2 L345.3,637.9 L347.3,642.5 L349.2,646.9 L351.2,651.3 L353.2,655.5 L355.1,659.6 L357.1,663.7
		L359.0,667.6 L361.0,671.4 L362.9,675.1 L364.9,678.8 L366.8,682.3 L368.8,685.8 L370.7,689.1 L372.7,692.3
		L374.7,695.5 L376.6,698.5 L378.6,701.5 L380.5,704.3 L382.5,707.0 L384.4,709.7 L386.4,712.2 L388.3,714.7
		L390.3,717.0 L392.2,719.3 L394.2,721.4 L396.2,723.5 L398.1,725.5 L400.1,727.3 L402.0,729.1 L404.0,730.8
		L405.9,732.4 L407.9,733.9 L409.8,735.3 L411.8,736.6 L413.7,737.8 L415.7,739.0 L417.7,740.0 L419.6,741.1
		L421.6,742.0 L423.5,742.9 L425.5,743.7 L427.4,744.5 L429.4,745.1 L431.3,745.8 L433.3,746.3 L435.2,746.8
		L437.2,747.3 L439.2,747.7 L441.1,748.1 L443.1,748.4 L445.0,748.7 L447.0,748.9 L448.9,749.1 L450.9,749.3
		L452.8,749.5 L454.8,749.6 L456.7,749.7 L458.7,749.8 L460.7,749.9 L462.6,749.9 L464.6,749.9 L466.5,749.9
		L468.5,749.9 L470.4,749.9 L472.4,749.9 L474.3,749.8 L476.3,749.8 L478.2,749.7 L480.2,749.6 L482.2,749.6
		L484.1,749.5 L486.1,749.4 L488.0,749.3 L490.0,749.2 L491.9,749.1 L493.9,749.0 L495.8,748.7 L497.8,748.7
		L499.7,748.6 L501.7,748.5 L503.7,748.3 L505.6,748.2 L507.6,748.1 L509.5,748.0 L511.5,747.8 L513.4,747.7
		L515.4,747.6 L517.3,747.5 L519.3,747.4 L521.2,747.3 L523.2,747.2 L525.1,747.1 L527.1,747.0 L529.1,746.9
		L531.0,746.7 L533.0,746.6 L534.9,746.5 L536.9,746.4 L538.8,746.2 L540.8,746.1 L542.7,746.0 L544.7,745.9
		L546.6,745.8 L548.6,745.7 L550.6,745.6 L552.5,745.5 L554.5,745.4 L556.4,745.3 L558.4,745.3 L560.3,745.2
		L562.3,745.0 L564.2,744.9 L566.2,744.8 L568.1,744.8 L570.1,744.7 L572.1,744.6 L574.0,744.5 L576.0,744.5
		L577.9,744.4 L579.9,744.3 L581.8,744.2 L583.8,744.2 L585.7,744.0 L587.7,743.9 L589.6,743.9 L591.6,743.8
		L593.6,743.7 L595.5,743.6 L597.5,743.6 L599.4,743.5 L601.4,743.4 L603.3,743.3 L605.3,743.3 L607.2,743.2
		L609.2,743.2 L611.1,743.1 L613.1,743.0 L615.1,743.0 L617.0,742.9 L619.0,742.8 L620.9,742.8 L622.9,742.8
		L624.8,742.7 L626.8,742.6 L628.7,742.6 L630.7,742.5 L632.6,742.4 L634.6,742.4 L636.6,742.3 L638.5,742.2
		L640.5,742.2 L642.4,742.2 L644.4,742.1 L646.3,742.1 L648.3,742.0 L650.2,741.9 L652.2,741.9 L654.1,741.8
		L656.1,741.8 L658.1,741.7 L660.0,741.7 L662.0,741.6 L663.9,741.6 L665.9,741.5 L667.8,741.5 L669.8,741.5
		L671.7,741.4 L673.7,741.3 L675.6,741.3 L677.6,741.3 L679.6,741.2 L681.5,741.2 L683.5,741.1 L685.4,741.1
		L687.4,741.0 L689.3,741.0 L691.3,740.9 L693.2,740.9 L695.2,740.8 L697.1,740.8 L699.1,740.7 L701.0,740.7
		L703.0,740.6 L705.0,740.6 L706.9,740.5 L708.9,740.5 L710.8,740.5 L712.8,740.4 L714.7,740.3 L716.7,740.3
		L718.6,740.3 L720.6,740.2 L722.5,740.2 L724.5,740.1 L726.5,740.0 L728.4,740.0 L730.4,740.0 L732.3,739.9
		L734.3,739.9 L736.2,739.8 L738.2,739.8 L740.1,739.7 L742.1,739.7 L744.0,739.6 L746.0,739.6 L748.0,739.6
		L749.9,739.5 L751.9,739.5 L753.8,739.4 L755.8,739.4 L757.7,739.4 L759.7,739.3 L761.6,739.3 L763.6,739.2
		L765.5,739.2 L767.5,739.1 L769.5,739.1 L771.4,739.0 L773.4,739.0 L775.3,739.0 L777.3,738.9 L779.2,738.9
		L781.2,738.8 L783.1,738.8 L785.1,738.8 L787.0,738.7 L789.0,738.7 L791.0,738.6 L792.9,738.6 L794.9,738.5
		L796.8,738.5 L798.8,738.5 L800.7,738.4 L802.7,738.4 L804.6,738.3 L806.6,738.3 L808.5,738.3 L810.5,738.2
		L812.5,738.2 L814.4,738.2 L816.4,738.1 L818.3,738.1 L820.3,738.1 L822.2,738.0 L824.2,738.0 L826.1,737.9
		L828.1,737.9 L830.0,737.9 L832.0,737.8 L834.0,737.8 L835.9,737.8 L837.9,737.7 L839.8,737.7 L841.8,737.7
		L843.7,737.6 L845.7,737.6 L847.6,737.6 L849.6,737.5 L851.5,737.5 L853.5,737.5 L855.5,737.4 L857.4,737.4
		L859.4,737.4 L861.3,737.3 L863.3,737.3 L865.2,737.3 L867.2,737.3 L869.1,737.2 L871.1,737.2 L873.0,737.2
		L875.0,737.2 L876.9,737.1 L878.9,737.1 L880.9,737.1 L882.8,737.0 L884.8,737.0 L886.7,737.0 L888.7,737.0
		L890.6,736.9 L892.6,736.9 L894.5,736.9 L896.5,736.9 L898.4,736.9 L900.4,736.8 L902.4,736.8 L904.3,736.8
		L906.3,736.8 L908.2,736.7 L910.2,736.7 L912.1,736.7 L914.1,736.7 L916.0,736.7 L918.0,736.6 L919.9,736.6
		L921.9,736.6 L923.9,736.6 L925.8,736.5 L927.8,736.5 L929.7,736.5 L931.7,736.5 L933.6,736.5 L935.6,736.4
		L937.5,736.4 L939.5,736.4 L941.4,736.4 L943.4,736.4 L945.4,736.3 L947.3,736.3 L949.3,736.3 L951.2,736.3
		L953.2,736.3 L955.1,736.3 L957.1,736.2 L959.0,736.2 L961.0,736.2 L962.9,736.2 L964.9,736.2 L966.9,736.2
		L968.8,736.1 L970.8,736.1 L972.7,736.1 L974.7,736.1 L976.6,736.1 L978.6,736.1 L980.5,736.0 L982.5,736.0
		L984.4,736.0 L986.4,736.0 L988.4,736.0 L990.3,736.0 L992.3,735.9 L994.2,735.9 L996.2,735.9 L998.1,735.9
		L1000.1,735.9 L1002.0,735.9 L1004.0,735.9 L1005.9,735.8 L1007.9,735.8 L1009.9,735.8 L1011.8,735.8 L1013.8,735.8
		L1015.7,735.8 L1017.7,735.8 L1019.6,735.8 L1021.6,735.8 L1023.5,735.7 L1025.5,735.7 L1027.4,735.7 L1029.4,735.7
		L1031.4,735.7 L1033.3,735.7  '/></g>
	</g>
	<g id="gnuplot_plot_2" ><title>2-MeOPhN2+</title>
<g fill="none" color="black" stroke="currentColor" stroke-width="3.00" stroke-linecap="butt" stroke-linejoin="miter">
	<g transform="translate(1253.0,184.1)" stroke="none" fill="black" font-family="Helvetica" font-size="26.00"  text-anchor="end">
		<text><tspan font-family="Helvetica" >2-MeOPhN</tspan><tspan font-family="Helvetica"  font-size="20.8" dy="7.80px">2</tspan><tspan font-family="Helvetica"  dy="-20.80px">+</tspan><tspan font-size="26.0" dy="13.00"></tspan></text>
	</g>
</g>
<g fill="none" color="black" stroke="currentColor" stroke-width="3.00" stroke-linecap="butt" stroke-linejoin="miter">
	<path stroke='rgb(240, 228,  66)'  d='M1271.2,175.6 L1363.5,175.6 M253.5,170.0 L255.4,191.9 L257.4,206.2 L259.3,218.0 L261.3,239.9 L263.3,254.8
		L265.2,264.2 L267.2,283.3 L269.1,300.8 L271.1,306.9 L273.0,329.7 L275.0,333.3 L276.9,347.1 L278.9,356.5
		L280.8,374.7 L282.8,380.0 L284.8,394.1 L286.7,401.0 L288.7,410.7 L290.6,420.5 L292.6,433.4 L294.5,440.7
		L296.5,449.4 L298.4,458.2 L300.4,467.0 L302.3,475.5 L304.3,486.4 L306.3,492.8 L308.2,500.3 L310.2,507.8
		L312.1,515.3 L314.1,522.7 L316.0,529.9 L318.0,536.9 L319.9,543.7 L321.9,550.5 L323.8,557.0 L325.8,563.4
		L327.8,569.7 L329.7,575.8 L331.7,581.8 L333.6,587.7 L335.6,593.4 L337.5,599.0 L339.5,604.5 L341.4,609.9
		L343.4,615.2 L345.3,620.3 L347.3,625.4 L349.2,630.3 L351.2,635.1 L353.2,639.8 L355.1,644.5 L357.1,649.0
		L359.0,653.4 L361.0,657.8 L362.9,662.0 L364.9,666.1 L366.8,670.2 L368.8,674.1 L370.7,678.0 L372.7,681.7
		L374.7,685.4 L376.6,688.9 L378.6,692.4 L380.5,695.7 L382.5,699.0 L384.4,702.1 L386.4,705.2 L388.3,708.1
		L390.3,710.9 L392.2,713.7 L394.2,716.3 L396.2,718.8 L398.1,721.3 L400.1,723.6 L402.0,725.8 L404.0,727.9
		L405.9,729.9 L407.9,731.8 L409.8,733.6 L411.8,735.3 L413.7,736.9 L415.7,738.4 L417.7,739.9 L419.6,741.2
		L421.6,742.4 L423.5,743.6 L425.5,744.6 L427.4,745.7 L429.4,746.5 L431.3,747.4 L433.3,748.2 L435.2,748.9
		L437.2,749.5 L439.2,750.1 L441.1,750.7 L443.1,751.1 L445.0,751.6 L447.0,752.0 L448.9,752.3 L450.9,752.6
		L452.8,752.8 L454.8,753.0 L456.7,753.2 L458.7,753.4 L460.7,753.5 L462.6,753.6 L464.6,753.7 L466.5,753.7
		L468.5,753.8 L470.4,753.8 L472.4,753.8 L474.3,753.7 L476.3,753.7 L478.2,753.7 L480.2,753.6 L482.2,753.5
		L484.1,753.4 L486.1,753.4 L488.0,753.2 L490.0,753.1 L491.9,753.0 L493.9,752.9 L495.8,752.7 L497.8,752.5
		L499.7,752.4 L501.7,752.3 L503.7,752.1 L505.6,752.0 L507.6,751.8 L509.5,751.7 L511.5,751.5 L513.4,751.4
		L515.4,751.3 L517.3,751.1 L519.3,751.0 L521.2,750.8 L523.2,750.7 L525.1,750.5 L527.1,750.4 L529.1,750.3
		L531.0,750.1 L533.0,750.0 L534.9,749.9 L536.9,749.7 L538.8,749.6 L540.8,749.4 L542.7,749.3 L544.7,749.2
		L546.6,749.0 L548.6,748.9 L550.6,748.8 L552.5,748.6 L554.5,748.5 L556.4,748.4 L558.4,748.2 L560.3,748.1
		L562.3,748.0 L564.2,747.9 L566.2,747.7 L568.1,747.6 L570.1,747.5 L572.1,747.3 L574.0,747.2 L576.0,747.1
		L577.9,747.0 L579.9,746.8 L581.8,746.7 L583.8,746.6 L585.7,746.4 L587.7,746.3 L589.6,746.2 L591.6,746.1
		L593.6,746.0 L595.5,745.8 L597.5,745.6 L599.4,745.5 L601.4,745.4 L603.3,745.3 L605.3,745.2 L607.2,745.0
		L609.2,745.0 L611.1,744.9 L613.1,744.8 L615.1,744.7 L617.0,744.6 L619.0,744.5 L620.9,744.4 L622.9,744.3
		L624.8,744.2 L626.8,744.1 L628.7,744.1 L630.7,744.0 L632.6,743.9 L634.6,743.8 L636.6,743.7 L638.5,743.7
		L640.5,743.6 L642.4,743.5 L644.4,743.4 L646.3,743.3 L648.3,743.3 L650.2,743.2 L652.2,743.1 L654.1,743.0
		L656.1,743.0 L658.1,742.9 L660.0,742.8 L662.0,742.7 L663.9,742.7 L665.9,742.6 L667.8,742.5 L669.8,742.4
		L671.7,742.4 L673.7,742.3 L675.6,742.2 L677.6,742.2 L679.6,742.1 L681.5,742.0 L683.5,742.0 L685.4,741.9
		L687.4,741.8 L689.3,741.8 L691.3,741.7 L693.2,741.6 L695.2,741.6 L697.1,741.5 L699.1,741.5 L701.0,741.4
		L703.0,741.3 L705.0,741.3 L706.9,741.2 L708.9,741.1 L710.8,741.1 L712.8,741.0 L714.7,741.0 L716.7,740.9
		L718.6,740.8 L720.6,740.8 L722.5,740.7 L724.5,740.6 L726.5,740.6 L728.4,740.5 L730.4,740.5 L732.3,740.4
		L734.3,740.4 L736.2,740.3 L738.2,740.2 L740.1,740.2 L742.1,740.1 L744.0,740.1 L746.0,740.0 L748.0,740.0
		L749.9,739.9 L751.9,739.9 L753.8,739.8 L755.8,739.8 L757.7,739.7 L759.7,739.7 L761.6,739.6 L763.6,739.5
		L765.5,739.5 L767.5,739.4 L769.5,739.4 L771.4,739.3 L773.4,739.3 L775.3,739.2 L777.3,739.2 L779.2,739.1
		L781.2,739.1 L783.1,739.1 L785.1,739.0 L787.0,738.9 L789.0,738.9 L791.0,738.9 L792.9,738.8 L794.9,738.8
		L796.8,738.7 L798.8,738.7 L800.7,738.6 L802.7,738.6 L804.6,738.5 L806.6,738.5 L808.5,738.4 L810.5,738.4
		L812.5,738.4 L814.4,738.3 L816.4,738.3 L818.3,738.2 L820.3,738.2 L822.2,738.1 L824.2,738.1 L826.1,738.1
		L828.1,738.0 L830.0,738.0 L832.0,738.0 L834.0,737.9 L835.9,737.9 L837.9,737.8 L839.8,737.8 L841.8,737.8
		L843.7,737.7 L845.7,737.7 L847.6,737.7 L849.6,737.6 L851.5,737.6 L853.5,737.5 L855.5,737.5 L857.4,737.5
		L859.4,737.5 L861.3,737.4 L863.3,737.4 L865.2,737.3 L867.2,737.3 L869.1,737.3 L871.1,737.3 L873.0,737.2
		L875.0,737.2 L876.9,737.2 L878.9,737.1 L880.9,737.1 L882.8,737.1 L884.8,737.0 L886.7,737.0 L888.7,737.0
		L890.6,737.0 L892.6,736.9 L894.5,736.9 L896.5,736.9 L898.4,736.9 L900.4,736.8 L902.4,736.8 L904.3,736.8
		L906.3,736.8 L908.2,736.7 L910.2,736.7 L912.1,736.7 L914.1,736.7 L916.0,736.6 L918.0,736.6 L919.9,736.6
		L921.9,736.6 L923.9,736.5 L925.8,736.5 L927.8,736.5 L929.7,736.5 L931.7,736.4 L933.6,736.4 L935.6,736.4
		L937.5,736.4 L939.5,736.4 L941.4,736.3 L943.4,736.3 L945.4,736.3 L947.3,736.3 L949.3,736.3 L951.2,736.2
		L953.2,736.2 L955.1,736.2 L957.1,736.2 L959.0,736.2 L961.0,736.1 L962.9,736.1 L964.9,736.1 L966.9,736.1
		L968.8,736.1 L970.8,736.0 L972.7,736.0 L974.7,736.0 L976.6,736.0 L978.6,736.0 L980.5,736.0 L982.5,735.9
		L984.4,735.9 L986.4,735.9 L988.4,735.9 L990.3,735.9 L992.3,735.9 L994.2,735.8 L996.2,735.8 L998.1,735.8
		L1000.1,735.8 L1002.0,735.8 L1004.0,735.8 L1005.9,735.8 L1007.9,735.7 L1009.9,735.7 L1011.8,735.7 L1013.8,735.7
		L1015.7,735.7 L1017.7,735.7 L1019.6,735.7 L1021.6,735.7 L1023.5,735.6 L1025.5,735.6 L1027.4,735.6 L1029.4,735.6
		L1031.4,735.6 L1033.3,735.6  '/></g>
	</g>
	<g id="gnuplot_plot_3" ><title>3-MeOPhN2+</title>
<g fill="none" color="black" stroke="currentColor" stroke-width="3.00" stroke-linecap="butt" stroke-linejoin="miter">
	<g transform="translate(1253.0,223.1)" stroke="none" fill="black" font-family="Helvetica" font-size="26.00"  text-anchor="end">
		<text><tspan font-family="Helvetica" >3-MeOPhN</tspan><tspan font-family="Helvetica"  font-size="20.8" dy="7.80px">2</tspan><tspan font-family="Helvetica"  dy="-20.80px">+</tspan><tspan font-size="26.0" dy="13.00"></tspan></text>
	</g>
</g>
<g fill="none" color="black" stroke="currentColor" stroke-width="3.00" stroke-linecap="butt" stroke-linejoin="miter">
	<path stroke='rgb(  0, 114, 178)'  d='M1271.2,214.6 L1363.5,214.6 M253.5,222.5 L255.4,242.5 L257.4,257.8 L259.3,267.1 L261.3,287.1 L263.3,304.0
		L265.2,310.7 L267.2,332.3 L269.1,339.2 L271.1,349.2 L273.0,366.2 L275.0,374.0 L276.9,391.7 L278.9,396.9
		L280.8,406.9 L282.8,417.3 L284.8,433.1 L286.7,438.7 L288.7,452.8 L290.6,457.7 L292.6,466.2 L294.5,474.9
		L296.5,483.5 L298.4,494.6 L300.4,500.8 L302.3,508.3 L304.3,515.9 L306.3,523.4 L308.2,530.8 L310.2,537.9
		L312.1,544.9 L314.1,551.7 L316.0,558.3 L318.0,564.8 L319.9,571.1 L321.9,577.2 L323.8,583.2 L325.8,589.1
		L327.8,594.8 L329.7,600.4 L331.7,605.8 L333.6,611.1 L335.6,616.3 L337.5,621.4 L339.5,626.3 L341.4,631.1
		L343.4,635.8 L345.3,640.4 L347.3,645.0 L349.2,649.3 L351.2,653.6 L353.2,657.8 L355.1,661.9 L357.1,665.9
		L359.0,669.8 L361.0,673.6 L362.9,677.3 L364.9,680.9 L366.8,684.4 L368.8,687.8 L370.7,691.1 L372.7,694.3
		L374.7,697.4 L376.6,700.4 L378.6,703.3 L380.5,706.1 L382.5,708.9 L384.4,711.5 L386.4,714.0 L388.3,716.4
		L390.3,718.8 L392.2,721.0 L394.2,723.1 L396.2,725.2 L398.1,727.1 L400.1,729.0 L402.0,730.7 L404.0,732.4
		L405.9,734.0 L407.9,735.5 L409.8,736.9 L411.8,738.2 L413.7,739.4 L415.7,740.5 L417.7,741.6 L419.6,742.6
		L421.6,743.5 L423.5,744.4 L425.5,745.2 L427.4,745.9 L429.4,746.5 L431.3,747.2 L433.3,747.7 L435.2,748.2
		L437.2,748.6 L439.2,748.9 L441.1,749.3 L443.1,749.7 L445.0,749.9 L447.0,750.2 L448.9,750.4 L450.9,750.6
		L452.8,750.7 L454.8,750.8 L456.7,750.9 L458.7,751.0 L460.7,751.0 L462.6,751.0 L464.6,751.1 L466.5,751.1
		L468.5,751.1 L470.4,751.0 L472.4,750.9 L474.3,750.9 L476.3,750.8 L478.2,750.7 L480.2,750.7 L482.2,750.6
		L484.1,750.5 L486.1,750.3 L488.0,750.2 L490.0,750.1 L491.9,750.0 L493.9,749.8 L495.8,749.5 L497.8,749.4
		L499.7,749.3 L501.7,749.1 L503.7,749.0 L505.6,748.8 L507.6,748.7 L509.5,748.6 L511.5,748.5 L513.4,748.3
		L515.4,748.2 L517.3,748.1 L519.3,748.0 L521.2,747.8 L523.2,747.7 L525.1,747.6 L527.1,747.5 L529.1,747.4
		L531.0,747.2 L533.0,747.1 L534.9,747.0 L536.9,746.9 L538.8,746.7 L540.8,746.6 L542.7,746.5 L544.7,746.3
		L546.6,746.2 L548.6,746.1 L550.6,746.1 L552.5,745.9 L554.5,745.8 L556.4,745.7 L558.4,745.5 L560.3,745.4
		L562.3,745.3 L564.2,745.4 L566.2,745.2 L568.1,745.1 L570.1,745.0 L572.1,744.9 L574.0,744.9 L576.0,744.7
		L577.9,744.6 L579.9,744.5 L581.8,744.5 L583.8,744.4 L585.7,744.3 L587.7,744.2 L589.6,744.2 L591.6,744.0
		L593.6,743.9 L595.5,743.9 L597.5,743.8 L599.4,743.7 L601.4,743.6 L603.3,743.6 L605.3,743.5 L607.2,743.4
		L609.2,743.4 L611.1,743.3 L613.1,743.2 L615.1,743.2 L617.0,743.1 L619.0,743.0 L620.9,742.9 L622.9,742.9
		L624.8,742.8 L626.8,742.8 L628.7,742.7 L630.7,742.6 L632.6,742.6 L634.6,742.5 L636.6,742.4 L638.5,742.4
		L640.5,742.3 L642.4,742.2 L644.4,742.2 L646.3,742.1 L648.3,742.1 L650.2,741.4 L652.2,741.4 L654.1,741.3
		L656.1,741.3 L658.1,741.2 L660.0,741.2 L662.0,741.1 L663.9,741.1 L665.9,741.1 L667.8,741.0 L669.8,741.0
		L671.7,740.9 L673.7,740.9 L675.6,740.8 L677.6,740.8 L679.6,740.7 L681.5,740.7 L683.5,740.6 L685.4,740.6
		L687.4,740.6 L689.3,740.5 L691.3,740.5 L693.2,740.4 L695.2,740.4 L697.1,740.3 L699.1,740.3 L701.0,740.2
		L703.0,740.2 L705.0,740.2 L706.9,740.1 L708.9,740.1 L710.8,740.0 L712.8,740.0 L714.7,739.9 L716.7,739.9
		L718.6,739.8 L720.6,739.8 L722.5,739.7 L724.5,739.7 L726.5,739.7 L728.4,739.6 L730.4,739.6 L732.3,739.5
		L734.3,739.5 L736.2,739.5 L738.2,739.4 L740.1,739.4 L742.1,739.3 L744.0,739.3 L746.0,739.2 L748.0,739.2
		L749.9,739.2 L751.9,739.1 L753.8,739.1 L755.8,739.1 L757.7,739.0 L759.7,739.0 L761.6,738.9 L763.6,738.9
		L765.5,738.8 L767.5,738.8 L769.5,738.8 L771.4,738.7 L773.4,738.7 L775.3,738.6 L777.3,738.6 L779.2,738.6
		L781.2,738.5 L783.1,738.5 L785.1,738.4 L787.0,738.4 L789.0,738.4 L791.0,738.3 L792.9,738.3 L794.9,738.3
		L796.8,738.2 L798.8,738.2 L800.7,738.2 L802.7,738.1 L804.6,738.1 L806.6,738.1 L808.5,738.0 L810.5,738.0
		L812.5,737.9 L814.4,737.9 L816.4,737.9 L818.3,737.8 L820.3,737.8 L822.2,737.8 L824.2,737.7 L826.1,737.7
		L828.1,737.7 L830.0,737.6 L832.0,737.6 L834.0,737.6 L835.9,737.5 L837.9,737.5 L839.8,737.5 L841.8,737.4
		L843.7,737.4 L845.7,737.4 L847.6,737.3 L849.6,737.3 L851.5,737.3 L853.5,737.3 L855.5,737.2 L857.4,737.2
		L859.4,737.2 L861.3,737.2 L863.3,737.1 L865.2,737.1 L867.2,737.1 L869.1,737.0 L871.1,737.0 L873.0,737.0
		L875.0,737.0 L876.9,736.9 L878.9,736.9 L880.9,736.9 L882.8,736.9 L884.8,736.9 L886.7,736.8 L888.7,736.8
		L890.6,736.8 L892.6,736.8 L894.5,736.7 L896.5,736.7 L898.4,736.7 L900.4,736.7 L902.4,736.6 L904.3,736.6
		L906.3,736.6 L908.2,736.6 L910.2,736.6 L912.1,736.5 L914.1,736.5 L916.0,736.5 L918.0,736.5 L919.9,736.4
		L921.9,736.4 L923.9,736.4 L925.8,736.4 L927.8,736.4 L929.7,736.3 L931.7,736.3 L933.6,736.3 L935.6,736.3
		L937.5,736.3 L939.5,736.2 L941.4,736.2 L943.4,736.2 L945.4,736.2 L947.3,736.2 L949.3,736.2 L951.2,736.1
		L953.2,736.1 L955.1,736.1 L957.1,736.1 L959.0,736.1 L961.0,736.1 L962.9,736.0 L964.9,736.0 L966.9,736.0
		L968.8,736.0 L970.8,736.0 L972.7,736.0 L974.7,735.9 L976.6,735.9 L978.6,735.9 L980.5,735.9 L982.5,735.9
		L984.4,735.9 L986.4,735.9 L988.4,735.8 L990.3,735.8 L992.3,735.8 L994.2,735.8 L996.2,735.8 L998.1,735.8
		L1000.1,735.8 L1002.0,735.7 L1004.0,735.7 L1005.9,735.7 L1007.9,735.7 L1009.9,735.7 L1011.8,735.7 L1013.8,735.7
		L1015.7,735.6 L1017.7,735.6 L1019.6,735.6 L1021.6,735.6 L1023.5,735.6 L1025.5,735.6 L1027.4,735.6 L1029.4,735.6
		L1031.4,735.5 L1033.3,735.5  '/></g>
	</g>
	<g id="gnuplot_plot_4" ><title>4-MeOPhN2+</title>
<g fill="none" color="black" stroke="currentColor" stroke-width="3.00" stroke-linecap="butt" stroke-linejoin="miter">
	<g transform="translate(1253.0,262.1)" stroke="none" fill="black" font-family="Helvetica" font-size="26.00"  text-anchor="end">
		<text><tspan font-family="Helvetica" >4-MeOPhN</tspan><tspan font-family="Helvetica"  font-size="20.8" dy="7.80px">2</tspan><tspan font-family="Helvetica"  dy="-20.80px">+</tspan><tspan font-size="26.0" dy="13.00"></tspan></text>
	</g>
</g>
<g fill="none" color="black" stroke="currentColor" stroke-width="3.00" stroke-linecap="butt" stroke-linejoin="miter">
	<path stroke='rgb(255,   0, 255)'  d='M1271.2,253.6 L1363.5,253.6 M253.5,182.7 L255.4,180.1 L257.4,190.9 L259.3,213.3 L261.3,226.6 L263.3,236.5
		L265.2,256.7 L267.2,270.8 L269.1,278.8 L271.1,295.6 L273.0,304.7 L275.0,322.9 L276.9,329.4 L278.9,345.8
		L280.8,352.0 L282.8,362.1 L284.8,372.6 L286.7,386.6 L288.7,393.9 L290.6,403.1 L292.6,412.4 L294.5,421.6
		L296.5,430.5 L298.4,442.2 L300.4,448.7 L302.3,456.5 L304.3,464.4 L306.3,472.2 L308.2,479.9 L310.2,487.4
		L312.1,494.7 L314.1,501.8 L316.0,508.8 L318.0,515.7 L319.9,522.3 L321.9,528.8 L323.8,535.2 L325.8,541.4
		L327.8,547.5 L329.7,553.5 L331.7,559.3 L333.6,565.0 L335.6,570.6 L337.5,576.1 L339.5,581.5 L341.4,586.8
		L343.4,592.0 L345.3,597.0 L347.3,602.0 L349.2,606.9 L351.2,611.7 L353.2,616.5 L355.1,621.1 L357.1,625.7
		L359.0,630.1 L361.0,634.5 L362.9,638.8 L364.9,643.1 L366.8,647.2 L368.8,651.3 L370.7,655.3 L372.7,659.2
		L374.7,663.0 L376.6,666.8 L378.6,670.4 L380.5,674.0 L382.5,677.5 L384.4,681.0 L386.4,684.3 L388.3,687.6
		L390.3,690.7 L392.2,693.8 L394.2,696.8 L396.2,699.7 L398.1,702.5 L400.1,705.2 L402.0,707.8 L404.0,710.3
		L405.9,712.7 L407.9,715.1 L409.8,717.3 L411.8,719.4 L413.7,721.5 L415.7,723.4 L417.7,725.3 L419.6,727.0
		L421.6,728.7 L423.5,730.3 L425.5,731.8 L427.4,733.1 L429.4,734.5 L431.3,735.7 L433.3,736.9 L435.2,738.0
		L437.2,739.0 L439.2,739.9 L441.1,740.8 L443.1,741.6 L445.0,742.4 L447.0,742.9 L448.9,743.7 L450.9,744.3
		L452.8,744.8 L454.8,745.3 L456.7,745.7 L458.7,746.1 L460.7,746.5 L462.6,746.8 L464.6,747.1 L466.5,747.3
		L468.5,747.6 L470.4,747.8 L472.4,747.9 L474.3,748.0 L476.3,748.2 L478.2,748.3 L480.2,748.4 L482.2,748.4
		L484.1,748.5 L486.1,748.4 L488.0,748.5 L490.0,748.5 L491.9,748.6 L493.9,748.6 L495.8,748.5 L497.8,748.5
		L499.7,748.4 L501.7,748.4 L503.7,748.3 L505.6,748.3 L507.6,748.2 L509.5,748.1 L511.5,748.0 L513.4,748.0
		L515.4,747.9 L517.3,747.8 L519.3,747.7 L521.2,747.7 L523.2,747.6 L525.1,747.5 L527.1,747.4 L529.1,747.3
		L531.0,747.2 L533.0,747.1 L534.9,747.0 L536.9,746.9 L538.8,746.8 L540.8,746.7 L542.7,746.6 L544.7,746.5
		L546.6,746.4 L548.6,746.2 L550.6,746.1 L552.5,746.0 L554.5,745.9 L556.4,745.8 L558.4,745.8 L560.3,745.7
		L562.3,745.6 L564.2,745.5 L566.2,745.4 L568.1,745.4 L570.1,745.2 L572.1,745.1 L574.0,745.0 L576.0,745.0
		L577.9,744.9 L579.9,744.8 L581.8,744.7 L583.8,744.7 L585.7,744.5 L587.7,744.4 L589.6,744.4 L591.6,744.3
		L593.6,744.2 L595.5,744.1 L597.5,744.0 L599.4,744.0 L601.4,743.9 L603.3,743.8 L605.3,743.8 L607.2,743.7
		L609.2,743.6 L611.1,743.6 L613.1,743.5 L615.1,743.4 L617.0,743.3 L619.0,743.3 L620.9,743.2 L622.9,743.1
		L624.8,743.1 L626.8,743.0 L628.7,742.9 L630.7,742.9 L632.6,742.8 L634.6,742.8 L636.6,742.7 L638.5,742.6
		L640.5,742.6 L642.4,742.5 L644.4,742.4 L646.3,742.4 L648.3,742.3 L650.2,742.3 L652.2,742.2 L654.1,742.2
		L656.1,742.1 L658.1,742.1 L660.0,742.0 L662.0,741.9 L663.9,741.9 L665.9,741.9 L667.8,741.8 L669.8,741.8
		L671.7,741.7 L673.7,741.6 L675.6,741.6 L677.6,741.5 L679.6,741.5 L681.5,741.4 L683.5,741.4 L685.4,741.3
		L687.4,741.3 L689.3,741.2 L691.3,741.2 L693.2,741.1 L695.2,741.1 L697.1,741.0 L699.1,741.0 L701.0,740.9
		L703.0,740.9 L705.0,740.8 L706.9,740.8 L708.9,740.7 L710.8,740.7 L712.8,740.6 L714.7,740.6 L716.7,740.5
		L718.6,740.5 L720.6,740.4 L722.5,740.4 L724.5,740.3 L726.5,740.3 L728.4,740.2 L730.4,740.2 L732.3,740.1
		L734.3,740.1 L736.2,740.0 L738.2,740.0 L740.1,739.9 L742.1,739.9 L744.0,739.8 L746.0,739.8 L748.0,739.8
		L749.9,739.7 L751.9,739.7 L753.8,739.6 L755.8,739.6 L757.7,739.5 L759.7,739.5 L761.6,739.4 L763.6,739.4
		L765.5,739.3 L767.5,739.3 L769.5,739.2 L771.4,739.2 L773.4,739.2 L775.3,739.1 L777.3,739.1 L779.2,739.0
		L781.2,739.0 L783.1,738.9 L785.1,738.9 L787.0,738.9 L789.0,738.8 L791.0,738.8 L792.9,738.7 L794.9,738.7
		L796.8,738.6 L798.8,738.6 L800.7,738.6 L802.7,738.5 L804.6,738.5 L806.6,738.4 L808.5,738.4 L810.5,738.4
		L812.5,738.3 L814.4,738.3 L816.4,738.2 L818.3,738.2 L820.3,738.2 L822.2,738.1 L824.2,738.1 L826.1,738.1
		L828.1,738.0 L830.0,738.0 L832.0,737.9 L834.0,737.9 L835.9,737.9 L837.9,737.8 L839.8,737.8 L841.8,737.8
		L843.7,737.7 L845.7,737.7 L847.6,737.7 L849.6,737.6 L851.5,737.6 L853.5,737.6 L855.5,737.5 L857.4,737.5
		L859.4,737.5 L861.3,737.4 L863.3,737.4 L865.2,737.4 L867.2,737.3 L869.1,737.3 L871.1,737.3 L873.0,737.3
		L875.0,737.2 L876.9,737.2 L878.9,737.2 L880.9,737.2 L882.8,737.1 L884.8,737.1 L886.7,737.1 L888.7,737.0
		L890.6,737.0 L892.6,737.0 L894.5,737.0 L896.5,737.0 L898.4,736.9 L900.4,736.9 L902.4,736.9 L904.3,736.9
		L906.3,736.8 L908.2,736.8 L910.2,736.8 L912.1,736.8 L914.1,736.7 L916.0,736.7 L918.0,736.7 L919.9,736.7
		L921.9,736.7 L923.9,736.6 L925.8,736.6 L927.8,736.6 L929.7,736.6 L931.7,736.5 L933.6,736.5 L935.6,736.5
		L937.5,736.5 L939.5,736.5 L941.4,736.4 L943.4,736.4 L945.4,736.4 L947.3,736.4 L949.3,736.4 L951.2,736.3
		L953.2,736.3 L955.1,736.3 L957.1,736.3 L959.0,736.3 L961.0,736.2 L962.9,736.2 L964.9,736.2 L966.9,736.2
		L968.8,736.2 L970.8,736.2 L972.7,736.1 L974.7,736.1 L976.6,736.1 L978.6,736.1 L980.5,736.1 L982.5,736.1
		L984.4,736.0 L986.4,736.0 L988.4,736.0 L990.3,736.0 L992.3,736.0 L994.2,736.0 L996.2,736.0 L998.1,735.9
		L1000.1,735.9 L1002.0,735.9 L1004.0,735.9 L1005.9,735.9 L1007.9,735.9 L1009.9,735.9 L1011.8,735.8 L1013.8,735.8
		L1015.7,735.8 L1017.7,735.8 L1019.6,735.8 L1021.6,735.8 L1023.5,735.8 L1025.5,735.7 L1027.4,735.7 L1029.4,735.7
		L1031.4,735.7 L1033.3,735.7  '/></g>
	</g>
<g fill="none" color="white" stroke="rgb(255,   0, 255)" stroke-width="2.00" stroke-linecap="butt" stroke-linejoin="miter">
</g>
<g fill="none" color="black" stroke="currentColor" stroke-width="2.00" stroke-linecap="butt" stroke-linejoin="miter">
</g>
<g fill="none" color="black" stroke="black" stroke-width="1.00" stroke-linecap="butt" stroke-linejoin="miter">
</g>
<g fill="none" color="black" stroke="currentColor" stroke-width="1.00" stroke-linecap="butt" stroke-linejoin="miter">
	<path stroke='black'  d='M175.5,117.1 L175.5,775.2 L1052.8,775.2 L1052.8,117.1 L175.5,117.1 Z  '/></g>
<g fill="none" color="black" stroke="currentColor" stroke-width="1.00" stroke-linecap="butt" stroke-linejoin="miter">
</g>
</g>
</svg>

