<?xml version="1.0" encoding="utf-8"  standalone="no"?>
<!DOCTYPE svg PUBLIC "-//W3C//DTD SVG 1.1//EN"
 "http://www.w3.org/Graphics/SVG/1.1/DTD/svg11.dtd">
<svg 
 width="1400" height="900"
 viewBox="0 0 1400 900"
 xmlns="http://www.w3.org/2000/svg"
 xmlns:xlink="http://www.w3.org/1999/xlink"
>

<title>Gnuplot</title>
<desc>Produced by GNUPLOT 5.0 patchlevel 5 </desc>

<g id="gnuplot_canvas">

<rect x="0" y="0" width="1400" height="900" fill="none"/>
<defs>

	<circle id='gpDot' r='0.5' stroke-width='0.5'/>
	<path id='gpPt0' stroke-width='0.103' stroke='currentColor' d='M-1,0 h2 M0,-1 v2'/>
	<path id='gpPt1' stroke-width='0.103' stroke='currentColor' d='M-1,-1 L1,1 M1,-1 L-1,1'/>
	<path id='gpPt2' stroke-width='0.103' stroke='currentColor' d='M-1,0 L1,0 M0,-1 L0,1 M-1,-1 L1,1 M-1,1 L1,-1'/>
	<rect id='gpPt3' stroke-width='0.103' stroke='currentColor' x='-1' y='-1' width='2' height='2'/>
	<rect id='gpPt4' stroke-width='0.103' stroke='currentColor' fill='currentColor' x='-1' y='-1' width='2' height='2'/>
	<circle id='gpPt5' stroke-width='0.103' stroke='currentColor' cx='0' cy='0' r='1'/>
	<use xlink:href='#gpPt5' id='gpPt6' fill='currentColor' stroke='none'/>
	<path id='gpPt7' stroke-width='0.103' stroke='currentColor' d='M0,-1.33 L-1.33,0.67 L1.33,0.67 z'/>
	<use xlink:href='#gpPt7' id='gpPt8' fill='currentColor' stroke='none'/>
	<use xlink:href='#gpPt7' id='gpPt9' stroke='currentColor' transform='rotate(180)'/>
	<use xlink:href='#gpPt9' id='gpPt10' fill='currentColor' stroke='none'/>
	<use xlink:href='#gpPt3' id='gpPt11' stroke='currentColor' transform='rotate(45)'/>
	<use xlink:href='#gpPt11' id='gpPt12' fill='currentColor' stroke='none'/>
	<path id='gpPt13' stroke-width='0.103' stroke='currentColor' d='M0,1.330 L1.265,0.411 L0.782,-1.067 L-0.782,-1.076 L-1.265,0.411 z'/>
	<use xlink:href='#gpPt13' id='gpPt14' fill='currentColor' stroke='none'/>
	<filter id='textbox' filterUnits='objectBoundingBox' x='0' y='0' height='1' width='1'>
	  <feFlood flood-color='white' flood-opacity='1' result='bgnd'/>
	  <feComposite in='SourceGraphic' in2='bgnd' operator='atop'/>
	</filter>
	<filter id='greybox' filterUnits='objectBoundingBox' x='0' y='0' height='1' width='1'>
	  <feFlood flood-color='lightgrey' flood-opacity='1' result='grey'/>
	  <feComposite in='SourceGraphic' in2='grey' operator='atop'/>
	</filter>
</defs>
<g fill="none" color="white" stroke="black" stroke-width="1.00" stroke-linecap="butt" stroke-linejoin="miter">
</g>
<g fill="none" color="black" stroke="currentColor" stroke-width="1.00" stroke-linecap="butt" stroke-linejoin="miter">
	<path stroke='black'  d='M157.3,775.2 L176.8,775.2 M1052.8,775.2 L1033.3,775.2  '/>	<g transform="translate(139.1,783.7)" stroke="none" fill="black" font-family="Helvetica" font-size="26.00"  text-anchor="end">
		<text><tspan font-family="Helvetica" > 0</tspan></text>
	</g>
</g>
<g fill="none" color="black" stroke="currentColor" stroke-width="1.00" stroke-linecap="butt" stroke-linejoin="miter">
	<path stroke='black'  d='M157.3,709.4 L176.8,709.4 M1052.8,709.4 L1033.3,709.4  '/>	<g transform="translate(139.1,717.9)" stroke="none" fill="black" font-family="Helvetica" font-size="26.00"  text-anchor="end">
		<text><tspan font-family="Helvetica" > 0.1</tspan></text>
	</g>
</g>
<g fill="none" color="black" stroke="currentColor" stroke-width="1.00" stroke-linecap="butt" stroke-linejoin="miter">
	<path stroke='black'  d='M157.3,643.6 L176.8,643.6 M1052.8,643.6 L1033.3,643.6  '/>	<g transform="translate(139.1,652.1)" stroke="none" fill="black" font-family="Helvetica" font-size="26.00"  text-anchor="end">
		<text><tspan font-family="Helvetica" > 0.2</tspan></text>
	</g>
</g>
<g fill="none" color="black" stroke="currentColor" stroke-width="1.00" stroke-linecap="butt" stroke-linejoin="miter">
	<path stroke='black'  d='M157.3,577.8 L176.8,577.8 M1052.8,577.8 L1033.3,577.8  '/>	<g transform="translate(139.1,586.3)" stroke="none" fill="black" font-family="Helvetica" font-size="26.00"  text-anchor="end">
		<text><tspan font-family="Helvetica" > 0.3</tspan></text>
	</g>
</g>
<g fill="none" color="black" stroke="currentColor" stroke-width="1.00" stroke-linecap="butt" stroke-linejoin="miter">
	<path stroke='black'  d='M157.3,512.0 L176.8,512.0 M1052.8,512.0 L1033.3,512.0  '/>	<g transform="translate(139.1,520.5)" stroke="none" fill="black" font-family="Helvetica" font-size="26.00"  text-anchor="end">
		<text><tspan font-family="Helvetica" > 0.4</tspan></text>
	</g>
</g>
<g fill="none" color="black" stroke="currentColor" stroke-width="1.00" stroke-linecap="butt" stroke-linejoin="miter">
	<path stroke='black'  d='M157.3,446.1 L176.8,446.1 M1052.8,446.1 L1033.3,446.1  '/>	<g transform="translate(139.1,454.6)" stroke="none" fill="black" font-family="Helvetica" font-size="26.00"  text-anchor="end">
		<text><tspan font-family="Helvetica" > 0.5</tspan></text>
	</g>
</g>
<g fill="none" color="black" stroke="currentColor" stroke-width="1.00" stroke-linecap="butt" stroke-linejoin="miter">
	<path stroke='black'  d='M157.3,380.3 L176.8,380.3 M1052.8,380.3 L1033.3,380.3  '/>	<g transform="translate(139.1,388.8)" stroke="none" fill="black" font-family="Helvetica" font-size="26.00"  text-anchor="end">
		<text><tspan font-family="Helvetica" > 0.6</tspan></text>
	</g>
</g>
<g fill="none" color="black" stroke="currentColor" stroke-width="1.00" stroke-linecap="butt" stroke-linejoin="miter">
	<path stroke='black'  d='M157.3,314.5 L176.8,314.5 M1052.8,314.5 L1033.3,314.5  '/>	<g transform="translate(139.1,323.0)" stroke="none" fill="black" font-family="Helvetica" font-size="26.00"  text-anchor="end">
		<text><tspan font-family="Helvetica" > 0.7</tspan></text>
	</g>
</g>
<g fill="none" color="black" stroke="currentColor" stroke-width="1.00" stroke-linecap="butt" stroke-linejoin="miter">
	<path stroke='black'  d='M157.3,248.7 L176.8,248.7 M1052.8,248.7 L1033.3,248.7  '/>	<g transform="translate(139.1,257.2)" stroke="none" fill="black" font-family="Helvetica" font-size="26.00"  text-anchor="end">
		<text><tspan font-family="Helvetica" > 0.8</tspan></text>
	</g>
</g>
<g fill="none" color="black" stroke="currentColor" stroke-width="1.00" stroke-linecap="butt" stroke-linejoin="miter">
	<path stroke='black'  d='M157.3,182.9 L176.8,182.9 M1052.8,182.9 L1033.3,182.9  '/>	<g transform="translate(139.1,191.4)" stroke="none" fill="black" font-family="Helvetica" font-size="26.00"  text-anchor="end">
		<text><tspan font-family="Helvetica" > 0.9</tspan></text>
	</g>
</g>
<g fill="none" color="black" stroke="currentColor" stroke-width="1.00" stroke-linecap="butt" stroke-linejoin="miter">
	<path stroke='black'  d='M157.3,117.1 L176.8,117.1 M1052.8,117.1 L1033.3,117.1  '/>	<g transform="translate(139.1,125.6)" stroke="none" fill="black" font-family="Helvetica" font-size="26.00"  text-anchor="end">
		<text><tspan font-family="Helvetica" > 1</tspan></text>
	</g>
</g>
<g fill="none" color="black" stroke="currentColor" stroke-width="1.00" stroke-linecap="butt" stroke-linejoin="miter">
	<path stroke='black'  d='M157.3,775.2 L157.3,755.7 M157.3,117.1 L157.3,136.6  '/>	<g transform="translate(157.3,822.7)" stroke="none" fill="black" font-family="Helvetica" font-size="26.00"  text-anchor="middle">
		<text><tspan font-family="Helvetica" > 0.5</tspan></text>
	</g>
</g>
<g fill="none" color="black" stroke="currentColor" stroke-width="1.00" stroke-linecap="butt" stroke-linejoin="miter">
	<path stroke='black'  d='M256.8,775.2 L256.8,755.7 M256.8,117.1 L256.8,136.6  '/>	<g transform="translate(256.8,822.7)" stroke="none" fill="black" font-family="Helvetica" font-size="26.00"  text-anchor="middle">
		<text><tspan font-family="Helvetica" > 1</tspan></text>
	</g>
</g>
<g fill="none" color="black" stroke="currentColor" stroke-width="1.00" stroke-linecap="butt" stroke-linejoin="miter">
	<path stroke='black'  d='M356.3,775.2 L356.3,755.7 M356.3,117.1 L356.3,136.6  '/>	<g transform="translate(356.3,822.7)" stroke="none" fill="black" font-family="Helvetica" font-size="26.00"  text-anchor="middle">
		<text><tspan font-family="Helvetica" > 1.5</tspan></text>
	</g>
</g>
<g fill="none" color="black" stroke="currentColor" stroke-width="1.00" stroke-linecap="butt" stroke-linejoin="miter">
	<path stroke='black'  d='M455.8,775.2 L455.8,755.7 M455.8,117.1 L455.8,136.6  '/>	<g transform="translate(455.8,822.7)" stroke="none" fill="black" font-family="Helvetica" font-size="26.00"  text-anchor="middle">
		<text><tspan font-family="Helvetica" > 2</tspan></text>
	</g>
</g>
<g fill="none" color="black" stroke="currentColor" stroke-width="1.00" stroke-linecap="butt" stroke-linejoin="miter">
	<path stroke='black'  d='M555.3,775.2 L555.3,755.7 M555.3,117.1 L555.3,136.6  '/>	<g transform="translate(555.3,822.7)" stroke="none" fill="black" font-family="Helvetica" font-size="26.00"  text-anchor="middle">
		<text><tspan font-family="Helvetica" > 2.5</tspan></text>
	</g>
</g>
<g fill="none" color="black" stroke="currentColor" stroke-width="1.00" stroke-linecap="butt" stroke-linejoin="miter">
	<path stroke='black'  d='M654.8,775.2 L654.8,755.7 M654.8,117.1 L654.8,136.6  '/>	<g transform="translate(654.8,822.7)" stroke="none" fill="black" font-family="Helvetica" font-size="26.00"  text-anchor="middle">
		<text><tspan font-family="Helvetica" > 3</tspan></text>
	</g>
</g>
<g fill="none" color="black" stroke="currentColor" stroke-width="1.00" stroke-linecap="butt" stroke-linejoin="miter">
	<path stroke='black'  d='M754.3,775.2 L754.3,755.7 M754.3,117.1 L754.3,136.6  '/>	<g transform="translate(754.3,822.7)" stroke="none" fill="black" font-family="Helvetica" font-size="26.00"  text-anchor="middle">
		<text><tspan font-family="Helvetica" > 3.5</tspan></text>
	</g>
</g>
<g fill="none" color="black" stroke="currentColor" stroke-width="1.00" stroke-linecap="butt" stroke-linejoin="miter">
	<path stroke='black'  d='M853.8,775.2 L853.8,755.7 M853.8,117.1 L853.8,136.6  '/>	<g transform="translate(853.8,822.7)" stroke="none" fill="black" font-family="Helvetica" font-size="26.00"  text-anchor="middle">
		<text><tspan font-family="Helvetica" > 4</tspan></text>
	</g>
</g>
<g fill="none" color="black" stroke="currentColor" stroke-width="1.00" stroke-linecap="butt" stroke-linejoin="miter">
	<path stroke='black'  d='M953.3,775.2 L953.3,755.7 M953.3,117.1 L953.3,136.6  '/>	<g transform="translate(953.3,822.7)" stroke="none" fill="black" font-family="Helvetica" font-size="26.00"  text-anchor="middle">
		<text><tspan font-family="Helvetica" > 4.5</tspan></text>
	</g>
</g>
<g fill="none" color="black" stroke="currentColor" stroke-width="1.00" stroke-linecap="butt" stroke-linejoin="miter">
	<path stroke='black'  d='M1052.8,775.2 L1052.8,755.7 M1052.8,117.1 L1052.8,136.6  '/>	<g transform="translate(1052.8,822.7)" stroke="none" fill="black" font-family="Helvetica" font-size="26.00"  text-anchor="middle">
		<text><tspan font-family="Helvetica" > 5</tspan></text>
	</g>
</g>
<g fill="none" color="black" stroke="currentColor" stroke-width="1.00" stroke-linecap="butt" stroke-linejoin="miter">
</g>
<g fill="none" color="black" stroke="currentColor" stroke-width="1.00" stroke-linecap="butt" stroke-linejoin="miter">
	<path stroke='black'  d='M157.3,117.1 L157.3,775.2 L1052.8,775.2 L1052.8,117.1 L157.3,117.1 Z  '/></g>
<g fill="none" color="black" stroke="currentColor" stroke-width="1.00" stroke-linecap="butt" stroke-linejoin="miter">
	<g transform="translate(37.0,446.2) rotate(270)" stroke="none" fill="black" font-family="Helvetica-Bold" font-size="26.00"  text-anchor="middle">
		<text><tspan font-family="Helvetica-Bold" >Charge N1</tspan></text>
	</g>
</g>
<g fill="none" color="black" stroke="currentColor" stroke-width="1.00" stroke-linecap="butt" stroke-linejoin="miter">
	<g transform="translate(605.0,881.2)" stroke="none" fill="black" font-family="Helvetica-Bold" font-size="26.00"  text-anchor="middle">
		<text><tspan font-family="Helvetica-Bold" >d(C1-N1), A</tspan></text>
	</g>
</g>
<g fill="none" color="black" stroke="currentColor" stroke-width="1.00" stroke-linecap="butt" stroke-linejoin="miter">
	<g transform="translate(605.0,67.1)" stroke="none" fill="black" font-family="Helvetica" font-size="26.00"  text-anchor="middle">
		<text><tspan font-family="Helvetica"  font-weight="bold" >Mulliken charges for MeOPhN</tspan><tspan font-family="Helvetica"  font-weight="bold"  font-size="20.8" dy="7.80px">2</tspan><tspan font-family="Helvetica"  font-weight="bold"  dy="-20.80px">+</tspan><tspan font-size="26.0" dy="13.00"></tspan></text>
	</g>
</g>
<g fill="none" color="black" stroke="black" stroke-width="0.20" stroke-linecap="butt" stroke-linejoin="miter">
</g>
<g fill="none" color="black" stroke="currentColor" stroke-width="0.20" stroke-linecap="butt" stroke-linejoin="miter">
	<path stroke='black'  d='M1089.2,273.1 L1089.2,117.1 L1381.7,117.1 L1381.7,273.1 L1089.2,273.1 Z  '/></g>
	<g id="gnuplot_plot_1" ><title>PhN2+</title>
<g fill="none" color="white" stroke="black" stroke-width="2.70" stroke-linecap="butt" stroke-linejoin="miter">
</g>
<g fill="none" color="black" stroke="currentColor" stroke-width="2.70" stroke-linecap="butt" stroke-linejoin="miter">
	<g transform="translate(1253.0,145.1)" stroke="none" fill="black" font-family="Helvetica" font-size="26.00"  text-anchor="end">
		<text><tspan font-family="Helvetica" >PhN</tspan><tspan font-family="Helvetica"  font-size="20.8" dy="7.80px">2</tspan><tspan font-family="Helvetica"  dy="-20.80px">+</tspan><tspan font-size="26.0" dy="13.00"></tspan></text>
	</g>
</g>
<g fill="none" color="black" stroke="currentColor" stroke-width="2.70" stroke-linecap="butt" stroke-linejoin="miter">
	<path stroke='rgb(255,   0,   0)'  d='M1271.2,136.6 L1363.5,136.6 M236.9,202.1 L238.9,248.3 L240.9,282.3 L242.9,317.8 L244.9,348.2 L246.9,375.4
		L248.9,403.6 L250.9,429.2 L252.9,451.0 L254.9,473.7 L256.8,492.0 L258.8,511.5 L260.8,525.9 L262.8,539.7
		L264.8,550.9 L266.8,561.3 L268.8,569.9 L270.8,579.5 L272.8,583.7 L274.8,588.3 L276.8,591.4 L278.8,594.8
		L280.8,594.5 L282.8,594.6 L284.8,593.7 L286.8,592.2 L288.8,590.1 L290.8,587.2 L292.8,583.8 L294.8,580.1
		L296.7,576.2 L298.7,571.9 L300.7,567.8 L302.7,563.6 L304.7,559.1 L306.7,554.7 L308.7,550.0 L310.7,545.5
		L312.7,541.4 L314.7,537.1 L316.7,533.0 L318.7,528.9 L320.7,525.1 L322.7,521.4 L324.7,517.9 L326.7,514.7
		L328.7,511.5 L330.7,508.5 L332.7,505.8 L334.7,503.1 L336.6,500.8 L338.6,498.5 L340.6,496.5 L342.6,494.3
		L344.6,492.5 L346.6,490.8 L348.6,489.3 L350.6,487.8 L352.6,486.6 L354.6,485.4 L356.6,484.4 L358.6,483.5
		L360.6,482.6 L362.6,482.0 L364.6,481.2 L366.6,480.9 L368.6,480.5 L370.6,480.4 L372.6,480.2 L374.6,480.2
		L376.5,480.3 L378.5,480.6 L380.5,480.8 L382.5,481.2 L384.5,481.7 L386.5,482.3 L388.5,483.0 L390.5,483.8
		L392.5,484.6 L394.5,485.7 L396.5,486.8 L398.5,487.9 L400.5,489.3 L402.5,490.7 L404.5,492.1 L406.5,493.7
		L408.5,495.4 L410.5,497.2 L412.5,499.1 L414.5,501.0 L416.4,503.1 L418.4,505.3 L420.4,507.5 L422.4,509.8
		L424.4,512.1 L426.4,514.5 L428.4,517.0 L430.4,519.5 L432.4,522.1 L434.4,524.7 L436.4,527.4 L438.4,530.1
		L440.4,532.9 L442.4,535.7 L444.4,538.5 L446.4,541.4 L448.4,544.2 L450.4,547.1 L452.4,550.1 L454.4,553.0
		L456.3,555.9 L458.3,558.8 L460.3,561.7 L462.3,564.7 L464.3,567.6 L466.3,570.6 L468.3,573.6 L470.3,576.5
		L472.3,579.4 L474.3,582.3 L476.3,585.2 L478.3,588.1 L480.3,591.0 L482.3,593.8 L484.3,596.7 L486.3,599.4
		L488.3,602.3 L490.3,604.9 L492.3,607.7 L494.3,610.5 L496.2,613.2 L498.2,615.8 L500.2,618.4 L502.2,621.1
		L504.2,623.7 L506.2,626.2 L508.2,628.8 L510.2,631.3 L512.2,633.8 L514.2,636.2 L516.2,638.6 L518.2,641.0
		L520.2,643.4 L522.2,645.7 L524.2,648.1 L526.2,650.2 L528.2,652.5 L530.2,654.7 L532.2,656.8 L534.2,658.9
		L536.1,661.0 L538.1,663.1 L540.1,665.1 L542.1,667.1 L544.1,669.1 L546.1,671.1 L548.1,673.1 L550.1,674.8
		L552.1,676.7 L554.1,678.5 L556.1,680.3 L558.1,682.2 L560.1,683.8 L562.1,685.5 L564.1,687.1 L566.1,688.9
		L568.1,690.3 L570.1,691.9 L572.1,693.4 L574.1,695.0 L576.0,696.2 L578.0,697.7 L580.0,699.1 L582.0,700.6
		L584.0,701.7 L586.0,703.0 L588.0,704.3 L590.0,705.5 L592.0,706.6 L594.0,707.7 L596.0,709.0 L598.0,709.9
		L600.0,711.0 L602.0,712.1 L604.0,713.0 L606.0,714.0 L608.0,715.1 L610.0,715.7 L612.0,716.7 L614.0,717.7
		L615.9,718.1 L617.9,719.1 L619.9,719.9 L621.9,720.6 L623.9,721.3 L625.9,722.2 L627.9,722.6 L629.9,723.3
		L631.9,724.1 L633.9,724.3 L635.9,725.1 L637.9,725.8 L639.9,725.9 L641.9,726.6 L643.9,727.2 L645.9,727.4
		L647.9,727.9 L649.9,728.6 L651.9,728.8 L653.9,729.3 L655.8,729.8 L657.8,730.0 L659.8,730.4 L661.8,730.9
		L663.8,731.0 L665.8,731.2 L667.8,731.8 L669.8,731.9 L671.8,732.2 L673.8,732.6 L675.8,732.7 L677.8,732.9
		L679.8,733.4 L681.8,733.4 L683.8,733.7 L685.8,734.1 L687.8,734.0 L689.8,734.2 L691.8,734.5 L693.8,734.7
		L695.7,734.7 L697.7,735.1 L699.7,735.1 L701.7,735.1 L703.7,735.5 L705.7,735.5 L707.7,735.5 L709.7,735.9
		L711.7,735.8 L713.7,735.8 L715.7,736.2 L717.7,736.0 L719.7,736.2 L721.7,736.4 L723.7,736.4 L725.7,736.4
		L727.7,736.8 L729.7,736.6 L731.7,736.7 L733.7,737.0 L735.6,737.0 L737.6,736.9 L739.6,737.2 L741.6,737.1
		L743.6,737.4 L745.6,737.2 L747.6,737.4 L749.6,737.3 L751.6,737.4 L753.6,737.3 L755.6,737.5 L757.6,737.4
		L759.6,737.6 L761.6,737.4 L763.6,737.6 L765.6,737.6 L767.6,737.8 L769.6,737.6 L771.6,737.7 L773.6,737.6
		L775.5,737.8 L777.5,737.7 L779.5,737.8 L781.5,737.7 L783.5,737.9 L785.5,737.8 L787.5,738.0 L789.5,737.8
		L791.5,738.0 L793.5,737.8 L795.5,738.0 L797.5,737.9 L799.5,738.0 L801.5,737.8 L803.5,738.0 L805.5,737.9
		L807.5,738.1 L809.5,737.9 L811.5,738.1 L813.5,738.0 L815.4,738.1 L817.4,738.0 L819.4,738.1 L821.4,738.0
		L823.4,738.1 L825.4,738.0 L827.4,738.1 L829.4,738.1 L831.4,738.1 L833.4,738.1 L835.4,738.1 L837.4,738.0
		L839.4,738.1 L841.4,738.0 L843.4,738.1 L845.4,738.0 L847.4,738.1 L849.4,738.0 L851.4,738.1 L853.4,738.0
		L855.3,738.1 L857.3,738.0 L859.3,738.0 L861.3,738.0 L863.3,738.0 L865.3,738.0 L867.3,738.0 L869.3,738.0
		L871.3,738.0 L873.3,738.0 L875.3,738.0 L877.3,738.0 L879.3,738.0 L881.3,738.0 L883.3,737.9 L885.3,737.9
		L887.3,737.8 L889.3,737.9 L891.3,737.8 L893.3,737.8 L895.2,737.8 L897.2,737.8 L899.2,737.7 L901.2,737.8
		L903.2,737.7 L905.2,737.7 L907.2,737.6 L909.2,737.6 L911.2,737.6 L913.2,737.6 L915.2,737.5 L917.2,737.4
		L919.2,737.4 L921.2,737.4 L923.2,737.4 L925.2,737.4 L927.2,737.2 L929.2,737.2 L931.2,737.2 L933.2,737.2
		L935.1,737.1 L937.1,737.1 L939.1,737.0 L941.1,737.0 L943.1,736.9 L945.1,736.9 L947.1,736.8 L949.1,736.8
		L951.1,736.8 L953.1,736.8 L955.1,736.7 L957.1,736.7 L959.1,736.6 L961.1,736.6 L963.1,736.5 L965.1,736.5
		L967.1,736.5 L969.1,736.4 L971.1,736.4 L973.1,736.4 L975.0,736.3 L977.0,736.2 L979.0,736.2 L981.0,736.2
		L983.0,736.1 L985.0,736.1 L987.0,736.1 L989.0,736.1 L991.0,736.0 L993.0,736.0 L995.0,735.9 L997.0,736.0
		L999.0,735.8 L1001.0,735.9 L1003.0,735.9 L1005.0,735.9 L1007.0,735.8 L1009.0,735.8 L1011.0,735.8 L1013.0,735.8
		L1014.9,735.8 L1016.9,735.8 L1018.9,735.6 L1020.9,735.8 L1022.9,735.7 L1024.9,735.7 L1026.9,735.6 L1028.9,735.8
		L1030.9,735.6 L1032.9,735.7  '/></g>
	</g>
	<g id="gnuplot_plot_2" ><title>2-MeOPhN2+</title>
<g fill="none" color="black" stroke="currentColor" stroke-width="2.70" stroke-linecap="butt" stroke-linejoin="miter">
	<g transform="translate(1253.0,184.1)" stroke="none" fill="black" font-family="Helvetica" font-size="26.00"  text-anchor="end">
		<text><tspan font-family="Helvetica" >2-MeOPhN</tspan><tspan font-family="Helvetica"  font-size="20.8" dy="7.80px">2</tspan><tspan font-family="Helvetica"  dy="-20.80px">+</tspan><tspan font-size="26.0" dy="13.00"></tspan></text>
	</g>
</g>
<g fill="none" color="black" stroke="currentColor" stroke-width="2.70" stroke-linecap="butt" stroke-linejoin="miter">
	<path stroke='rgb(240, 228,  66)'  d='M1271.2,175.6 L1363.5,175.6 M236.9,198.4 L238.9,233.0 L240.9,262.1 L242.9,287.7 L244.9,317.0 L246.9,339.4
		L248.9,362.6 L250.9,384.4 L252.9,405.0 L254.9,421.7 L256.8,445.3 L258.8,456.0 L260.8,472.1 L262.8,485.4
		L264.8,502.8 L266.8,509.9 L268.8,521.2 L270.8,526.6 L272.8,535.8 L274.8,542.8 L276.8,553.4 L278.8,554.4
		L280.8,557.9 L282.8,562.5 L284.8,565.3 L286.8,566.3 L288.8,571.5 L290.8,569.2 L292.8,568.4 L294.8,567.1
		L296.7,564.1 L298.7,563.9 L300.7,563.0 L302.7,561.3 L304.7,557.7 L306.7,555.7 L308.7,552.1 L310.7,548.4
		L312.7,545.1 L314.7,541.3 L316.7,538.4 L318.7,534.5 L320.7,531.6 L322.7,529.4 L324.7,525.9 L326.7,524.5
		L328.7,521.0 L330.7,518.1 L332.7,516.2 L334.7,513.2 L336.6,511.0 L338.6,509.1 L340.6,507.6 L342.6,505.4
		L344.6,503.7 L346.6,501.8 L348.6,500.2 L350.6,498.1 L352.6,496.4 L354.6,495.1 L356.6,493.5 L358.6,492.1
		L360.6,491.1 L362.6,490.4 L364.6,489.8 L366.6,488.7 L368.6,488.3 L370.6,487.5 L372.6,487.6 L374.6,487.5
		L376.5,487.2 L378.5,487.5 L380.5,487.5 L382.5,487.7 L384.5,487.9 L386.5,488.5 L388.5,489.2 L390.5,489.7
		L392.5,490.4 L394.5,491.4 L396.5,492.4 L398.5,493.4 L400.5,494.8 L402.5,495.9 L404.5,497.4 L406.5,498.9
		L408.5,500.7 L410.5,502.4 L412.5,504.1 L414.5,506.1 L416.4,508.0 L418.4,510.1 L420.4,512.3 L422.4,514.6
		L424.4,516.9 L426.4,519.1 L428.4,521.6 L430.4,524.3 L432.4,526.8 L434.4,529.3 L436.4,532.1 L438.4,534.9
		L440.4,537.6 L442.4,540.3 L444.4,543.2 L446.4,546.0 L448.4,548.8 L450.4,551.6 L452.4,554.5 L454.4,557.3
		L456.3,560.2 L458.3,563.1 L460.3,565.9 L462.3,568.8 L464.3,571.6 L466.3,574.5 L468.3,577.3 L470.3,580.1
		L472.3,582.8 L474.3,585.7 L476.3,588.4 L478.3,591.3 L480.3,593.9 L482.3,596.6 L484.3,599.3 L486.3,602.0
		L488.3,604.6 L490.3,607.1 L492.3,609.7 L494.3,612.2 L496.2,614.7 L498.2,617.2 L500.2,619.7 L502.2,622.2
		L504.2,624.5 L506.2,626.9 L508.2,629.0 L510.2,631.5 L512.2,633.6 L514.2,635.5 L516.2,637.7 L518.2,639.9
		L520.2,641.9 L522.2,644.0 L524.2,646.1 L526.2,648.2 L528.2,650.3 L530.2,652.3 L532.2,654.4 L534.2,656.2
		L536.1,658.3 L538.1,660.1 L540.1,662.0 L542.1,663.8 L544.1,665.7 L546.1,667.6 L548.1,669.3 L550.1,671.2
		L552.1,672.9 L554.1,674.5 L556.1,676.2 L558.1,677.9 L560.1,679.5 L562.1,681.1 L564.1,682.7 L566.1,684.2
		L568.1,685.7 L570.1,687.2 L572.1,689.1 L574.1,690.5 L576.0,691.7 L578.0,692.9 L580.0,694.6 L582.0,695.8
		L584.0,696.9 L586.0,698.1 L588.0,699.7 L590.0,700.8 L592.0,701.8 L594.0,702.8 L596.0,704.3 L598.0,705.2
		L600.0,706.1 L602.0,707.0 L604.0,708.5 L606.0,709.2 L608.0,709.9 L610.0,710.8 L612.0,712.2 L614.0,712.7
		L615.9,713.3 L617.9,714.1 L619.9,715.2 L621.9,715.8 L623.9,716.3 L625.9,716.9 L627.9,718.0 L629.9,718.4
		L631.9,718.8 L633.9,719.5 L635.9,720.0 L637.9,720.4 L639.9,721.3 L641.9,721.5 L643.9,721.8 L645.9,722.4
		L647.9,722.8 L649.9,723.0 L651.9,723.8 L653.9,723.9 L655.8,724.2 L657.8,724.6 L659.8,724.9 L661.8,725.1
		L663.8,725.6 L665.8,725.7 L667.8,725.8 L669.8,726.2 L671.8,726.3 L673.8,726.4 L675.8,726.8 L677.8,726.9
		L679.8,727.0 L681.8,727.2 L683.8,727.2 L685.8,727.2 L687.8,727.6 L689.8,727.6 L691.8,727.6 L693.8,727.8
		L695.7,727.7 L697.7,727.7 L699.7,727.9 L701.7,727.9 L703.7,727.8 L705.7,727.9 L707.7,727.8 L709.7,727.8
		L711.7,728.0 L713.7,728.0 L715.7,727.9 L717.7,728.0 L719.7,727.9 L721.7,727.9 L723.7,728.1 L725.7,728.1
		L727.7,727.9 L729.7,728.1 L731.7,727.9 L733.7,727.9 L735.6,728.2 L737.6,728.1 L739.6,728.1 L741.6,728.2
		L743.6,728.1 L745.6,728.1 L747.6,728.1 L749.6,728.1 L751.6,728.2 L753.6,728.1 L755.6,728.1 L757.6,728.3
		L759.6,728.1 L761.6,728.1 L763.6,728.2 L765.6,728.2 L767.6,728.2 L769.6,728.3 L771.6,728.2 L773.6,728.3
		L775.5,728.3 L777.5,728.3 L779.5,728.3 L781.5,728.5 L783.5,728.4 L785.5,728.5 L787.5,728.6 L789.5,728.5
		L791.5,728.6 L793.5,728.7 L795.5,728.7 L797.5,729.0 L799.5,728.9 L801.5,729.1 L803.5,729.1 L805.5,729.2
		L807.5,729.3 L809.5,729.4 L811.5,729.4 L813.5,729.6 L815.4,729.5 L817.4,729.8 L819.4,729.7 L821.4,730.0
		L823.4,729.9 L825.4,730.1 L827.4,730.1 L829.4,730.3 L831.4,730.3 L833.4,730.4 L835.4,730.5 L837.4,730.7
		L839.4,730.6 L841.4,730.8 L843.4,730.8 L845.4,731.0 L847.4,731.0 L849.4,731.2 L851.4,731.2 L853.4,731.3
		L855.3,731.4 L857.3,731.5 L859.3,731.6 L861.3,731.7 L863.3,731.8 L865.3,731.8 L867.3,731.9 L869.3,732.0
		L871.3,732.0 L873.3,732.2 L875.3,732.2 L877.3,732.3 L879.3,732.4 L881.3,732.5 L883.3,732.6 L885.3,732.6
		L887.3,732.7 L889.3,732.8 L891.3,732.8 L893.3,732.9 L895.2,732.9 L897.2,732.9 L899.2,733.0 L901.2,733.1
		L903.2,733.1 L905.2,733.2 L907.2,733.3 L909.2,733.3 L911.2,733.3 L913.2,733.4 L915.2,733.4 L917.2,733.5
		L919.2,733.5 L921.2,733.5 L923.2,733.5 L925.2,733.6 L927.2,733.6 L929.2,733.6 L931.2,733.7 L933.2,733.7
		L935.1,733.7 L937.1,733.7 L939.1,733.7 L941.1,733.7 L943.1,733.8 L945.1,733.8 L947.1,733.8 L949.1,733.7
		L951.1,733.8 L953.1,733.8 L955.1,733.9 L957.1,733.8 L959.1,733.9 L961.1,733.7 L963.1,733.9 L965.1,733.8
		L967.1,733.8 L969.1,733.8 L971.1,733.8 L973.1,733.8 L975.0,733.8 L977.0,733.7 L979.0,733.8 L981.0,733.8
		L983.0,733.7 L985.0,733.7 L987.0,733.8 L989.0,733.7 L991.0,733.7 L993.0,733.7 L995.0,733.7 L997.0,733.7
		L999.0,733.7 L1001.0,733.7 L1003.0,733.7 L1005.0,733.7 L1007.0,733.7 L1009.0,733.6 L1011.0,733.7 L1013.0,733.6
		L1014.9,733.6 L1016.9,733.6 L1018.9,733.6 L1020.9,733.6 L1022.9,733.6 L1024.9,733.6 L1026.9,733.5 L1028.9,733.6
		L1030.9,733.7 L1032.9,733.6  '/></g>
	</g>
	<g id="gnuplot_plot_3" ><title>3-MeOPhN2+</title>
<g fill="none" color="black" stroke="currentColor" stroke-width="2.70" stroke-linecap="butt" stroke-linejoin="miter">
	<g transform="translate(1253.0,223.1)" stroke="none" fill="black" font-family="Helvetica" font-size="26.00"  text-anchor="end">
		<text><tspan font-family="Helvetica" >3-MeOPhN</tspan><tspan font-family="Helvetica"  font-size="20.8" dy="7.80px">2</tspan><tspan font-family="Helvetica"  dy="-20.80px">+</tspan><tspan font-size="26.0" dy="13.00"></tspan></text>
	</g>
</g>
<g fill="none" color="black" stroke="currentColor" stroke-width="2.70" stroke-linecap="butt" stroke-linejoin="miter">
	<path stroke='rgb(  0, 114, 178)'  d='M1271.2,214.6 L1363.5,214.6 M236.9,163.2 L238.9,198.1 L240.9,233.0 L242.9,264.6 L244.9,295.9 L246.9,324.8
		L248.9,351.8 L250.9,379.3 L252.9,401.9 L254.9,424.2 L256.8,445.9 L258.8,463.9 L260.8,481.2 L262.8,496.3
		L264.8,509.7 L266.8,521.2 L268.8,533.3 L270.8,541.1 L272.8,548.8 L274.8,554.9 L276.8,559.5 L278.8,563.5
		L280.8,565.6 L282.8,567.8 L284.8,566.9 L286.8,566.5 L288.8,565.7 L290.8,563.6 L292.8,561.3 L294.8,558.4
		L296.7,555.1 L298.7,551.6 L300.7,548.1 L302.7,543.9 L304.7,539.7 L306.7,536.0 L308.7,531.8 L310.7,527.7
		L312.7,523.1 L314.7,519.1 L316.7,515.0 L318.7,511.3 L320.7,507.3 L322.7,503.7 L324.7,500.3 L326.7,496.8
		L328.7,493.5 L330.7,490.4 L332.7,487.5 L334.7,484.7 L336.6,482.3 L338.6,479.6 L340.6,477.4 L342.6,475.3
		L344.6,473.1 L346.6,471.2 L348.6,469.4 L350.6,467.7 L352.6,466.3 L354.6,464.9 L356.6,463.5 L358.6,462.5
		L360.6,461.6 L362.6,460.8 L364.6,460.0 L366.6,459.2 L368.6,458.7 L370.6,458.3 L372.6,458.0 L374.6,457.7
		L376.5,457.6 L378.5,457.5 L380.5,457.6 L382.5,457.5 L384.5,457.8 L386.5,458.1 L388.5,458.7 L390.5,459.4
		L392.5,459.8 L394.5,460.6 L396.5,461.7 L398.5,462.5 L400.5,463.6 L402.5,464.8 L404.5,466.3 L406.5,467.7
		L408.5,469.4 L410.5,471.1 L412.5,472.8 L414.5,474.6 L416.4,476.7 L418.4,478.7 L420.4,480.9 L422.4,483.1
		L424.4,485.4 L426.4,487.9 L428.4,490.4 L430.4,492.9 L432.4,495.6 L434.4,498.2 L436.4,501.0 L438.4,503.7
		L440.4,506.7 L442.4,509.5 L444.4,512.5 L446.4,515.5 L448.4,518.5 L450.4,521.6 L452.4,524.7 L454.4,527.9
		L456.3,531.0 L458.3,534.2 L460.3,537.4 L462.3,540.6 L464.3,543.8 L466.3,547.0 L468.3,550.3 L470.3,553.5
		L472.3,556.7 L474.3,559.9 L476.3,563.2 L478.3,566.4 L480.3,569.5 L482.3,572.8 L484.3,576.0 L486.3,579.0
		L488.3,582.1 L490.3,585.2 L492.3,588.4 L494.3,591.3 L496.2,594.3 L498.2,597.3 L500.2,600.3 L502.2,603.3
		L504.2,606.2 L506.2,609.0 L508.2,611.9 L510.2,614.8 L512.2,617.5 L514.2,620.3 L516.2,623.0 L518.2,625.7
		L520.2,628.3 L522.2,631.0 L524.2,633.5 L526.2,636.0 L528.2,638.5 L530.2,640.9 L532.2,643.4 L534.2,646.1
		L536.1,648.4 L538.1,650.8 L540.1,653.3 L542.1,655.4 L544.1,657.6 L546.1,659.8 L548.1,661.9 L550.1,664.0
		L552.1,666.2 L554.1,668.5 L556.1,670.3 L558.1,672.3 L560.1,674.2 L562.1,676.1 L564.1,678.2 L566.1,679.8
		L568.1,681.6 L570.1,683.3 L572.1,685.1 L574.1,686.6 L576.0,688.3 L578.0,689.8 L580.0,691.6 L582.0,692.9
		L584.0,694.3 L586.0,695.7 L588.0,697.3 L590.0,698.4 L592.0,699.8 L594.0,701.2 L596.0,702.3 L598.0,703.5
		L600.0,704.8 L602.0,705.6 L604.0,706.8 L606.0,708.0 L608.0,708.9 L610.0,709.9 L612.0,711.0 L614.0,711.8
		L615.9,712.7 L617.9,713.7 L619.9,714.4 L621.9,715.2 L623.9,716.2 L625.9,716.8 L627.9,717.4 L629.9,718.2
		L631.9,718.8 L633.9,719.5 L635.9,720.0 L637.9,720.6 L639.9,721.0 L641.9,718.1 L643.9,718.6 L645.9,719.1
		L647.9,719.7 L649.9,720.2 L651.9,720.7 L653.9,721.2 L655.8,721.4 L657.8,722.0 L659.8,722.5 L661.8,722.7
		L663.8,723.2 L665.8,723.7 L667.8,723.9 L669.8,724.4 L671.8,724.7 L673.8,724.9 L675.8,725.3 L677.8,725.6
		L679.8,725.8 L681.8,726.3 L683.8,726.6 L685.8,726.7 L687.8,727.0 L689.8,727.2 L691.8,727.4 L693.8,727.8
		L695.7,727.9 L697.7,728.1 L699.7,728.3 L701.7,728.5 L703.7,728.8 L705.7,728.9 L707.7,729.2 L709.7,729.2
		L711.7,729.5 L713.7,729.6 L715.7,729.9 L717.7,729.9 L719.7,730.1 L721.7,730.2 L723.7,730.4 L725.7,730.4
		L727.7,730.7 L729.7,730.7 L731.7,730.9 L733.7,731.0 L735.6,731.2 L737.6,731.2 L739.6,731.4 L741.6,731.4
		L743.6,731.5 L745.6,731.6 L747.6,731.7 L749.6,731.8 L751.6,731.9 L753.6,731.9 L755.6,732.0 L757.6,732.0
		L759.6,732.2 L761.6,732.2 L763.6,732.4 L765.6,732.4 L767.6,732.5 L769.6,732.4 L771.6,732.6 L773.6,732.6
		L775.5,732.8 L777.5,732.7 L779.5,732.8 L781.5,732.8 L783.5,732.9 L785.5,732.9 L787.5,733.1 L789.5,733.0
		L791.5,733.1 L793.5,733.1 L795.5,733.2 L797.5,733.2 L799.5,733.3 L801.5,733.3 L803.5,733.4 L805.5,733.3
		L807.5,733.5 L809.5,733.5 L811.5,733.5 L813.5,733.5 L815.4,733.5 L817.4,733.7 L819.4,733.6 L821.4,733.7
		L823.4,733.6 L825.4,733.7 L827.4,733.7 L829.4,733.7 L831.4,733.7 L833.4,733.7 L835.4,733.7 L837.4,733.8
		L839.4,733.8 L841.4,733.9 L843.4,733.8 L845.4,733.9 L847.4,733.9 L849.4,733.9 L851.4,733.9 L853.4,734.0
		L855.3,733.9 L857.3,734.0 L859.3,733.9 L861.3,734.1 L863.3,733.9 L865.3,734.1 L867.3,733.9 L869.3,734.1
		L871.3,733.9 L873.3,734.1 L875.3,733.9 L877.3,734.1 L879.3,733.9 L881.3,734.1 L883.3,733.9 L885.3,734.1
		L887.3,733.9 L889.3,734.1 L891.3,733.9 L893.3,734.1 L895.2,733.8 L897.2,733.9 L899.2,733.8 L901.2,734.0
		L903.2,733.9 L905.2,733.9 L907.2,733.8 L909.2,733.9 L911.2,733.7 L913.2,733.9 L915.2,733.7 L917.2,733.9
		L919.2,733.7 L921.2,733.8 L923.2,733.7 L925.2,733.8 L927.2,733.7 L929.2,733.8 L931.2,733.7 L933.2,733.7
		L935.1,733.6 L937.1,733.7 L939.1,733.5 L941.1,733.7 L943.1,733.5 L945.1,733.6 L947.1,733.5 L949.1,733.5
		L951.1,733.5 L953.1,733.5 L955.1,733.4 L957.1,733.5 L959.1,733.4 L961.1,733.4 L963.1,733.3 L965.1,733.3
		L967.1,733.3 L969.1,733.3 L971.1,733.3 L973.1,733.3 L975.0,733.3 L977.0,733.3 L979.0,733.2 L981.0,733.3
		L983.0,733.2 L985.0,733.2 L987.0,733.2 L989.0,733.2 L991.0,733.2 L993.0,733.1 L995.0,733.1 L997.0,733.1
		L999.0,733.1 L1001.0,733.1 L1003.0,733.1 L1005.0,733.1 L1007.0,733.1 L1009.0,733.1 L1011.0,733.1 L1013.0,733.1
		L1014.9,733.1 L1016.9,733.1 L1018.9,733.1 L1020.9,733.1 L1022.9,733.1 L1024.9,733.2 L1026.9,733.1 L1028.9,733.2
		L1030.9,733.2 L1032.9,733.3  '/></g>
	</g>
	<g id="gnuplot_plot_4" ><title>4-MeOPhN2+</title>
<g fill="none" color="white" stroke="rgb(  0, 114, 178)" stroke-width="3.00" stroke-linecap="butt" stroke-linejoin="miter">
</g>
<g fill="none" color="black" stroke="currentColor" stroke-width="3.00" stroke-linecap="butt" stroke-linejoin="miter">
	<g transform="translate(1253.0,262.1)" stroke="none" fill="black" font-family="Helvetica" font-size="26.00"  text-anchor="end">
		<text><tspan font-family="Helvetica" >4-MeOPhN</tspan><tspan font-family="Helvetica"  font-size="20.8" dy="7.80px">2</tspan><tspan font-family="Helvetica"  dy="-20.80px">+</tspan><tspan font-size="26.0" dy="13.00"></tspan></text>
	</g>
</g>
<g fill="none" color="black" stroke="currentColor" stroke-width="3.00" stroke-linecap="butt" stroke-linejoin="miter">
	<path stroke='rgb(255,   0, 255)'  d='M1271.2,253.6 L1363.5,253.6 M236.9,198.1 L238.9,212.3 L240.9,246.5 L242.9,277.0 L244.9,305.0 L246.9,333.3
		L248.9,359.3 L250.9,382.2 L252.9,404.4 L254.9,425.0 L256.8,444.4 L258.8,464.1 L260.8,478.7 L262.8,494.0
		L264.8,507.2 L266.8,517.6 L268.8,527.4 L270.8,538.9 L272.8,544.9 L274.8,551.4 L276.8,556.1 L278.8,560.4
		L280.8,562.9 L282.8,567.4 L284.8,567.1 L286.8,567.7 L288.8,566.6 L290.8,565.3 L292.8,563.2 L294.8,560.3
		L296.7,557.4 L298.7,554.4 L300.7,551.2 L302.7,547.1 L304.7,544.7 L306.7,539.8 L308.7,536.4 L310.7,533.0
		L312.7,528.2 L314.7,523.8 L316.7,519.7 L318.7,516.1 L320.7,512.1 L322.7,508.5 L324.7,505.0 L326.7,501.4
		L328.7,498.1 L330.7,495.2 L332.7,492.3 L334.7,489.4 L336.6,486.6 L338.6,484.1 L340.6,481.6 L342.6,479.4
		L344.6,477.5 L346.6,475.4 L348.6,473.3 L350.6,471.9 L352.6,470.2 L354.6,468.7 L356.6,467.5 L358.6,466.2
		L360.6,465.0 L362.6,464.2 L364.6,463.4 L366.6,462.4 L368.6,462.0 L370.6,461.5 L372.6,461.1 L374.6,460.6
		L376.5,460.8 L378.5,461.0 L380.5,460.8 L382.5,461.1 L384.5,461.7 L386.5,462.1 L388.5,462.7 L390.5,463.3
		L392.5,464.1 L394.5,465.5 L396.5,466.3 L398.5,467.3 L400.5,468.5 L402.5,469.9 L404.5,471.2 L406.5,473.0
		L408.5,474.4 L410.5,476.4 L412.5,478.3 L414.5,480.2 L416.4,482.1 L418.4,484.5 L420.4,486.8 L422.4,489.1
		L424.4,491.6 L426.4,494.3 L428.4,496.8 L430.4,499.5 L432.4,502.2 L434.4,504.9 L436.4,507.9 L438.4,510.8
		L440.4,513.8 L442.4,516.7 L444.4,519.9 L446.4,523.0 L448.4,526.2 L450.4,529.4 L452.4,532.9 L454.4,535.9
		L456.3,539.3 L458.3,542.5 L460.3,545.9 L462.3,549.1 L464.3,552.5 L466.3,555.7 L468.3,559.1 L470.3,562.3
		L472.3,565.7 L474.3,568.9 L476.3,572.1 L478.3,575.3 L480.3,578.6 L482.3,581.7 L484.3,584.7 L486.3,588.0
		L488.3,591.1 L490.3,594.0 L492.3,597.1 L494.3,600.1 L496.2,603.2 L498.2,606.1 L500.2,609.0 L502.2,611.9
		L504.2,614.8 L506.2,617.5 L508.2,620.3 L510.2,623.0 L512.2,625.6 L514.2,628.3 L516.2,631.0 L518.2,633.5
		L520.2,636.1 L522.2,638.8 L524.2,641.1 L526.2,643.5 L528.2,645.9 L530.2,648.3 L532.2,650.7 L534.2,652.9
		L536.1,655.2 L538.1,657.3 L540.1,659.6 L542.1,661.6 L544.1,663.7 L546.1,665.7 L548.1,668.1 L550.1,669.8
		L552.1,671.7 L554.1,673.6 L556.1,675.5 L558.1,677.4 L560.1,679.0 L562.1,680.8 L564.1,682.6 L566.1,684.4
		L568.1,686.0 L570.1,687.5 L572.1,689.1 L574.1,690.7 L576.0,692.0 L578.0,693.5 L580.0,695.0 L582.0,696.4
		L584.0,697.6 L586.0,698.9 L588.0,700.2 L590.0,701.5 L592.0,702.6 L594.0,703.9 L596.0,705.1 L598.0,706.0
		L600.0,707.1 L602.0,708.3 L604.0,709.2 L606.0,710.0 L608.0,711.2 L610.0,712.0 L612.0,712.8 L614.0,713.8
		L615.9,714.5 L617.9,715.4 L619.9,716.2 L621.9,717.0 L623.9,717.6 L625.9,718.3 L627.9,718.7 L629.9,719.6
		L631.9,720.2 L633.9,720.6 L635.9,721.4 L637.9,721.8 L639.9,722.2 L641.9,722.9 L643.9,723.4 L645.9,723.7
		L647.9,724.2 L649.9,724.7 L651.9,725.1 L653.9,725.4 L655.8,725.9 L657.8,726.2 L659.8,726.6 L661.8,727.0
		L663.8,727.2 L665.8,727.5 L667.8,727.9 L669.8,728.1 L671.8,728.3 L673.8,728.7 L675.8,729.0 L677.8,729.1
		L679.8,729.5 L681.8,729.6 L683.8,729.8 L685.8,730.1 L687.8,730.3 L689.8,730.5 L691.8,730.6 L693.8,730.8
		L695.7,731.0 L697.7,731.2 L699.7,731.3 L701.7,731.5 L703.7,731.6 L705.7,731.8 L707.7,731.9 L709.7,732.1
		L711.7,732.2 L713.7,732.4 L715.7,732.4 L717.7,732.6 L719.7,732.6 L721.7,732.8 L723.7,733.1 L725.7,733.0
		L727.7,733.1 L729.7,733.3 L731.7,733.3 L733.7,733.4 L735.6,733.5 L737.6,733.6 L739.6,733.7 L741.6,733.9
		L743.6,733.9 L745.6,734.0 L747.6,734.1 L749.6,734.2 L751.6,734.2 L753.6,734.3 L755.6,734.3 L757.6,734.5
		L759.6,734.5 L761.6,734.6 L763.6,734.7 L765.6,734.8 L767.6,734.8 L769.6,734.8 L771.6,734.9 L773.6,734.9
		L775.5,735.0 L777.5,735.1 L779.5,735.1 L781.5,735.2 L783.5,735.2 L785.5,735.3 L787.5,735.3 L789.5,735.4
		L791.5,735.5 L793.5,735.5 L795.5,735.6 L797.5,735.6 L799.5,735.6 L801.5,735.6 L803.5,735.7 L805.5,735.8
		L807.5,735.8 L809.5,735.8 L811.5,735.8 L813.5,736.0 L815.4,735.9 L817.4,735.9 L819.4,736.0 L821.4,736.0
		L823.4,736.0 L825.4,736.0 L827.4,736.1 L829.4,736.0 L831.4,736.2 L833.4,736.1 L835.4,736.2 L837.4,736.2
		L839.4,736.2 L841.4,736.1 L843.4,736.2 L845.4,736.1 L847.4,736.2 L849.4,736.1 L851.4,736.4 L853.4,736.2
		L855.3,736.4 L857.3,736.2 L859.3,736.4 L861.3,736.2 L863.3,736.4 L865.3,736.2 L867.3,736.4 L869.3,736.2
		L871.3,736.4 L873.3,736.2 L875.3,736.4 L877.3,736.2 L879.3,736.4 L881.3,736.2 L883.3,736.3 L885.3,736.2
		L887.3,736.4 L889.3,736.2 L891.3,736.3 L893.3,736.2 L895.2,736.3 L897.2,736.2 L899.2,736.3 L901.2,736.2
		L903.2,736.2 L905.2,736.1 L907.2,736.2 L909.2,736.1 L911.2,736.2 L913.2,736.0 L915.2,736.0 L917.2,736.0
		L919.2,736.0 L921.2,736.0 L923.2,736.0 L925.2,735.9 L927.2,736.0 L929.2,735.9 L931.2,736.0 L933.2,735.8
		L935.1,735.8 L937.1,735.8 L939.1,735.8 L941.1,735.7 L943.1,735.8 L945.1,735.7 L947.1,735.8 L949.1,735.6
		L951.1,735.7 L953.1,735.6 L955.1,735.7 L957.1,735.5 L959.1,735.6 L961.1,735.5 L963.1,735.6 L965.1,735.5
		L967.1,735.5 L969.1,735.4 L971.1,735.5 L973.1,735.3 L975.0,735.5 L977.0,735.3 L979.0,735.4 L981.0,735.3
		L983.0,735.5 L985.0,735.3 L987.0,735.3 L989.0,735.3 L991.0,735.3 L993.0,735.2 L995.0,735.1 L997.0,735.1
		L999.0,735.3 L1001.0,735.1 L1003.0,735.2 L1005.0,735.1 L1007.0,735.3 L1009.0,735.1 L1011.0,735.2 L1013.0,735.1
		L1014.9,735.3 L1016.9,735.1 L1018.9,735.1 L1020.9,735.1 L1022.9,735.1 L1024.9,735.1 L1026.9,735.1 L1028.9,735.2
		L1030.9,735.2 L1032.9,735.1  '/></g>
	</g>
<g fill="none" color="white" stroke="rgb(255,   0, 255)" stroke-width="2.00" stroke-linecap="butt" stroke-linejoin="miter">
</g>
<g fill="none" color="black" stroke="currentColor" stroke-width="2.00" stroke-linecap="butt" stroke-linejoin="miter">
</g>
<g fill="none" color="black" stroke="black" stroke-width="1.00" stroke-linecap="butt" stroke-linejoin="miter">
</g>
<g fill="none" color="black" stroke="currentColor" stroke-width="1.00" stroke-linecap="butt" stroke-linejoin="miter">
	<path stroke='black'  d='M157.3,117.1 L157.3,775.2 L1052.8,775.2 L1052.8,117.1 L157.3,117.1 Z  '/></g>
<g fill="none" color="black" stroke="currentColor" stroke-width="1.00" stroke-linecap="butt" stroke-linejoin="miter">
</g>
</g>
</svg>

