<?xml version="1.0" encoding="utf-8"  standalone="no"?>
<!DOCTYPE svg PUBLIC "-//W3C//DTD SVG 1.1//EN"
 "http://www.w3.org/Graphics/SVG/1.1/DTD/svg11.dtd">
<svg 
 width="1400" height="900"
 viewBox="0 0 1400 900"
 xmlns="http://www.w3.org/2000/svg"
 xmlns:xlink="http://www.w3.org/1999/xlink"
>

<title>Gnuplot</title>
<desc>Produced by GNUPLOT 5.0 patchlevel 5 </desc>

<g id="gnuplot_canvas">

<rect x="0" y="0" width="1400" height="900" fill="none"/>
<defs>

	<circle id='gpDot' r='0.5' stroke-width='0.5'/>
	<path id='gpPt0' stroke-width='0.103' stroke='currentColor' d='M-1,0 h2 M0,-1 v2'/>
	<path id='gpPt1' stroke-width='0.103' stroke='currentColor' d='M-1,-1 L1,1 M1,-1 L-1,1'/>
	<path id='gpPt2' stroke-width='0.103' stroke='currentColor' d='M-1,0 L1,0 M0,-1 L0,1 M-1,-1 L1,1 M-1,1 L1,-1'/>
	<rect id='gpPt3' stroke-width='0.103' stroke='currentColor' x='-1' y='-1' width='2' height='2'/>
	<rect id='gpPt4' stroke-width='0.103' stroke='currentColor' fill='currentColor' x='-1' y='-1' width='2' height='2'/>
	<circle id='gpPt5' stroke-width='0.103' stroke='currentColor' cx='0' cy='0' r='1'/>
	<use xlink:href='#gpPt5' id='gpPt6' fill='currentColor' stroke='none'/>
	<path id='gpPt7' stroke-width='0.103' stroke='currentColor' d='M0,-1.33 L-1.33,0.67 L1.33,0.67 z'/>
	<use xlink:href='#gpPt7' id='gpPt8' fill='currentColor' stroke='none'/>
	<use xlink:href='#gpPt7' id='gpPt9' stroke='currentColor' transform='rotate(180)'/>
	<use xlink:href='#gpPt9' id='gpPt10' fill='currentColor' stroke='none'/>
	<use xlink:href='#gpPt3' id='gpPt11' stroke='currentColor' transform='rotate(45)'/>
	<use xlink:href='#gpPt11' id='gpPt12' fill='currentColor' stroke='none'/>
	<path id='gpPt13' stroke-width='0.103' stroke='currentColor' d='M0,1.330 L1.265,0.411 L0.782,-1.067 L-0.782,-1.076 L-1.265,0.411 z'/>
	<use xlink:href='#gpPt13' id='gpPt14' fill='currentColor' stroke='none'/>
	<filter id='textbox' filterUnits='objectBoundingBox' x='0' y='0' height='1' width='1'>
	  <feFlood flood-color='white' flood-opacity='1' result='bgnd'/>
	  <feComposite in='SourceGraphic' in2='bgnd' operator='atop'/>
	</filter>
	<filter id='greybox' filterUnits='objectBoundingBox' x='0' y='0' height='1' width='1'>
	  <feFlood flood-color='lightgrey' flood-opacity='1' result='grey'/>
	  <feComposite in='SourceGraphic' in2='grey' operator='atop'/>
	</filter>
</defs>
<g fill="none" color="white" stroke="black" stroke-width="1.00" stroke-linecap="butt" stroke-linejoin="miter">
</g>
<g fill="none" color="black" stroke="currentColor" stroke-width="1.00" stroke-linecap="butt" stroke-linejoin="miter">
	<path stroke='black'  d='M157.3,775.2 L176.8,775.2 M1052.8,775.2 L1033.3,775.2  '/>	<g transform="translate(139.1,783.7)" stroke="none" fill="black" font-family="Helvetica" font-size="26.00"  text-anchor="end">
		<text><tspan font-family="Helvetica" > 173</tspan></text>
	</g>
</g>
<g fill="none" color="black" stroke="currentColor" stroke-width="1.00" stroke-linecap="butt" stroke-linejoin="miter">
	<path stroke='black'  d='M157.3,681.2 L176.8,681.2 M1052.8,681.2 L1033.3,681.2  '/>	<g transform="translate(139.1,689.7)" stroke="none" fill="black" font-family="Helvetica" font-size="26.00"  text-anchor="end">
		<text><tspan font-family="Helvetica" > 174</tspan></text>
	</g>
</g>
<g fill="none" color="black" stroke="currentColor" stroke-width="1.00" stroke-linecap="butt" stroke-linejoin="miter">
	<path stroke='black'  d='M157.3,587.2 L176.8,587.2 M1052.8,587.2 L1033.3,587.2  '/>	<g transform="translate(139.1,595.7)" stroke="none" fill="black" font-family="Helvetica" font-size="26.00"  text-anchor="end">
		<text><tspan font-family="Helvetica" > 175</tspan></text>
	</g>
</g>
<g fill="none" color="black" stroke="currentColor" stroke-width="1.00" stroke-linecap="butt" stroke-linejoin="miter">
	<path stroke='black'  d='M157.3,493.2 L176.8,493.2 M1052.8,493.2 L1033.3,493.2  '/>	<g transform="translate(139.1,501.7)" stroke="none" fill="black" font-family="Helvetica" font-size="26.00"  text-anchor="end">
		<text><tspan font-family="Helvetica" > 176</tspan></text>
	</g>
</g>
<g fill="none" color="black" stroke="currentColor" stroke-width="1.00" stroke-linecap="butt" stroke-linejoin="miter">
	<path stroke='black'  d='M157.3,399.1 L176.8,399.1 M1052.8,399.1 L1033.3,399.1  '/>	<g transform="translate(139.1,407.6)" stroke="none" fill="black" font-family="Helvetica" font-size="26.00"  text-anchor="end">
		<text><tspan font-family="Helvetica" > 177</tspan></text>
	</g>
</g>
<g fill="none" color="black" stroke="currentColor" stroke-width="1.00" stroke-linecap="butt" stroke-linejoin="miter">
	<path stroke='black'  d='M157.3,305.1 L176.8,305.1 M1052.8,305.1 L1033.3,305.1  '/>	<g transform="translate(139.1,313.6)" stroke="none" fill="black" font-family="Helvetica" font-size="26.00"  text-anchor="end">
		<text><tspan font-family="Helvetica" > 178</tspan></text>
	</g>
</g>
<g fill="none" color="black" stroke="currentColor" stroke-width="1.00" stroke-linecap="butt" stroke-linejoin="miter">
	<path stroke='black'  d='M157.3,211.1 L176.8,211.1 M1052.8,211.1 L1033.3,211.1  '/>	<g transform="translate(139.1,219.6)" stroke="none" fill="black" font-family="Helvetica" font-size="26.00"  text-anchor="end">
		<text><tspan font-family="Helvetica" > 179</tspan></text>
	</g>
</g>
<g fill="none" color="black" stroke="currentColor" stroke-width="1.00" stroke-linecap="butt" stroke-linejoin="miter">
	<path stroke='black'  d='M157.3,117.1 L176.8,117.1 M1052.8,117.1 L1033.3,117.1  '/>	<g transform="translate(139.1,125.6)" stroke="none" fill="black" font-family="Helvetica" font-size="26.00"  text-anchor="end">
		<text><tspan font-family="Helvetica" > 180</tspan></text>
	</g>
</g>
<g fill="none" color="black" stroke="currentColor" stroke-width="1.00" stroke-linecap="butt" stroke-linejoin="miter">
	<path stroke='black'  d='M157.3,775.2 L157.3,755.7 M157.3,117.1 L157.3,136.6  '/>	<g transform="translate(157.3,822.7)" stroke="none" fill="black" font-family="Helvetica" font-size="26.00"  text-anchor="middle">
		<text><tspan font-family="Helvetica" > 0.5</tspan></text>
	</g>
</g>
<g fill="none" color="black" stroke="currentColor" stroke-width="1.00" stroke-linecap="butt" stroke-linejoin="miter">
	<path stroke='black'  d='M256.8,775.2 L256.8,755.7 M256.8,117.1 L256.8,136.6  '/>	<g transform="translate(256.8,822.7)" stroke="none" fill="black" font-family="Helvetica" font-size="26.00"  text-anchor="middle">
		<text><tspan font-family="Helvetica" > 1</tspan></text>
	</g>
</g>
<g fill="none" color="black" stroke="currentColor" stroke-width="1.00" stroke-linecap="butt" stroke-linejoin="miter">
	<path stroke='black'  d='M356.3,775.2 L356.3,755.7 M356.3,117.1 L356.3,136.6  '/>	<g transform="translate(356.3,822.7)" stroke="none" fill="black" font-family="Helvetica" font-size="26.00"  text-anchor="middle">
		<text><tspan font-family="Helvetica" > 1.5</tspan></text>
	</g>
</g>
<g fill="none" color="black" stroke="currentColor" stroke-width="1.00" stroke-linecap="butt" stroke-linejoin="miter">
	<path stroke='black'  d='M455.8,775.2 L455.8,755.7 M455.8,117.1 L455.8,136.6  '/>	<g transform="translate(455.8,822.7)" stroke="none" fill="black" font-family="Helvetica" font-size="26.00"  text-anchor="middle">
		<text><tspan font-family="Helvetica" > 2</tspan></text>
	</g>
</g>
<g fill="none" color="black" stroke="currentColor" stroke-width="1.00" stroke-linecap="butt" stroke-linejoin="miter">
	<path stroke='black'  d='M555.3,775.2 L555.3,755.7 M555.3,117.1 L555.3,136.6  '/>	<g transform="translate(555.3,822.7)" stroke="none" fill="black" font-family="Helvetica" font-size="26.00"  text-anchor="middle">
		<text><tspan font-family="Helvetica" > 2.5</tspan></text>
	</g>
</g>
<g fill="none" color="black" stroke="currentColor" stroke-width="1.00" stroke-linecap="butt" stroke-linejoin="miter">
	<path stroke='black'  d='M654.8,775.2 L654.8,755.7 M654.8,117.1 L654.8,136.6  '/>	<g transform="translate(654.8,822.7)" stroke="none" fill="black" font-family="Helvetica" font-size="26.00"  text-anchor="middle">
		<text><tspan font-family="Helvetica" > 3</tspan></text>
	</g>
</g>
<g fill="none" color="black" stroke="currentColor" stroke-width="1.00" stroke-linecap="butt" stroke-linejoin="miter">
	<path stroke='black'  d='M754.3,775.2 L754.3,755.7 M754.3,117.1 L754.3,136.6  '/>	<g transform="translate(754.3,822.7)" stroke="none" fill="black" font-family="Helvetica" font-size="26.00"  text-anchor="middle">
		<text><tspan font-family="Helvetica" > 3.5</tspan></text>
	</g>
</g>
<g fill="none" color="black" stroke="currentColor" stroke-width="1.00" stroke-linecap="butt" stroke-linejoin="miter">
	<path stroke='black'  d='M853.8,775.2 L853.8,755.7 M853.8,117.1 L853.8,136.6  '/>	<g transform="translate(853.8,822.7)" stroke="none" fill="black" font-family="Helvetica" font-size="26.00"  text-anchor="middle">
		<text><tspan font-family="Helvetica" > 4</tspan></text>
	</g>
</g>
<g fill="none" color="black" stroke="currentColor" stroke-width="1.00" stroke-linecap="butt" stroke-linejoin="miter">
	<path stroke='black'  d='M953.3,775.2 L953.3,755.7 M953.3,117.1 L953.3,136.6  '/>	<g transform="translate(953.3,822.7)" stroke="none" fill="black" font-family="Helvetica" font-size="26.00"  text-anchor="middle">
		<text><tspan font-family="Helvetica" > 4.5</tspan></text>
	</g>
</g>
<g fill="none" color="black" stroke="currentColor" stroke-width="1.00" stroke-linecap="butt" stroke-linejoin="miter">
	<path stroke='black'  d='M1052.8,775.2 L1052.8,755.7 M1052.8,117.1 L1052.8,136.6  '/>	<g transform="translate(1052.8,822.7)" stroke="none" fill="black" font-family="Helvetica" font-size="26.00"  text-anchor="middle">
		<text><tspan font-family="Helvetica" > 5</tspan></text>
	</g>
</g>
<g fill="none" color="black" stroke="currentColor" stroke-width="1.00" stroke-linecap="butt" stroke-linejoin="miter">
</g>
<g fill="none" color="black" stroke="currentColor" stroke-width="1.00" stroke-linecap="butt" stroke-linejoin="miter">
	<path stroke='black'  d='M157.3,117.1 L157.3,775.2 L1052.8,775.2 L1052.8,117.1 L157.3,117.1 Z  '/></g>
<g fill="none" color="black" stroke="currentColor" stroke-width="1.00" stroke-linecap="butt" stroke-linejoin="miter">
	<g transform="translate(37.0,446.2) rotate(270)" stroke="none" fill="black" font-family="Helvetica-Bold" font-size="26.00"  text-anchor="middle">
		<text><tspan font-family="Helvetica-Bold" >∠ C1-N1-N2, </tspan><tspan font-family="Helvetica-Bold"  font-size="20.8" dy="-13.00px">o</tspan><tspan font-size="26.0" dy="13.00"></tspan></text>
	</g>
</g>
<g fill="none" color="black" stroke="currentColor" stroke-width="1.00" stroke-linecap="butt" stroke-linejoin="miter">
	<g transform="translate(605.0,881.2)" stroke="none" fill="black" font-family="Helvetica-Bold" font-size="26.00"  text-anchor="middle">
		<text><tspan font-family="Helvetica-Bold" >d(C1-N1), A</tspan></text>
	</g>
</g>
<g fill="none" color="black" stroke="currentColor" stroke-width="1.00" stroke-linecap="butt" stroke-linejoin="miter">
	<g transform="translate(605.0,67.1)" stroke="none" fill="black" font-family="Helvetica" font-size="26.00"  text-anchor="middle">
		<text><tspan font-family="Helvetica"  font-weight="bold" >MeOPhN</tspan><tspan font-family="Helvetica"  font-weight="bold"  font-size="20.8" dy="7.80px">2</tspan><tspan font-family="Helvetica"  font-weight="bold"  dy="-20.80px">+</tspan><tspan font-size="26.0" dy="13.00"></tspan></text>
	</g>
</g>
<g fill="none" color="black" stroke="black" stroke-width="0.20" stroke-linecap="butt" stroke-linejoin="miter">
</g>
<g fill="none" color="black" stroke="currentColor" stroke-width="0.20" stroke-linecap="butt" stroke-linejoin="miter">
	<path stroke='black'  d='M1089.2,273.1 L1089.2,117.1 L1381.7,117.1 L1381.7,273.1 L1089.2,273.1 Z  '/></g>
	<g id="gnuplot_plot_1" ><title>PhN2+</title>
<g fill="none" color="white" stroke="black" stroke-width="3.00" stroke-linecap="butt" stroke-linejoin="miter">
</g>
<g fill="none" color="black" stroke="currentColor" stroke-width="3.00" stroke-linecap="butt" stroke-linejoin="miter">
	<g transform="translate(1253.0,145.1)" stroke="none" fill="black" font-family="Helvetica" font-size="26.00"  text-anchor="end">
		<text><tspan font-family="Helvetica" >PhN</tspan><tspan font-family="Helvetica"  font-size="20.8" dy="7.80px">2</tspan><tspan font-family="Helvetica"  dy="-20.80px">+</tspan><tspan font-size="26.0" dy="13.00"></tspan></text>
	</g>
</g>
<g fill="none" color="black" stroke="currentColor" stroke-width="3.00" stroke-linecap="butt" stroke-linejoin="miter">
	<path stroke='rgb(255,   0,   0)'  d='M1271.2,136.6 L1363.5,136.6 M236.9,122.3 L238.9,121.4 L240.9,121.1 L242.9,120.5 L244.9,119.9 L246.9,119.7
		L248.9,119.3 L250.9,118.9 L252.9,118.9 L254.9,118.6 L256.8,118.5 L258.8,118.3 L260.8,118.3 L262.8,118.1
		L264.8,118.0 L266.8,118.0 L268.8,117.9 L270.8,117.8 L272.8,117.8 L274.8,117.8 L276.8,117.8 L278.8,117.7
		L280.8,117.6 L282.8,117.6 L284.8,117.6 L286.8,117.6 L288.8,117.5 L290.8,117.5 L292.8,117.5 L294.8,117.5
		L296.7,117.5 L298.7,117.4 L300.7,117.4 L302.7,117.4 L304.7,117.4 L306.7,117.4 L308.7,117.4 L310.7,117.4
		L312.7,117.4 L314.7,117.4 L316.7,117.4 L318.7,117.4 L320.7,117.4 L322.7,117.4 L324.7,117.3 L326.7,117.3
		L328.7,117.3 L330.7,117.3 L332.7,117.3 L334.7,117.3 L336.6,117.3 L338.6,117.3 L340.6,117.3 L342.6,117.3
		L344.6,117.3 L346.6,117.3 L348.6,117.3 L350.6,117.3 L352.6,117.3 L354.6,117.3 L356.6,117.3 L358.6,117.3
		L360.6,117.3 L362.6,117.3 L364.6,117.3 L366.6,117.3 L368.6,117.3 L370.6,117.3 L372.6,117.3 L374.6,117.3
		L376.5,117.3 L378.5,117.3 L380.5,117.3 L382.5,117.3 L384.5,117.3 L386.5,117.3 L388.5,117.3 L390.5,117.3
		L392.5,117.3 L394.5,117.3 L396.5,117.3 L398.5,117.3 L400.5,117.3 L402.5,117.3 L404.5,117.3 L406.5,117.3
		L408.5,117.3 L410.5,117.3 L412.5,117.3 L414.5,117.3 L416.4,117.3 L418.4,117.3 L420.4,117.3 L422.4,117.3
		L424.4,117.3 L426.4,117.3 L428.4,117.3 L430.4,117.3 L432.4,117.3 L434.4,117.3 L436.4,117.3 L438.4,117.3
		L440.4,117.3 L442.4,117.3 L444.4,117.3 L446.4,117.3 L448.4,117.3 L450.4,117.3 L452.4,117.3 L454.4,117.3
		L456.3,117.3 L458.3,117.3 L460.3,117.3 L462.3,117.3 L464.3,117.3 L466.3,117.3 L468.3,117.3 L470.3,117.3
		L472.3,117.3 L474.3,117.3 L476.3,117.3 L478.3,117.3 L480.3,117.4 L482.3,117.4 L484.3,117.4 L486.3,117.4
		L488.3,117.4 L490.3,117.4 L492.3,117.4 L494.3,117.4 L496.2,117.4 L498.2,117.4 L500.2,117.4 L502.2,117.4
		L504.2,117.4 L506.2,117.4 L508.2,117.4 L510.2,117.4 L512.2,117.4 L514.2,117.4 L516.2,117.4 L518.2,117.4
		L520.2,117.4 L522.2,117.4 L524.2,117.4 L526.2,117.4 L528.2,117.5 L530.2,117.5 L532.2,117.5 L534.2,117.5
		L536.1,117.5 L538.1,117.5 L540.1,117.5 L542.1,117.5 L544.1,117.5 L546.1,117.5 L548.1,117.6 L550.1,117.6
		L552.1,117.6 L554.1,117.6 L556.1,117.6 L558.1,117.6 L560.1,117.6 L562.1,117.6 L564.1,117.6 L566.1,117.6
		L568.1,117.6 L570.1,117.6 L572.1,117.6 L574.1,117.6 L576.0,117.6 L578.0,117.6 L580.0,117.6 L582.0,117.6
		L584.0,117.6 L586.0,117.6 L588.0,117.6 L590.0,117.7 L592.0,117.7 L594.0,117.7 L596.0,117.7 L598.0,117.7
		L600.0,117.7 L602.0,117.7 L604.0,117.7 L606.0,117.7 L608.0,117.7 L610.0,117.7 L612.0,117.7 L614.0,117.7
		L615.9,117.7 L617.9,117.7 L619.9,117.7 L621.9,117.7 L623.9,117.7 L625.9,117.7 L627.9,117.8 L629.9,117.8
		L631.9,117.8 L633.9,117.8 L635.9,117.8 L637.9,117.8 L639.9,117.8 L641.9,117.8 L643.9,117.8 L645.9,117.8
		L647.9,117.8 L649.9,117.8 L651.9,117.8 L653.9,117.8 L655.8,117.8 L657.8,117.8 L659.8,117.8 L661.8,117.8
		L663.8,117.8 L665.8,117.8 L667.8,117.9 L669.8,117.9 L671.8,117.9 L673.8,117.9 L675.8,117.9 L677.8,117.9
		L679.8,117.9 L681.8,117.9 L683.8,117.9 L685.8,117.9 L687.8,117.9 L689.8,117.9 L691.8,117.9 L693.8,117.9
		L695.7,117.9 L697.7,117.9 L699.7,117.9 L701.7,117.9 L703.7,117.9 L705.7,117.9 L707.7,117.9 L709.7,117.9
		L711.7,117.9 L713.7,117.9 L715.7,118.0 L717.7,118.0 L719.7,118.0 L721.7,118.0 L723.7,118.0 L725.7,118.0
		L727.7,118.0 L729.7,118.0 L731.7,118.0 L733.7,118.0 L735.6,118.0 L737.6,118.0 L739.6,118.0 L741.6,118.0
		L743.6,118.0 L745.6,118.0 L747.6,118.0 L749.6,118.0 L751.6,118.0 L753.6,118.0 L755.6,118.1 L757.6,118.1
		L759.6,118.1 L761.6,118.1 L763.6,118.1 L765.6,118.1 L767.6,118.1 L769.6,118.1 L771.6,118.1 L773.6,118.2
		L775.5,118.2 L777.5,118.2 L779.5,118.2 L781.5,118.2 L783.5,118.2 L785.5,118.2 L787.5,118.2 L789.5,118.2
		L791.5,118.2 L793.5,118.2 L795.5,118.2 L797.5,118.2 L799.5,118.2 L801.5,118.2 L803.5,118.2 L805.5,118.2
		L807.5,118.2 L809.5,118.2 L811.5,118.2 L813.5,118.2 L815.4,118.2 L817.4,118.2 L819.4,118.2 L821.4,118.2
		L823.4,118.3 L825.4,118.3 L827.4,118.3 L829.4,118.3 L831.4,118.3 L833.4,118.3 L835.4,118.4 L837.4,118.4
		L839.4,118.4 L841.4,118.4 L843.4,118.4 L845.4,118.4 L847.4,118.4 L849.4,118.4 L851.4,118.5 L853.4,118.5
		L855.3,118.5 L857.3,118.5 L859.3,118.5 L861.3,118.5 L863.3,118.5 L865.3,118.5 L867.3,118.5 L869.3,118.5
		L871.3,118.5 L873.3,118.5 L875.3,118.5 L877.3,118.5 L879.3,118.5 L881.3,118.5 L883.3,118.6 L885.3,118.6
		L887.3,118.6 L889.3,118.6 L891.3,118.6 L893.3,118.6 L895.2,118.6 L897.2,118.6 L899.2,118.6 L901.2,118.6
		L903.2,118.6 L905.2,118.6 L907.2,118.6 L909.2,118.7 L911.2,118.7 L913.2,118.7 L915.2,118.7 L917.2,118.7
		L919.2,118.7 L921.2,118.7 L923.2,118.7 L925.2,118.7 L927.2,118.8 L929.2,118.8 L931.2,118.8 L933.2,118.8
		L935.1,118.8 L937.1,118.9 L939.1,118.9 L941.1,118.9 L943.1,118.9 L945.1,118.9 L947.1,118.9 L949.1,119.0
		L951.1,119.0 L953.1,119.0 L955.1,119.0 L957.1,119.0 L959.1,119.0 L961.1,119.0 L963.1,119.0 L965.1,119.0
		L967.1,119.0 L969.1,119.0 L971.1,119.0 L973.1,119.0 L975.0,119.0 L977.0,119.0 L979.0,119.0 L981.0,119.0
		L983.0,119.0 L985.0,119.0 L987.0,119.0 L989.0,119.0 L991.0,119.0 L993.0,119.0 L995.0,119.1 L997.0,119.1
		L999.0,119.1 L1001.0,119.1 L1003.0,119.1 L1005.0,119.1 L1007.0,119.2 L1009.0,119.2 L1011.0,119.2 L1013.0,119.2
		L1014.9,119.2 L1016.9,119.2 L1018.9,119.3 L1020.9,119.3 L1022.9,119.3 L1024.9,119.3 L1026.9,119.3 L1028.9,119.3
		L1030.9,119.3 L1032.9,119.3  '/></g>
	</g>
	<g id="gnuplot_plot_2" ><title>2-MeOPhN2+</title>
<g fill="none" color="black" stroke="currentColor" stroke-width="3.00" stroke-linecap="butt" stroke-linejoin="miter">
	<g transform="translate(1253.0,184.1)" stroke="none" fill="black" font-family="Helvetica" font-size="26.00"  text-anchor="end">
		<text><tspan font-family="Helvetica" >2-MeOPhN</tspan><tspan font-family="Helvetica"  font-size="20.8" dy="7.80px">2</tspan><tspan font-family="Helvetica"  dy="-20.80px">+</tspan><tspan font-size="26.0" dy="13.00"></tspan></text>
	</g>
</g>
<g fill="none" color="black" stroke="currentColor" stroke-width="3.00" stroke-linecap="butt" stroke-linejoin="miter">
	<path stroke='rgb(240, 228,  66)'  d='M1271.2,175.6 L1363.5,175.6 M236.9,245.2 L238.9,258.8 L240.9,264.7 L242.9,265.9 L244.9,268.0 L246.9,268.7
		L248.9,268.9 L250.9,269.0 L252.9,269.0 L254.9,268.9 L256.8,268.7 L258.8,268.5 L260.8,268.1 L262.8,268.0
		L264.8,267.7 L266.8,267.5 L268.8,267.2 L270.8,267.1 L272.8,266.9 L274.8,266.7 L276.8,266.1 L278.8,265.8
		L280.8,265.6 L282.8,265.2 L284.8,264.9 L286.8,264.4 L288.8,263.2 L290.8,262.7 L292.8,262.2 L294.8,261.5
		L296.7,260.8 L298.7,260.0 L300.7,259.0 L302.7,258.0 L304.7,256.8 L306.7,255.6 L308.7,254.2 L310.7,252.8
		L312.7,251.2 L314.7,249.6 L316.7,247.8 L318.7,246.0 L320.7,244.0 L322.7,242.0 L324.7,239.9 L326.7,237.7
		L328.7,235.4 L330.7,233.1 L332.7,230.7 L334.7,228.2 L336.6,225.6 L338.6,223.0 L340.6,220.3 L342.6,217.6
		L344.6,214.8 L346.6,212.0 L348.6,209.1 L350.6,206.1 L352.6,203.1 L354.6,200.1 L356.6,197.0 L358.6,193.8
		L360.6,190.7 L362.6,187.5 L364.6,184.2 L366.6,180.9 L368.6,177.6 L370.6,174.3 L372.6,170.9 L374.6,167.5
		L376.5,164.1 L378.5,160.6 L380.5,157.2 L382.5,153.7 L384.5,150.3 L386.5,146.8 L388.5,143.3 L390.5,139.9
		L392.5,136.4 L394.5,133.0 L396.5,129.5 L398.5,126.2 L400.5,122.8 L402.5,119.5 L404.5,118.0 L406.5,121.2
		L408.5,124.3 L410.5,127.4 L412.5,130.4 L414.5,133.4 L416.4,136.2 L418.4,139.0 L420.4,141.7 L422.4,144.3
		L424.4,146.7 L426.4,149.1 L428.4,151.4 L430.4,153.5 L432.4,155.5 L434.4,157.5 L436.4,159.2 L438.4,160.9
		L440.4,162.4 L442.4,163.7 L444.4,164.9 L446.4,166.0 L448.4,166.9 L450.4,167.6 L452.4,168.1 L454.4,168.5
		L456.3,168.7 L458.3,168.8 L460.3,168.6 L462.3,168.4 L464.3,168.0 L466.3,167.3 L468.3,166.6 L470.3,165.7
		L472.3,164.6 L474.3,163.4 L476.3,162.1 L478.3,160.6 L480.3,159.0 L482.3,157.3 L484.3,155.4 L486.3,153.2
		L488.3,151.0 L490.3,148.6 L492.3,146.1 L494.3,143.5 L496.2,140.8 L498.2,138.0 L500.2,135.1 L502.2,132.2
		L504.2,129.1 L506.2,126.0 L508.2,122.8 L510.2,119.5 L512.2,120.0 L514.2,126.5 L516.2,134.0 L518.2,142.2
		L520.2,150.9 L522.2,159.8 L524.2,169.1 L526.2,178.5 L528.2,188.0 L530.2,197.4 L532.2,206.9 L534.2,216.4
		L536.1,225.8 L538.1,235.2 L540.1,244.5 L542.1,253.7 L544.1,262.8 L546.1,271.8 L548.1,280.8 L550.1,289.6
		L552.1,298.3 L554.1,306.9 L556.1,315.4 L558.1,323.8 L560.1,332.1 L562.1,340.3 L564.1,348.3 L566.1,356.3
		L568.1,364.1 L570.1,369.7 L572.1,385.1 L574.1,388.4 L576.0,392.2 L578.0,396.2 L580.0,405.2 L582.0,408.1
		L584.0,411.6 L586.0,415.3 L588.0,421.8 L590.0,424.4 L592.0,427.5 L594.0,430.9 L596.0,436.4 L598.0,438.7
		L600.0,441.6 L602.0,444.9 L604.0,449.7 L606.0,451.9 L608.0,454.7 L610.0,457.8 L612.0,462.2 L614.0,464.3
		L615.9,467.0 L617.9,470.0 L619.9,474.1 L621.9,476.2 L623.9,478.8 L625.9,481.7 L627.9,485.7 L629.9,487.7
		L631.9,490.3 L633.9,494.1 L635.9,496.3 L637.9,498.9 L639.9,502.5 L641.9,504.4 L643.9,506.9 L645.9,510.6
		L647.9,512.7 L649.9,515.2 L651.9,518.5 L653.9,520.4 L655.8,522.8 L657.8,526.3 L659.8,528.3 L661.8,530.8
		L663.8,533.9 L665.8,535.7 L667.8,538.1 L669.8,541.3 L671.8,543.3 L673.8,545.7 L675.8,548.5 L677.8,550.2
		L679.8,552.5 L681.8,555.5 L683.8,557.3 L685.8,559.6 L687.8,562.1 L689.8,563.8 L691.8,566.0 L693.8,568.9
		L695.7,570.7 L697.7,573.0 L699.7,575.5 L701.7,577.1 L703.7,579.3 L705.7,582.2 L707.7,584.0 L709.7,586.2
		L711.7,588.8 L713.7,590.1 L715.7,591.6 L717.7,593.8 L719.7,595.0 L721.7,596.6 L723.7,598.5 L725.7,599.7
		L727.7,601.3 L729.7,603.4 L731.7,604.7 L733.7,606.3 L735.6,608.3 L737.6,609.5 L739.6,611.0 L741.6,612.9
		L743.6,614.1 L745.6,615.6 L747.6,617.9 L749.6,619.2 L751.6,621.1 L753.6,622.4 L755.6,623.9 L757.6,625.9
		L759.6,627.1 L761.6,628.5 L763.6,630.4 L765.6,631.5 L767.6,632.9 L769.6,634.7 L771.6,635.8 L773.6,637.2
		L775.5,638.9 L777.5,640.0 L779.5,641.4 L781.5,643.1 L783.5,644.1 L785.5,645.4 L787.5,647.1 L789.5,648.1
		L791.5,649.4 L793.5,651.1 L795.5,652.1 L797.5,653.6 L799.5,654.7 L801.5,656.3 L803.5,657.4 L805.5,658.9
		L807.5,660.0 L809.5,661.5 L811.5,662.6 L813.5,664.1 L815.4,665.1 L817.4,666.6 L819.4,667.7 L821.4,669.1
		L823.4,670.1 L825.4,671.6 L827.4,672.6 L829.4,674.0 L831.4,675.0 L833.4,676.3 L835.4,677.3 L837.4,678.6
		L839.4,679.5 L841.4,680.8 L843.4,681.7 L845.4,683.0 L847.4,683.9 L849.4,685.1 L851.4,686.0 L853.4,687.2
		L855.3,688.1 L857.3,689.2 L859.3,690.1 L861.3,691.2 L863.3,692.0 L865.3,693.1 L867.3,693.9 L869.3,694.9
		L871.3,695.7 L873.3,696.8 L875.3,697.6 L877.3,698.6 L879.3,699.3 L881.3,700.3 L883.3,701.1 L885.3,701.9
		L887.3,702.6 L889.3,703.5 L891.3,704.2 L893.3,705.0 L895.2,705.7 L897.2,706.4 L899.2,707.0 L901.2,707.7
		L903.2,708.4 L905.2,709.0 L907.2,709.7 L909.2,710.3 L911.2,710.9 L913.2,711.5 L915.2,712.1 L917.2,712.7
		L919.2,713.3 L921.2,713.8 L923.2,714.4 L925.2,714.9 L927.2,715.5 L929.2,715.9 L931.2,716.4 L933.2,716.8
		L935.1,717.4 L937.1,717.7 L939.1,718.2 L941.1,718.5 L943.1,719.0 L945.1,719.3 L947.1,719.8 L949.1,720.1
		L951.1,720.5 L953.1,720.8 L955.1,721.2 L957.1,721.5 L959.1,721.9 L961.1,722.1 L963.1,722.5 L965.1,722.7
		L967.1,723.1 L969.1,723.2 L971.1,723.6 L973.1,723.7 L975.0,724.1 L977.0,724.1 L979.0,724.5 L981.0,724.6
		L983.0,724.9 L985.0,724.9 L987.0,725.3 L989.0,725.3 L991.0,725.7 L993.0,725.7 L995.0,726.0 L997.0,726.0
		L999.0,726.4 L1001.0,726.4 L1003.0,726.7 L1005.0,726.7 L1007.0,727.0 L1009.0,726.9 L1011.0,727.2 L1013.0,727.1
		L1014.9,727.4 L1016.9,727.2 L1018.9,727.5 L1020.9,727.4 L1022.9,727.7 L1024.9,727.5 L1026.9,727.8 L1028.9,727.6
		L1030.9,727.8 L1032.9,727.6  '/></g>
	</g>
	<g id="gnuplot_plot_3" ><title>3-MeOPhN2+</title>
<g fill="none" color="black" stroke="currentColor" stroke-width="3.00" stroke-linecap="butt" stroke-linejoin="miter">
	<g transform="translate(1253.0,223.1)" stroke="none" fill="black" font-family="Helvetica" font-size="26.00"  text-anchor="end">
		<text><tspan font-family="Helvetica" >3-MeOPhN</tspan><tspan font-family="Helvetica"  font-size="20.8" dy="7.80px">2</tspan><tspan font-family="Helvetica"  dy="-20.80px">+</tspan><tspan font-size="26.0" dy="13.00"></tspan></text>
	</g>
</g>
<g fill="none" color="black" stroke="currentColor" stroke-width="3.00" stroke-linecap="butt" stroke-linejoin="miter">
	<path stroke='rgb(  0, 114, 178)'  d='M1271.2,214.6 L1363.5,214.6 M236.9,133.7 L238.9,133.2 L240.9,133.1 L242.9,133.2 L244.9,133.5 L246.9,133.9
		L248.9,134.1 L250.9,134.8 L252.9,135.1 L254.9,135.3 L256.8,136.1 L258.8,136.4 L260.8,137.1 L262.8,137.4
		L264.8,137.7 L266.8,138.2 L268.8,139.3 L270.8,139.6 L272.8,140.5 L274.8,140.8 L276.8,141.2 L278.8,141.7
		L280.8,142.3 L282.8,143.6 L284.8,143.9 L286.8,144.4 L288.8,144.9 L290.8,145.5 L292.8,146.1 L294.8,146.8
		L296.7,147.5 L298.7,148.1 L300.7,148.9 L302.7,149.6 L304.7,150.4 L306.7,151.1 L308.7,151.9 L310.7,152.6
		L312.7,153.4 L314.7,154.2 L316.7,155.0 L318.7,155.7 L320.7,156.5 L322.7,157.3 L324.7,158.1 L326.7,158.9
		L328.7,159.6 L330.7,160.4 L332.7,161.2 L334.7,162.0 L336.6,162.8 L338.6,163.6 L340.6,164.4 L342.6,165.2
		L344.6,165.9 L346.6,166.8 L348.6,167.6 L350.6,168.4 L352.6,169.2 L354.6,170.0 L356.6,170.9 L358.6,171.7
		L360.6,172.5 L362.6,173.3 L364.6,174.1 L366.6,175.0 L368.6,175.8 L370.6,176.6 L372.6,177.4 L374.6,178.2
		L376.5,179.0 L378.5,179.8 L380.5,180.6 L382.5,181.4 L384.5,182.2 L386.5,183.0 L388.5,183.7 L390.5,184.5
		L392.5,185.3 L394.5,186.0 L396.5,186.7 L398.5,187.5 L400.5,188.2 L402.5,188.9 L404.5,189.6 L406.5,190.3
		L408.5,190.9 L410.5,191.6 L412.5,192.2 L414.5,192.8 L416.4,193.4 L418.4,194.0 L420.4,194.6 L422.4,195.3
		L424.4,195.8 L426.4,196.4 L428.4,197.0 L430.4,197.5 L432.4,198.1 L434.4,198.6 L436.4,199.1 L438.4,199.6
		L440.4,200.0 L442.4,200.5 L444.4,200.9 L446.4,201.3 L448.4,201.8 L450.4,202.1 L452.4,202.5 L454.4,202.8
		L456.3,203.2 L458.3,203.5 L460.3,203.7 L462.3,204.0 L464.3,204.3 L466.3,204.5 L468.3,204.7 L470.3,204.9
		L472.3,205.1 L474.3,205.4 L476.3,205.6 L478.3,205.8 L480.3,205.9 L482.3,206.1 L484.3,206.2 L486.3,206.3
		L488.3,206.3 L490.3,206.4 L492.3,206.5 L494.3,206.5 L496.2,206.6 L498.2,206.6 L500.2,206.7 L502.2,206.7
		L504.2,206.7 L506.2,206.7 L508.2,206.7 L510.2,206.7 L512.2,206.7 L514.2,206.7 L516.2,206.7 L518.2,206.7
		L520.2,206.7 L522.2,204.1 L524.2,200.5 L526.2,196.1 L528.2,191.2 L530.2,185.6 L532.2,183.9 L534.2,182.5
		L536.1,181.4 L538.1,180.6 L540.1,178.5 L542.1,178.8 L544.1,179.1 L546.1,179.4 L548.1,179.8 L550.1,180.2
		L552.1,180.6 L554.1,181.8 L556.1,182.4 L558.1,182.6 L560.1,182.9 L562.1,183.1 L564.1,184.6 L566.1,184.9
		L568.1,185.3 L570.1,185.6 L572.1,186.7 L574.1,187.1 L576.0,187.4 L578.0,187.8 L580.0,189.5 L582.0,189.9
		L584.0,190.3 L586.0,190.6 L588.0,191.7 L590.0,192.0 L592.0,192.3 L594.0,193.4 L596.0,193.7 L598.0,194.0
		L600.0,195.1 L602.0,195.4 L604.0,195.7 L606.0,196.9 L608.0,197.3 L610.0,197.6 L612.0,198.6 L614.0,198.8
		L615.9,199.1 L617.9,199.9 L619.9,200.2 L621.9,200.4 L623.9,201.2 L625.9,201.4 L627.9,201.6 L629.9,202.4
		L631.9,202.6 L633.9,202.8 L635.9,203.6 L637.9,203.8 L639.9,204.1 L641.9,215.1 L643.9,215.0 L645.9,214.9
		L647.9,214.5 L649.9,214.2 L651.9,213.7 L653.9,213.5 L655.8,213.3 L657.8,212.9 L659.8,212.7 L661.8,212.5
		L663.8,212.2 L665.8,212.1 L667.8,212.0 L669.8,211.6 L671.8,211.5 L673.8,211.4 L675.8,211.3 L677.8,211.2
		L679.8,211.1 L681.8,211.0 L683.8,210.9 L685.8,210.9 L687.8,210.8 L689.8,210.8 L691.8,210.7 L693.8,210.7
		L695.7,210.7 L697.7,210.7 L699.7,210.7 L701.7,210.6 L703.7,210.7 L705.7,210.7 L707.7,210.7 L709.7,210.7
		L711.7,210.8 L713.7,210.8 L715.7,210.9 L717.7,210.9 L719.7,211.1 L721.7,211.1 L723.7,211.2 L725.7,211.2
		L727.7,211.3 L729.7,211.3 L731.7,211.4 L733.7,211.3 L735.6,211.7 L737.6,211.7 L739.6,212.1 L741.6,212.1
		L743.6,212.4 L745.6,212.4 L747.6,212.7 L749.6,212.7 L751.6,213.0 L753.6,213.1 L755.6,213.4 L757.6,213.4
		L759.6,213.7 L761.6,213.8 L763.6,214.1 L765.6,214.2 L767.6,214.6 L769.6,214.6 L771.6,215.0 L773.6,215.1
		L775.5,215.5 L777.5,215.5 L779.5,215.9 L781.5,216.0 L783.5,216.4 L785.5,216.5 L787.5,216.9 L789.5,217.0
		L791.5,217.4 L793.5,217.5 L795.5,217.9 L797.5,217.9 L799.5,218.3 L801.5,218.4 L803.5,218.8 L805.5,218.8
		L807.5,219.2 L809.5,219.3 L811.5,219.7 L813.5,219.7 L815.4,220.1 L817.4,220.2 L819.4,220.6 L821.4,220.6
		L823.4,221.1 L825.4,221.1 L827.4,221.6 L829.4,221.7 L831.4,222.2 L833.4,222.3 L835.4,222.8 L837.4,222.9
		L839.4,223.5 L841.4,223.5 L843.4,224.1 L845.4,224.1 L847.4,224.7 L849.4,224.8 L851.4,225.3 L853.4,225.4
		L855.3,225.9 L857.3,226.0 L859.3,226.5 L861.3,226.6 L863.3,227.1 L865.3,227.1 L867.3,227.6 L869.3,227.7
		L871.3,228.2 L873.3,228.3 L875.3,228.7 L877.3,228.8 L879.3,229.3 L881.3,229.3 L883.3,229.9 L885.3,229.9
		L887.3,230.4 L889.3,230.5 L891.3,231.0 L893.3,231.1 L895.2,231.5 L897.2,231.6 L899.2,232.1 L901.2,232.2
		L903.2,232.7 L905.2,232.7 L907.2,233.1 L909.2,233.2 L911.2,233.7 L913.2,233.7 L915.2,234.2 L917.2,234.2
		L919.2,234.7 L921.2,234.7 L923.2,235.1 L925.2,235.2 L927.2,235.6 L929.2,235.6 L931.2,236.0 L933.2,236.0
		L935.1,236.5 L937.1,236.5 L939.1,236.9 L941.1,236.9 L943.1,237.3 L945.1,237.4 L947.1,237.8 L949.1,237.8
		L951.1,238.2 L953.1,238.2 L955.1,238.6 L957.1,238.6 L959.1,239.0 L961.1,239.0 L963.1,239.4 L965.1,239.4
		L967.1,239.8 L969.1,239.7 L971.1,240.1 L973.1,240.1 L975.0,240.5 L977.0,240.4 L979.0,240.8 L981.0,240.8
		L983.0,241.1 L985.0,241.1 L987.0,241.5 L989.0,241.5 L991.0,241.8 L993.0,241.8 L995.0,242.1 L997.0,242.1
		L999.0,242.4 L1001.0,242.4 L1003.0,242.7 L1005.0,242.7 L1007.0,243.0 L1009.0,243.0 L1011.0,243.3 L1013.0,243.3
		L1014.9,243.6 L1016.9,243.6 L1018.9,244.0 L1020.9,243.9 L1022.9,244.3 L1024.9,244.2 L1026.9,244.6 L1028.9,244.5
		L1030.9,244.8 L1032.9,244.8  '/></g>
	</g>
	<g id="gnuplot_plot_4" ><title>4-MeOPhN2+</title>
<g fill="none" color="black" stroke="currentColor" stroke-width="3.00" stroke-linecap="butt" stroke-linejoin="miter">
	<g transform="translate(1253.0,262.1)" stroke="none" fill="black" font-family="Helvetica" font-size="26.00"  text-anchor="end">
		<text><tspan font-family="Helvetica" >4-MeOPhN</tspan><tspan font-family="Helvetica"  font-size="20.8" dy="7.80px">2</tspan><tspan font-family="Helvetica"  dy="-20.80px">+</tspan><tspan font-size="26.0" dy="13.00"></tspan></text>
	</g>
</g>
<g fill="none" color="black" stroke="currentColor" stroke-width="3.00" stroke-linecap="butt" stroke-linejoin="miter">
	<path stroke='rgb(255,   0, 255)'  d='M1271.2,253.6 L1363.5,253.6 M236.9,125.1 L238.9,136.8 L240.9,135.8 L242.9,133.8 L244.9,133.0 L246.9,132.8
		L248.9,132.3 L250.9,132.2 L252.9,132.1 L254.9,132.2 L256.8,132.3 L258.8,132.5 L260.8,132.7 L262.8,132.9
		L264.8,133.1 L266.8,133.2 L268.8,133.5 L270.8,134.0 L272.8,134.2 L274.8,134.4 L276.8,134.7 L278.8,134.9
		L280.8,135.2 L282.8,136.0 L284.8,136.2 L286.8,136.4 L288.8,136.7 L290.8,137.0 L292.8,137.3 L294.8,137.6
		L296.7,137.8 L298.7,138.2 L300.7,138.5 L302.7,138.8 L304.7,139.1 L306.7,139.3 L308.7,139.6 L310.7,139.8
		L312.7,140.1 L314.7,140.3 L316.7,140.6 L318.7,140.8 L320.7,141.0 L322.7,141.2 L324.7,141.4 L326.7,141.5
		L328.7,141.7 L330.7,141.8 L332.7,142.0 L334.7,142.1 L336.6,142.3 L338.6,142.4 L340.6,142.5 L342.6,142.6
		L344.6,142.7 L346.6,142.7 L348.6,142.8 L350.6,142.9 L352.6,142.9 L354.6,143.0 L356.6,143.0 L358.6,143.0
		L360.6,143.0 L362.6,143.1 L364.6,143.1 L366.6,143.1 L368.6,143.1 L370.6,143.0 L372.6,143.0 L374.6,143.0
		L376.5,143.0 L378.5,142.9 L380.5,142.9 L382.5,142.9 L384.5,142.8 L386.5,142.7 L388.5,142.7 L390.5,142.6
		L392.5,142.5 L394.5,142.4 L396.5,142.4 L398.5,142.3 L400.5,142.2 L402.5,142.1 L404.5,142.0 L406.5,141.9
		L408.5,141.8 L410.5,141.6 L412.5,141.5 L414.5,141.4 L416.4,141.3 L418.4,141.2 L420.4,141.0 L422.4,140.8
		L424.4,140.7 L426.4,140.5 L428.4,140.4 L430.4,140.2 L432.4,140.0 L434.4,139.8 L436.4,139.7 L438.4,139.5
		L440.4,139.3 L442.4,139.2 L444.4,139.0 L446.4,138.8 L448.4,138.7 L450.4,138.5 L452.4,138.3 L454.4,138.1
		L456.3,137.9 L458.3,137.8 L460.3,137.6 L462.3,137.4 L464.3,137.2 L466.3,137.0 L468.3,136.9 L470.3,136.7
		L472.3,136.5 L474.3,136.4 L476.3,136.2 L478.3,136.0 L480.3,135.8 L482.3,135.7 L484.3,135.5 L486.3,135.3
		L488.3,135.2 L490.3,135.0 L492.3,134.8 L494.3,134.7 L496.2,134.5 L498.2,134.4 L500.2,134.2 L502.2,134.1
		L504.2,133.9 L506.2,133.7 L508.2,133.5 L510.2,133.4 L512.2,133.2 L514.2,133.0 L516.2,132.9 L518.2,132.7
		L520.2,132.5 L522.2,132.4 L524.2,132.2 L526.2,132.0 L528.2,131.9 L530.2,131.7 L532.2,129.3 L534.2,128.7
		L536.1,128.1 L538.1,127.6 L540.1,127.2 L542.1,127.1 L544.1,127.1 L546.1,126.8 L548.1,125.6 L550.1,125.4
		L552.1,125.2 L554.1,125.1 L556.1,125.0 L558.1,124.6 L560.1,124.5 L562.1,124.5 L564.1,124.4 L566.1,124.2
		L568.1,124.2 L570.1,124.2 L572.1,124.1 L574.1,124.0 L576.0,124.0 L578.0,124.0 L580.0,124.0 L582.0,123.9
		L584.0,123.9 L586.0,123.9 L588.0,123.8 L590.0,123.8 L592.0,123.7 L594.0,123.7 L596.0,123.7 L598.0,123.7
		L600.0,123.7 L602.0,123.6 L604.0,123.6 L606.0,123.6 L608.0,123.7 L610.0,123.7 L612.0,123.7 L614.0,123.8
		L615.9,123.8 L617.9,123.9 L619.9,123.9 L621.9,123.9 L623.9,123.9 L625.9,123.9 L627.9,123.9 L629.9,123.9
		L631.9,123.9 L633.9,123.9 L635.9,123.9 L637.9,123.9 L639.9,123.9 L641.9,123.9 L643.9,123.8 L645.9,123.8
		L647.9,123.8 L649.9,123.8 L651.9,123.7 L653.9,123.7 L655.8,123.7 L657.8,123.7 L659.8,123.7 L661.8,123.6
		L663.8,123.6 L665.8,123.6 L667.8,123.5 L669.8,123.5 L671.8,123.5 L673.8,123.4 L675.8,123.4 L677.8,123.4
		L679.8,123.3 L681.8,123.2 L683.8,123.2 L685.8,123.1 L687.8,123.1 L689.8,123.1 L691.8,123.0 L693.8,123.0
		L695.7,123.0 L697.7,122.9 L699.7,122.9 L701.7,122.9 L703.7,122.8 L705.7,122.8 L707.7,122.8 L709.7,122.7
		L711.7,122.7 L713.7,122.7 L715.7,122.6 L717.7,122.6 L719.7,122.6 L721.7,122.5 L723.7,122.5 L725.7,122.5
		L727.7,122.4 L729.7,122.4 L731.7,122.4 L733.7,122.4 L735.6,122.4 L737.6,122.3 L739.6,122.3 L741.6,122.2
		L743.6,122.2 L745.6,122.2 L747.6,122.2 L749.6,122.1 L751.6,122.1 L753.6,122.1 L755.6,122.0 L757.6,122.0
		L759.6,122.0 L761.6,122.0 L763.6,122.0 L765.6,122.0 L767.6,122.0 L769.6,122.0 L771.6,122.0 L773.6,121.9
		L775.5,121.9 L777.5,121.9 L779.5,121.9 L781.5,121.9 L783.5,121.9 L785.5,121.9 L787.5,121.9 L789.5,121.8
		L791.5,121.8 L793.5,121.8 L795.5,121.8 L797.5,121.8 L799.5,121.8 L801.5,121.8 L803.5,121.8 L805.5,121.8
		L807.5,121.8 L809.5,121.8 L811.5,121.8 L813.5,121.8 L815.4,121.8 L817.4,121.8 L819.4,121.8 L821.4,121.9
		L823.4,121.9 L825.4,121.9 L827.4,121.9 L829.4,121.9 L831.4,121.9 L833.4,122.0 L835.4,122.0 L837.4,122.1
		L839.4,122.1 L841.4,122.1 L843.4,122.1 L845.4,122.1 L847.4,122.2 L849.4,122.2 L851.4,122.2 L853.4,122.2
		L855.3,122.2 L857.3,122.2 L859.3,122.2 L861.3,122.3 L863.3,122.3 L865.3,122.3 L867.3,122.3 L869.3,122.3
		L871.3,122.4 L873.3,122.4 L875.3,122.4 L877.3,122.5 L879.3,122.5 L881.3,122.5 L883.3,122.6 L885.3,122.6
		L887.3,122.6 L889.3,122.7 L891.3,122.7 L893.3,122.8 L895.2,122.8 L897.2,122.9 L899.2,123.0 L901.2,123.1
		L903.2,123.1 L905.2,123.2 L907.2,123.2 L909.2,123.3 L911.2,123.4 L913.2,123.4 L915.2,123.5 L917.2,123.5
		L919.2,123.6 L921.2,123.6 L923.2,123.7 L925.2,123.7 L927.2,123.8 L929.2,123.8 L931.2,123.9 L933.2,123.9
		L935.1,123.9 L937.1,124.0 L939.1,124.0 L941.1,124.0 L943.1,124.1 L945.1,124.1 L947.1,124.2 L949.1,124.2
		L951.1,124.2 L953.1,124.3 L955.1,124.3 L957.1,124.4 L959.1,124.4 L961.1,124.5 L963.1,124.5 L965.1,124.6
		L967.1,124.6 L969.1,124.7 L971.1,124.8 L973.1,124.8 L975.0,124.9 L977.0,125.0 L979.0,125.1 L981.0,125.2
		L983.0,125.2 L985.0,125.4 L987.0,125.4 L989.0,125.6 L991.0,125.6 L993.0,125.8 L995.0,125.8 L997.0,126.0
		L999.0,126.1 L1001.0,126.2 L1003.0,126.3 L1005.0,126.5 L1007.0,126.5 L1009.0,126.7 L1011.0,126.8 L1013.0,127.0
		L1014.9,127.1 L1016.9,127.3 L1018.9,127.4 L1020.9,127.6 L1022.9,127.7 L1024.9,127.9 L1026.9,128.0 L1028.9,128.3
		L1030.9,128.3 L1032.9,128.6  '/></g>
	</g>
<g fill="none" color="white" stroke="rgb(255,   0, 255)" stroke-width="2.00" stroke-linecap="butt" stroke-linejoin="miter">
</g>
<g fill="none" color="black" stroke="currentColor" stroke-width="2.00" stroke-linecap="butt" stroke-linejoin="miter">
</g>
<g fill="none" color="black" stroke="black" stroke-width="1.00" stroke-linecap="butt" stroke-linejoin="miter">
</g>
<g fill="none" color="black" stroke="currentColor" stroke-width="1.00" stroke-linecap="butt" stroke-linejoin="miter">
	<path stroke='black'  d='M157.3,117.1 L157.3,775.2 L1052.8,775.2 L1052.8,117.1 L157.3,117.1 Z  '/></g>
<g fill="none" color="black" stroke="currentColor" stroke-width="1.00" stroke-linecap="butt" stroke-linejoin="miter">
</g>
</g>
</svg>

