13
Coordinates from ORCA-job Ph-N2+-scan-d09-169-n800
  C   -4.31447082072836      0.13243918956781     -1.35772206608322
  C   -2.87833791886573      0.06307561962603     -1.37633579260626
  C   -2.50346426238784      0.91708233840721     -0.42979383969343
  C   -2.87392224447269      1.78629639233423      0.50451940497566
  C   -4.31030595503422      1.77718062359473      0.43677187516446
  C   -4.99642547027095      0.96933020557351     -0.47216798191664
  H   -4.82861280593311     -0.50750875329452     -2.07867420979302
  H   -2.29887971667584     -0.56856921759981     -2.04638615843898
  N   14.24079353134576      0.48235740867158      1.81761508576947
  N   15.32923237265841      0.48173316216924      2.00453106638154
  H   -6.08619568100525      0.99218549610758     -0.49042772891197
  H   -4.82135589019628      2.43820807055916      1.14071655801055
  H   -2.29175513843398      2.39388946428333      1.19415378714188
