<?xml version="1.0" encoding="utf-8"  standalone="no"?>
<!DOCTYPE svg PUBLIC "-//W3C//DTD SVG 1.1//EN"
 "http://www.w3.org/Graphics/SVG/1.1/DTD/svg11.dtd">
<svg 
 width="1400" height="900"
 viewBox="0 0 1400 900"
 xmlns="http://www.w3.org/2000/svg"
 xmlns:xlink="http://www.w3.org/1999/xlink"
>

<title>Gnuplot</title>
<desc>Produced by GNUPLOT 5.0 patchlevel 5 </desc>

<g id="gnuplot_canvas">

<rect x="0" y="0" width="1400" height="900" fill="none"/>
<defs>

	<circle id='gpDot' r='0.5' stroke-width='0.5'/>
	<path id='gpPt0' stroke-width='0.103' stroke='currentColor' d='M-1,0 h2 M0,-1 v2'/>
	<path id='gpPt1' stroke-width='0.103' stroke='currentColor' d='M-1,-1 L1,1 M1,-1 L-1,1'/>
	<path id='gpPt2' stroke-width='0.103' stroke='currentColor' d='M-1,0 L1,0 M0,-1 L0,1 M-1,-1 L1,1 M-1,1 L1,-1'/>
	<rect id='gpPt3' stroke-width='0.103' stroke='currentColor' x='-1' y='-1' width='2' height='2'/>
	<rect id='gpPt4' stroke-width='0.103' stroke='currentColor' fill='currentColor' x='-1' y='-1' width='2' height='2'/>
	<circle id='gpPt5' stroke-width='0.103' stroke='currentColor' cx='0' cy='0' r='1'/>
	<use xlink:href='#gpPt5' id='gpPt6' fill='currentColor' stroke='none'/>
	<path id='gpPt7' stroke-width='0.103' stroke='currentColor' d='M0,-1.33 L-1.33,0.67 L1.33,0.67 z'/>
	<use xlink:href='#gpPt7' id='gpPt8' fill='currentColor' stroke='none'/>
	<use xlink:href='#gpPt7' id='gpPt9' stroke='currentColor' transform='rotate(180)'/>
	<use xlink:href='#gpPt9' id='gpPt10' fill='currentColor' stroke='none'/>
	<use xlink:href='#gpPt3' id='gpPt11' stroke='currentColor' transform='rotate(45)'/>
	<use xlink:href='#gpPt11' id='gpPt12' fill='currentColor' stroke='none'/>
	<path id='gpPt13' stroke-width='0.103' stroke='currentColor' d='M0,1.330 L1.265,0.411 L0.782,-1.067 L-0.782,-1.076 L-1.265,0.411 z'/>
	<use xlink:href='#gpPt13' id='gpPt14' fill='currentColor' stroke='none'/>
	<filter id='textbox' filterUnits='objectBoundingBox' x='0' y='0' height='1' width='1'>
	  <feFlood flood-color='white' flood-opacity='1' result='bgnd'/>
	  <feComposite in='SourceGraphic' in2='bgnd' operator='atop'/>
	</filter>
	<filter id='greybox' filterUnits='objectBoundingBox' x='0' y='0' height='1' width='1'>
	  <feFlood flood-color='lightgrey' flood-opacity='1' result='grey'/>
	  <feComposite in='SourceGraphic' in2='grey' operator='atop'/>
	</filter>
</defs>
<g fill="none" color="white" stroke="black" stroke-width="1.00" stroke-linecap="butt" stroke-linejoin="miter">
</g>
<g fill="none" color="black" stroke="currentColor" stroke-width="1.00" stroke-linecap="butt" stroke-linejoin="miter">
	<path stroke='black'  d='M175.5,736.2 L195.0,736.2 M1052.8,736.2 L1033.3,736.2  '/>	<g transform="translate(157.3,744.7)" stroke="none" fill="black" font-family="Helvetica" font-size="26.00"  text-anchor="end">
		<text><tspan font-family="Helvetica" > 0.08</tspan></text>
	</g>
</g>
<g fill="none" color="black" stroke="currentColor" stroke-width="1.00" stroke-linecap="butt" stroke-linejoin="miter">
	<path stroke='black'  d='M175.5,633.0 L195.0,633.0 M1052.8,633.0 L1033.3,633.0  '/>	<g transform="translate(157.3,641.5)" stroke="none" fill="black" font-family="Helvetica" font-size="26.00"  text-anchor="end">
		<text><tspan font-family="Helvetica" > 0.1</tspan></text>
	</g>
</g>
<g fill="none" color="black" stroke="currentColor" stroke-width="1.00" stroke-linecap="butt" stroke-linejoin="miter">
	<path stroke='black'  d='M175.5,529.8 L195.0,529.8 M1052.8,529.8 L1033.3,529.8  '/>	<g transform="translate(157.3,538.3)" stroke="none" fill="black" font-family="Helvetica" font-size="26.00"  text-anchor="end">
		<text><tspan font-family="Helvetica" > 0.12</tspan></text>
	</g>
</g>
<g fill="none" color="black" stroke="currentColor" stroke-width="1.00" stroke-linecap="butt" stroke-linejoin="miter">
	<path stroke='black'  d='M175.5,426.7 L195.0,426.7 M1052.8,426.7 L1033.3,426.7  '/>	<g transform="translate(157.3,435.2)" stroke="none" fill="black" font-family="Helvetica" font-size="26.00"  text-anchor="end">
		<text><tspan font-family="Helvetica" > 0.14</tspan></text>
	</g>
</g>
<g fill="none" color="black" stroke="currentColor" stroke-width="1.00" stroke-linecap="butt" stroke-linejoin="miter">
	<path stroke='black'  d='M175.5,323.5 L195.0,323.5 M1052.8,323.5 L1033.3,323.5  '/>	<g transform="translate(157.3,332.0)" stroke="none" fill="black" font-family="Helvetica" font-size="26.00"  text-anchor="end">
		<text><tspan font-family="Helvetica" > 0.16</tspan></text>
	</g>
</g>
<g fill="none" color="black" stroke="currentColor" stroke-width="1.00" stroke-linecap="butt" stroke-linejoin="miter">
	<path stroke='black'  d='M175.5,220.3 L195.0,220.3 M1052.8,220.3 L1033.3,220.3  '/>	<g transform="translate(157.3,228.8)" stroke="none" fill="black" font-family="Helvetica" font-size="26.00"  text-anchor="end">
		<text><tspan font-family="Helvetica" > 0.18</tspan></text>
	</g>
</g>
<g fill="none" color="black" stroke="currentColor" stroke-width="1.00" stroke-linecap="butt" stroke-linejoin="miter">
	<path stroke='black'  d='M175.5,117.1 L195.0,117.1 M1052.8,117.1 L1033.3,117.1  '/>	<g transform="translate(157.3,125.6)" stroke="none" fill="black" font-family="Helvetica" font-size="26.00"  text-anchor="end">
		<text><tspan font-family="Helvetica" > 0.2</tspan></text>
	</g>
</g>
<g fill="none" color="black" stroke="currentColor" stroke-width="1.00" stroke-linecap="butt" stroke-linejoin="miter">
	<path stroke='black'  d='M175.5,736.2 L175.5,716.7 M175.5,117.1 L175.5,136.6  '/>	<g transform="translate(175.5,783.7)" stroke="none" fill="black" font-family="Helvetica" font-size="26.00"  text-anchor="middle">
		<text><tspan font-family="Helvetica" > 105</tspan></text>
	</g>
</g>
<g fill="none" color="black" stroke="currentColor" stroke-width="1.00" stroke-linecap="butt" stroke-linejoin="miter">
	<path stroke='black'  d='M273.0,736.2 L273.0,716.7 M273.0,117.1 L273.0,136.6  '/>	<g transform="translate(273.0,783.7)" stroke="none" fill="black" font-family="Helvetica" font-size="26.00"  text-anchor="middle">
		<text><tspan font-family="Helvetica" > 110</tspan></text>
	</g>
</g>
<g fill="none" color="black" stroke="currentColor" stroke-width="1.00" stroke-linecap="butt" stroke-linejoin="miter">
	<path stroke='black'  d='M370.5,736.2 L370.5,716.7 M370.5,117.1 L370.5,136.6  '/>	<g transform="translate(370.5,783.7)" stroke="none" fill="black" font-family="Helvetica" font-size="26.00"  text-anchor="middle">
		<text><tspan font-family="Helvetica" > 115</tspan></text>
	</g>
</g>
<g fill="none" color="black" stroke="currentColor" stroke-width="1.00" stroke-linecap="butt" stroke-linejoin="miter">
	<path stroke='black'  d='M467.9,736.2 L467.9,716.7 M467.9,117.1 L467.9,136.6  '/>	<g transform="translate(467.9,783.7)" stroke="none" fill="black" font-family="Helvetica" font-size="26.00"  text-anchor="middle">
		<text><tspan font-family="Helvetica" > 120</tspan></text>
	</g>
</g>
<g fill="none" color="black" stroke="currentColor" stroke-width="1.00" stroke-linecap="butt" stroke-linejoin="miter">
	<path stroke='black'  d='M565.4,736.2 L565.4,716.7 M565.4,117.1 L565.4,136.6  '/>	<g transform="translate(565.4,783.7)" stroke="none" fill="black" font-family="Helvetica" font-size="26.00"  text-anchor="middle">
		<text><tspan font-family="Helvetica" > 125</tspan></text>
	</g>
</g>
<g fill="none" color="black" stroke="currentColor" stroke-width="1.00" stroke-linecap="butt" stroke-linejoin="miter">
	<path stroke='black'  d='M662.9,736.2 L662.9,716.7 M662.9,117.1 L662.9,136.6  '/>	<g transform="translate(662.9,783.7)" stroke="none" fill="black" font-family="Helvetica" font-size="26.00"  text-anchor="middle">
		<text><tspan font-family="Helvetica" > 130</tspan></text>
	</g>
</g>
<g fill="none" color="black" stroke="currentColor" stroke-width="1.00" stroke-linecap="butt" stroke-linejoin="miter">
	<path stroke='black'  d='M760.4,736.2 L760.4,716.7 M760.4,117.1 L760.4,136.6  '/>	<g transform="translate(760.4,783.7)" stroke="none" fill="black" font-family="Helvetica" font-size="26.00"  text-anchor="middle">
		<text><tspan font-family="Helvetica" > 135</tspan></text>
	</g>
</g>
<g fill="none" color="black" stroke="currentColor" stroke-width="1.00" stroke-linecap="butt" stroke-linejoin="miter">
	<path stroke='black'  d='M857.8,736.2 L857.8,716.7 M857.8,117.1 L857.8,136.6  '/>	<g transform="translate(857.8,783.7)" stroke="none" fill="black" font-family="Helvetica" font-size="26.00"  text-anchor="middle">
		<text><tspan font-family="Helvetica" > 140</tspan></text>
	</g>
</g>
<g fill="none" color="black" stroke="currentColor" stroke-width="1.00" stroke-linecap="butt" stroke-linejoin="miter">
	<path stroke='black'  d='M955.3,736.2 L955.3,716.7 M955.3,117.1 L955.3,136.6  '/>	<g transform="translate(955.3,783.7)" stroke="none" fill="black" font-family="Helvetica" font-size="26.00"  text-anchor="middle">
		<text><tspan font-family="Helvetica" > 145</tspan></text>
	</g>
</g>
<g fill="none" color="black" stroke="currentColor" stroke-width="1.00" stroke-linecap="butt" stroke-linejoin="miter">
	<path stroke='black'  d='M1052.8,736.2 L1052.8,716.7 M1052.8,117.1 L1052.8,136.6  '/>	<g transform="translate(1052.8,783.7)" stroke="none" fill="black" font-family="Helvetica" font-size="26.00"  text-anchor="middle">
		<text><tspan font-family="Helvetica" > 150</tspan></text>
	</g>
</g>
<g fill="none" color="black" stroke="currentColor" stroke-width="1.00" stroke-linecap="butt" stroke-linejoin="miter">
</g>
<g fill="none" color="black" stroke="currentColor" stroke-width="1.00" stroke-linecap="butt" stroke-linejoin="miter">
	<path stroke='black'  d='M175.5,117.1 L175.5,736.2 L1052.8,736.2 L1052.8,117.1 L175.5,117.1 Z  '/></g>
<g fill="none" color="black" stroke="currentColor" stroke-width="1.00" stroke-linecap="butt" stroke-linejoin="miter">
	<g transform="translate(37.0,426.7) rotate(270)" stroke="none" fill="black" font-family="Helvetica-Bold" font-size="26.00"  text-anchor="middle">
		<text><tspan font-family="Helvetica-Bold" >LUMO-HOMO, Hartree</tspan></text>
	</g>
</g>
<g fill="none" color="black" stroke="currentColor" stroke-width="1.00" stroke-linecap="butt" stroke-linejoin="miter">
	<g transform="translate(614.1,842.2)" stroke="none" fill="black" font-family="Helvetica-Bold" font-size="26.00"  text-anchor="middle">
		<text><tspan font-family="Helvetica-Bold" >∠ C2-C1-C6, </tspan><tspan font-family="Helvetica-Bold"  font-size="20.8" dy="-13.00px">o</tspan><tspan font-size="26.0" dy="13.00"></tspan></text>
	</g>
</g>
<g fill="none" color="black" stroke="currentColor" stroke-width="1.00" stroke-linecap="butt" stroke-linejoin="miter">
	<g transform="translate(614.1,67.1)" stroke="none" fill="black" font-family="Helvetica" font-size="26.00"  text-anchor="middle">
		<text><tspan font-family="Helvetica"  font-weight="bold" >XPhN</tspan><tspan font-family="Helvetica"  font-weight="bold"  font-size="20.8" dy="7.80px">2</tspan><tspan font-family="Helvetica"  font-weight="bold"  dy="-20.80px">+</tspan><tspan font-size="26.0" dy="13.00"></tspan></text>
	</g>
</g>
<g fill="none" color="black" stroke="black" stroke-width="0.20" stroke-linecap="butt" stroke-linejoin="miter">
</g>
<g fill="none" color="black" stroke="currentColor" stroke-width="0.20" stroke-linecap="butt" stroke-linejoin="miter">
	<path stroke='black'  d='M1089.2,390.1 L1089.2,117.1 L1381.7,117.1 L1381.7,390.1 L1089.2,390.1 Z  '/></g>
	<g id="gnuplot_plot_1" ><title>PhN2+</title>
<g fill="none" color="white" stroke="black" stroke-width="3.00" stroke-linecap="butt" stroke-linejoin="miter">
</g>
<g fill="none" color="black" stroke="currentColor" stroke-width="3.00" stroke-linecap="butt" stroke-linejoin="miter">
	<g transform="translate(1253.0,145.1)" stroke="none" fill="black" font-family="Helvetica" font-size="26.00"  text-anchor="end">
		<text><tspan font-family="Helvetica" >PhN</tspan><tspan font-family="Helvetica"  font-size="20.8" dy="7.80px">2</tspan><tspan font-family="Helvetica"  dy="-20.80px">+</tspan><tspan font-size="26.0" dy="13.00"></tspan></text>
	</g>
</g>
<g fill="none" color="black" stroke="currentColor" stroke-width="3.00" stroke-linecap="butt" stroke-linejoin="miter">
	<path stroke='rgb(255,   0,   0)'  d='M1271.2,136.6 L1363.5,136.6 M355.4,442.7 L362.0,431.6 L364.7,423.2 L372.8,411.6 L376.2,403.5 L378.7,395.6
		L385.4,385.6 L390.4,376.7 L392.3,370.3 L398.6,361.2 L400.7,355.2 L407.4,346.7 L409.2,341.4 L414.7,334.1
		L417.0,329.0 L420.1,323.7 L423.8,322.7 L431.2,321.1 L433.3,320.5 L436.3,319.7 L439.9,318.9 L447.2,317.6
		L449.2,317.2 L452.2,316.6 L455.7,316.0 L459.3,315.4 L466.6,314.4 L468.7,314.2 L471.6,313.8 L475.0,313.5
		L478.6,313.1 L482.3,312.7 L486.1,312.4 L489.9,312.1 L493.6,311.8 L497.4,311.5 L501.2,311.3 L505.0,311.1
		L508.8,310.8 L512.6,310.6 L516.4,310.3 L520.2,310.1 L524.0,309.8 L527.8,309.5 L531.7,309.2 L535.5,308.8
		L539.4,308.4 L543.3,307.9 L547.2,307.5 L551.1,306.9 L555.1,306.2 L559.0,305.5 L563.0,304.7 L567.0,303.8
		L571.1,302.7 L575.2,301.6 L579.2,300.3 L583.4,299.0 L587.5,297.5 L591.7,295.8 L595.9,294.0 L600.1,292.1
		L604.3,290.0 L608.6,287.8 L612.9,285.4 L617.2,282.8 L621.5,280.0 L625.9,277.0 L630.3,273.9 L634.7,270.6
		L639.1,267.1 L643.5,263.4 L647.9,259.5 L652.4,255.5 L656.8,251.3 L661.3,246.9 L665.7,242.3 L670.2,237.5
		L674.6,232.5 L679.1,227.4 L683.5,222.1 L688.0,216.7 L692.4,211.1 L696.9,205.3 L701.3,199.4 L705.7,193.4
		L710.1,187.2 L714.5,180.9 L718.8,174.5 L723.2,168.0 L727.5,161.4 L731.8,154.8 L736.1,154.1 L740.3,164.4
		L744.6,174.4 L748.8,184.0 L752.9,193.3 L757.1,202.2 L761.2,210.8 L765.3,219.1 L769.3,227.1 L773.3,234.8
		L777.3,242.2 L781.2,249.3 L785.1,256.1 L789.0,262.7 L792.8,269.0 L796.6,275.1 L800.4,280.9 L804.1,286.6
		L807.7,292.0 L811.4,297.2 L814.9,302.2 L818.5,307.0 L822.0,311.6 L825.4,316.0 L828.8,320.3 L832.2,324.4
		L835.5,328.3 L838.8,332.1 L842.1,335.8 L845.3,339.3 L848.4,342.6 L851.5,345.9 L854.5,349.0 L857.5,352.0
		L860.5,354.9 L863.5,357.6 L866.3,360.3 L869.1,362.8 L871.9,365.3 L874.7,367.6 L877.4,369.9 L880.1,372.1
		L882.7,374.2 L885.3,376.2 L887.8,378.1 L890.3,380.0 L892.8,381.8 L895.2,383.5 L897.6,385.1 L899.9,386.7
		L902.2,388.3 L904.5,389.8 L906.7,391.2 L908.9,392.6 L915.5,391.1 L920.6,390.6 L924.6,390.7 L928.0,391.0
		L930.9,391.6 L933.5,392.3 L935.9,393.1 L938.4,393.7 L940.7,394.5 L942.8,395.2 L934.6,402.2 L939.9,400.8
		L943.9,400.3 L947.1,400.2 L949.8,400.4 L944.7,405.5 L949.3,404.1 L952.8,403.6 L955.6,403.6 L950.5,408.4
		L955.1,406.9 L958.5,406.3 L961.2,406.2 L955.8,411.2 L960.3,409.5 L963.7,408.8 L966.4,408.5 L960.6,413.6
		L965.1,411.7 L968.5,410.9 L971.1,410.6 L965.0,415.7 L969.5,413.8 L972.8,412.9 L967.9,417.3 L972.4,415.2
		L975.7,414.2 L970.8,418.6 L975.2,416.5 L978.5,415.4 L973.4,419.9 L977.9,417.7 L981.1,416.6 L975.8,421.0
		L980.3,418.8 L983.5,417.6 L978.1,422.1 L982.5,419.8 L985.7,418.6 L980.2,423.2 L984.6,420.8 L987.7,419.6
		L982.1,424.1 L986.5,421.7 L989.7,420.5 L983.9,425.1 L988.3,422.6 L991.4,421.3 L985.6,425.9 L990.0,423.4
		L993.0,422.1 L987.1,426.7 L991.5,424.2 L994.6,422.8 L988.5,427.5 L992.9,424.9 L996.0,423.5 L989.8,428.2
		L994.2,425.5 L997.2,424.1 L991.0,428.8 L995.4,426.1 L998.4,424.7 L992.1,429.4 L996.5,426.7 L999.5,425.3
		L993.2,430.0 L997.6,427.3 L1000.6,425.8 L994.1,430.6 L998.5,427.8 L1001.5,426.3 L995.0,431.1 L999.4,428.4
		L1002.3,426.8 L995.8,431.7 L1000.2,428.9 L1003.1,427.3 L996.5,432.2 L1000.9,429.3 L1003.9,427.8 L997.2,432.6
		L1001.6,429.8 L1004.5,428.2 L997.8,433.0 L1002.2,430.2 L1005.1,428.6 L998.4,433.5 L1002.8,430.6 L1005.7,429.0
		L998.9,433.8 L1003.3,430.9 L1006.2,429.3 L999.3,434.2 L1003.7,431.3 L1006.7,429.6 L999.8,434.5 L1004.2,431.6
		L999.8,434.9 L1004.3,431.9 L1000.1,435.1 L1004.6,432.1 L1000.3,435.3 L1004.8,432.3 L1000.5,435.5 L1005.0,432.5
		L1000.8,435.7 L1005.3,432.7 L1001.0,435.9 L1005.5,432.9 L1001.2,436.1 L1005.7,433.1 L1001.4,436.3 L1005.9,433.3
		L1001.6,436.5 L1006.1,433.4 L1001.8,436.6 L1006.3,433.6 L1001.9,436.8 L1006.4,433.7 L1002.1,437.0 L1006.6,433.9
		L1002.2,437.1 L1006.7,434.0 L1002.4,437.2 L1006.9,434.2 L1002.5,437.4 L1007.0,434.3 L1002.6,437.5 L1007.1,434.4
		L1002.7,437.6 L1007.2,434.5 L1002.8,437.8 L1007.4,434.7 L1002.9,437.9 L1007.5,434.8 L1003.0,438.0 L1007.6,434.9
		L1003.1,438.1 L1007.7,435.0 L1003.2,438.2 L1007.8,435.1 L1003.3,438.4 L1007.8,435.3 L1003.4,438.5 L1007.9,435.4
		L1003.4,438.6 L1008.0,435.5 L1003.5,438.7 L1008.1,435.6 L1003.6,438.8 L1008.2,435.7 L1003.7,438.9 L1008.2,435.8
		L1003.7,439.0 L1008.3,435.9 L1003.8,439.1 L1008.4,435.9 L1003.9,439.2 L1008.4,436.0 L1003.9,439.3 L1008.5,436.1
		L1004.0,439.3 L1008.5,436.2 L1004.0,439.4 L1008.6,436.3 L1004.1,439.5 L1008.6,436.3 L1004.1,439.6 L1008.7,436.4
		L1004.2,439.7 L1008.7,436.5 L1004.2,439.7 L1008.8,436.6 L1004.2,439.8 L1008.8,436.6 L1004.3,439.9 L1008.9,436.7
		L1004.3,439.9 L1008.9,436.8 L1004.3,440.0 L1008.9,436.8 L1004.4,440.1 L1009.0,436.9 L1004.4,440.2 L1009.0,437.0
		L1004.4,440.2 L1009.0,437.0 L1004.5,440.3 L1009.1,437.1 L1004.5,440.4 L1009.1,437.2 L1004.5,440.4 L1009.1,437.2
		L1004.5,440.5 L1009.1,437.3 L1004.6,440.5 L1009.2,437.3 L1004.6,440.6 L1009.2,437.4 L1004.6,440.6 L1009.2,437.4
		L1004.6,440.7 L1009.2,437.5 L1004.6,440.7 L1009.2,437.5 L1004.7,440.8 L1009.3,437.6 L1004.7,440.8 L1009.3,437.6
		L1004.7,440.9 L1009.3,437.7 L1004.7,441.0 L1009.3,437.7 L1004.7,441.0 L1009.3,437.8 L1004.7,441.0 L1009.3,437.8
		L1004.7,441.1 L1009.4,437.9 L1004.7,441.2 L1009.4,437.9 L1004.7,441.2 L1009.4,438.0 L1004.8,441.3 L1009.4,438.0
		L1004.8,441.3 L1009.4,438.1 L1004.8,441.4 L1009.4,438.1 L1004.8,441.4 L1009.4,438.2 L1004.8,441.4 L1009.4,438.2
		L1004.8,441.5 L1009.4,438.2 L1004.8,441.5 L1009.4,438.3 L1004.8,441.6 L1009.5,438.3 L1004.8,441.6 L1009.5,438.4
		L1004.8,441.6 L1009.5,438.4  '/></g>
	</g>
	<g id="gnuplot_plot_2" ><title>2-NO2PhN2+</title>
<g fill="none" color="black" stroke="currentColor" stroke-width="3.00" stroke-linecap="butt" stroke-linejoin="miter">
	<g transform="translate(1253.0,184.1)" stroke="none" fill="black" font-family="Helvetica" font-size="26.00"  text-anchor="end">
		<text><tspan font-family="Helvetica" >2-NO</tspan><tspan font-family="Helvetica"  font-size="20.8" dy="7.80px">2</tspan><tspan font-family="Helvetica"  font-size="26.0" dy="-7.80px">PhN</tspan><tspan font-family="Helvetica"  font-size="20.8" dy="7.80px">2</tspan><tspan font-family="Helvetica"  dy="-20.80px">+</tspan><tspan font-size="26.0" dy="13.00"></tspan></text>
	</g>
</g>
<g fill="none" color="black" stroke="currentColor" stroke-width="3.00" stroke-linecap="butt" stroke-linejoin="miter">
	<path stroke='rgb(  0,   0, 255)'  d='M1271.2,175.6 L1363.5,175.6 M320.1,482.1 L324.4,478.6 L329.4,474.5 L335.2,470.3 L337.6,467.3 L342.9,462.9
		L347.3,458.8 L349.9,455.7 L355.1,450.5 L359.4,446.0 L361.4,442.8 L366.6,437.0 L370.4,432.4 L372.3,429.2
		L378.2,424.0 L379.6,421.1 L384.8,416.3 L386.7,413.3 L391.6,408.9 L393.7,405.9 L398.1,401.9 L400.9,398.8
		L405.4,394.7 L407.8,391.9 L410.0,388.8 L412.9,385.5 L416.1,382.2 L422.9,378.1 L424.7,375.1 L427.4,372.0
		L432.4,368.4 L434.8,365.2 L437.9,362.0 L444.3,358.2 L446.3,354.9 L451.6,351.3 L453.6,348.1 L459.0,344.6
		L461.1,341.2 L465.8,337.8 L468.2,334.5 L471.1,331.3 L477.0,327.5 L479.4,324.2 L482.4,321.0 L487.8,317.2
		L490.5,313.8 L493.7,310.4 L500.6,306.3 L502.7,302.8 L508.8,299.0 L510.8,295.3 L515.8,291.6 L518.2,288.1
		L521.4,284.6 L527.6,280.5 L530.1,277.4 L533.4,274.8 L539.6,271.9 L542.3,269.2 L545.7,266.3 L552.2,263.1
		L554.9,260.1 L558.2,257.1 L564.6,253.5 L567.4,250.3 L570.9,247.0 L578.9,243.0 L581.1,239.7 L584.3,236.2
		L590.3,232.3 L593.3,228.6 L596.8,224.9 L604.8,220.6 L607.1,217.0 L610.4,213.2 L616.6,208.9 L619.5,205.1
		L623.1,201.2 L631.1,196.8 L633.4,193.1 L636.7,189.3 L643.0,185.1 L645.9,181.5 L649.4,177.7 L657.1,173.6
		L659.5,170.1 L662.7,166.7 L668.9,165.4 L671.8,173.2 L675.3,181.0 L682.7,186.8 L685.1,195.5 L694.7,200.4
		L695.6,210.0 L699.5,218.4 L701.9,228.3 L705.0,237.6 L713.2,243.0 L715.0,253.0 L721.3,259.8 L723.0,269.2
		L729.4,275.6 L731.0,284.6 L733.5,293.2 L738.7,299.5 L741.2,307.8 L744.1,315.4 L747.7,322.4 L751.2,329.1
		L754.8,335.6 L758.4,341.8 L762.0,347.9 L765.6,353.8 L769.1,359.5 L772.6,364.9 L776.0,370.3 L779.4,375.4
		L782.8,380.4 L786.1,385.2 L789.4,389.9 L792.6,394.4 L795.7,398.8 L798.8,403.0 L801.9,407.2 L804.9,411.1
		L807.9,414.9 L810.9,418.6 L813.8,422.2 L816.7,425.6 L819.5,429.0 L822.3,432.2 L825.1,435.3 L827.8,438.3
		L830.5,441.2 L833.1,444.0 L839.5,443.1 L840.7,447.2 L842.2,450.7 L844.0,453.8 L848.8,454.0 L852.7,456.4
		L856.0,458.7 L859.0,460.9 L861.8,463.0 L861.7,465.2 L865.1,467.2 L868.0,469.1 L870.6,471.0 L870.1,473.1
		L873.4,474.8 L876.2,476.4 L878.8,478.0 L877.8,480.0 L881.1,481.5 L883.8,482.9 L886.2,484.3 L885.0,486.3
		L888.2,487.5 L890.9,488.7 L889.9,490.6 L893.1,491.7 L895.7,492.7 L894.6,494.6 L897.8,495.5 L900.3,496.4
		L899.0,498.2 L902.2,499.0 L904.7,499.9 L903.2,501.8 L906.3,502.4 L908.7,503.1 L907.1,505.0 L910.1,505.5
		L914.5,504.2 L917.9,503.4 L913.4,506.9 L918.0,505.8 L921.5,505.2 L913.9,511.1 L919.3,509.4 L923.3,508.4
		L917.0,513.6 L922.4,511.9 L926.4,510.8 L919.8,516.1 L925.2,514.2 L929.2,513.0 L922.5,518.3 L927.9,516.4
		L931.8,515.2 L925.0,520.5 L930.4,518.5 L928.9,520.5 L933.6,518.7 L927.9,523.4 L933.3,521.3 L931.9,523.1
		L936.5,521.3 L930.8,525.9 L936.2,523.6 L934.6,525.4 L939.2,523.6 L933.4,528.1 L938.8,525.9 L934.6,529.3
		L940.0,527.0 L935.8,530.3 L941.1,528.0 L936.9,531.4 L942.2,529.0 L937.9,532.3 L943.2,529.9 L938.9,533.2
		L944.2,530.8 L939.8,534.1 L945.1,531.7 L940.7,535.0 L945.9,532.5 L941.5,535.8 L946.8,533.2 L942.2,536.6
		L947.5,534.0 L942.9,537.4 L948.2,534.8 L943.6,538.1 L948.9,535.5 L944.2,538.8 L949.5,536.2 L944.9,539.4
		L950.1,536.8 L945.5,540.0 L950.7,537.4 L946.1,540.6 L951.3,538.0 L946.5,541.3 L951.7,538.6 L947.1,541.8
		L952.2,539.1 L947.5,542.3 L952.7,539.6 L947.9,542.8 L953.0,540.2 L948.3,543.3 L953.4,540.6 L948.6,543.7
		L953.8,541.1 L948.8,544.3 L954.0,541.5 L949.1,544.7 L954.2,542.0 L949.3,545.1 L950.7,544.6 L951.0,544.7
		L951.2,544.9 L951.2,545.1 L951.3,545.3 L951.2,545.6 L949.4,546.8 L952.6,545.5 L950.3,547.0 L953.1,545.7
		L950.2,547.5 L953.0,546.1 L950.0,547.9 L952.8,546.5 L949.8,548.4 L952.4,546.9 L949.4,548.6 L952.1,547.2
		L949.1,548.8 L951.7,547.4 L948.6,549.0 L951.2,547.5 L948.0,549.0 L950.7,547.5 L947.2,549.1 L949.8,547.4
		L942.9,550.6 L946.5,548.2 L944.4,548.4 L947.2,546.4 L866.3,529.4 L263.2,659.6 L265.3,660.2 L266.8,660.8
		L267.9,661.3 L268.8,661.9 L269.6,662.5 L270.2,663.0 L270.7,663.5 L271.1,664.0 L271.5,664.4 L271.8,664.8
		L272.1,665.2 L272.4,665.6 L272.6,666.0 L272.9,666.3 L273.1,666.6 L273.3,667.0 L273.5,667.3 L273.7,667.6
		L273.9,667.8 L274.1,668.1 L274.3,668.4 L274.5,668.7 L274.7,668.9 L274.9,669.2 L275.1,669.5 L275.2,669.7
		L275.4,670.0 L275.6,670.2 L275.8,670.5 L276.0,670.7 L276.1,671.0 L276.3,671.2 L276.5,671.5 L276.6,671.7
		L276.8,671.9 L277.0,672.2 L265.1,666.7 L268.6,667.6 L271.0,668.5 L272.8,669.4 L274.1,670.2 L275.1,671.0
		L275.9,671.7 L276.5,672.4 L277.1,673.0 L277.5,673.5 L277.9,674.0 L278.2,674.5 L278.5,674.9 L276.8,674.4
		L275.6,673.9 L274.7,673.4 L274.1,673.1 L273.6,672.8 L273.2,672.5 L272.9,672.2 L272.7,672.0 L272.5,671.9
		L272.4,671.7 L272.3,671.6 L272.2,671.6 L272.1,671.5 L272.1,671.4 L272.0,671.4 L272.1,671.4 L272.1,671.5
		L272.1,671.6 L272.2,671.6 L272.2,671.7 L272.2,671.8 L272.3,671.8 L272.3,671.9 L272.3,672.0 L272.4,672.0
		L272.4,672.1 L272.4,671.8 L272.4,672.2 L272.5,672.2 L272.5,672.3 L272.5,672.4 L272.6,672.5 L272.6,672.6
		L272.6,672.7 L272.7,672.7 L272.7,672.8  '/></g>
	</g>
	<g id="gnuplot_plot_3" ><title>3-NO2PhN2+</title>
<g fill="none" color="black" stroke="currentColor" stroke-width="3.00" stroke-linecap="butt" stroke-linejoin="miter">
	<g transform="translate(1253.0,223.1)" stroke="none" fill="black" font-family="Helvetica" font-size="26.00"  text-anchor="end">
		<text><tspan font-family="Helvetica" >3-NO</tspan><tspan font-family="Helvetica"  font-size="20.8" dy="7.80px">2</tspan><tspan font-family="Helvetica"  font-size="26.0" dy="-7.80px">PhN</tspan><tspan font-family="Helvetica"  font-size="20.8" dy="7.80px">2</tspan><tspan font-family="Helvetica"  dy="-20.80px">+</tspan><tspan font-size="26.0" dy="13.00"></tspan></text>
	</g>
</g>
<g fill="none" color="black" stroke="currentColor" stroke-width="3.00" stroke-linecap="butt" stroke-linejoin="miter">
	<path stroke='rgb(  0, 255,   0)'  d='M1271.2,214.6 L1363.5,214.6 M361.0,503.4 L363.3,501.2 L368.4,498.6 L374.7,495.4 L377.1,493.2 L383.5,490.3
		L388.4,487.6 L390.6,485.4 L396.8,482.7 L403.8,479.1 L405.3,477.7 L409.3,475.6 L411.5,473.7 L417.7,471.2
		L419.8,469.4 L422.9,467.5 L426.4,465.6 L433.2,463.3 L435.5,461.6 L441.1,459.5 L443.4,458.0 L449.3,456.0
		L451.4,454.6 L454.3,453.1 L460.5,451.2 L462.7,449.9 L468.6,448.1 L470.6,447.0 L475.8,445.5 L478.0,444.3
		L483.2,442.9 L485.4,441.7 L490.6,440.3 L492.9,439.3 L495.9,438.2 L501.7,436.8 L504.0,435.9 L507.1,434.9
		L513.1,433.4 L515.3,432.6 L518.3,431.5 L524.1,430.2 L526.5,429.2 L529.5,428.2 L535.8,426.7 L538.0,425.7
		L541.0,424.5 L546.7,423.0 L549.2,421.8 L552.4,420.5 L559.1,418.7 L561.3,417.4 L564.3,415.9 L570.1,413.9
		L572.7,412.3 L576.0,410.5 L583.1,407.9 L585.3,406.1 L588.4,404.0 L594.4,401.3 L597.1,398.9 L600.4,396.4
		L607.8,393.0 L610.1,390.3 L613.3,387.4 L619.4,383.7 L622.2,380.5 L625.7,377.0 L633.3,372.5 L635.6,368.9
		L638.9,364.9 L645.1,360.2 L648.0,356.0 L651.5,351.4 L659.4,345.7 L661.7,341.2 L664.9,336.2 L671.1,330.4
		L674.0,325.2 L677.5,319.7 L685.5,312.9 L687.8,307.4 L691.0,301.6 L697.1,294.8 L699.9,288.8 L703.4,282.5
		L711.4,274.9 L713.6,268.7 L720.6,261.2 L722.5,254.9 L725.4,248.4 L731.0,257.1 L733.8,268.3 L737.1,278.9
		L744.5,287.0 L746.8,297.4 L749.8,307.0 L755.5,314.9 L758.2,323.9 L761.4,332.5 L768.4,338.5 L770.6,346.9
		L773.5,354.7 L778.9,360.7 L781.4,368.0 L784.4,374.8 L791.1,379.1 L793.2,385.9 L799.9,389.7 L801.3,396.4
		L803.6,402.3 L809.1,406.0 L811.0,411.7 L813.5,416.8 L818.3,420.4 L820.6,425.2 L823.2,429.7 L829.1,431.9
		L830.9,436.4 L833.2,440.5 L837.7,443.1 L839.8,447.0 L842.2,450.5 L847.3,452.0 L849.0,455.7 L851.2,459.0
		L855.3,460.8 L857.2,463.9 L859.4,466.7 L864.3,467.6 L865.9,470.6 L867.8,473.2 L871.6,474.5 L873.3,477.0
		L875.3,479.2 L880.0,479.6 L881.3,482.0 L883.1,484.1 L886.4,485.1 L888.0,487.1 L889.8,488.9 L893.8,489.2
		L895.1,491.1 L896.7,492.8 L899.8,493.4 L901.2,495.1 L904.6,495.4 L907.7,495.7 L913.1,495.0 L917.2,494.9
		L917.7,496.6 L921.7,496.5 L924.9,496.7 L923.3,499.4 L927.3,499.0 L923.9,502.5 L928.9,501.6 L932.7,501.2
		L928.9,504.8 L933.8,503.7 L937.6,503.2 L936.5,505.5 L940.6,504.7 L943.8,504.5 L942.2,506.8 L945.9,506.2
		L948.8,506.0 L946.5,508.5 L950.0,507.8 L944.6,511.7 L949.5,510.3 L953.3,509.5 L949.9,512.5 L954.4,511.2
		L952.5,513.3 L956.8,511.9 L952.5,515.2 L957.5,513.5 L961.2,512.6 L959.6,514.4 L963.3,513.3 L966.1,512.8
		L963.3,515.2 L966.7,514.1 L960.2,518.4 L965.2,516.4 L968.7,515.4 L962.8,519.3 L967.7,517.4 L971.3,516.2
		L965.1,520.3 L970.0,518.3 L966.5,520.9 L971.4,518.9 L974.9,517.7 L970.6,520.8 L974.9,519.0 L972.0,521.3
		L976.3,519.5 L971.1,522.9 L976.0,520.7 L974.0,522.4 L972.4,523.7 L977.5,521.5 L981.0,520.2 L979.0,521.9
		L982.4,520.5 L975.4,524.8 L980.3,522.5 L983.7,521.2 L978.8,524.4 L983.1,522.4 L980.6,524.3 L984.5,522.5
		L978.4,526.2 L983.3,523.9 L986.7,522.4 L982.3,525.4 L986.4,523.5 L980.4,527.0 L985.3,524.7 L981.1,527.4
		L985.9,525.0 L983.5,526.8 L981.6,528.1 L986.6,525.6 L990.0,524.2 L987.0,526.3 L990.6,524.6 L983.4,528.7
		L988.3,526.3 L991.6,524.8 L984.3,529.1 L989.1,526.7 L984.7,529.4 L989.5,527.0 L986.9,528.7 L984.9,530.0
		L989.9,527.5 L993.3,525.9 L990.7,527.8 L994.0,526.1 L986.3,530.5 L991.2,528.0 L994.5,526.4 L989.0,529.8
		L993.2,527.6 L989.0,530.2 L993.3,527.9 L989.4,530.3 L993.7,528.1 L989.7,530.5 L987.5,531.7 L992.5,529.1
		L988.0,531.9 L992.9,529.2 L988.3,532.0 L993.3,529.4 L988.6,532.2 L993.5,529.6 L988.8,532.4 L993.7,529.7
		L989.1,532.5 L994.0,529.9 L989.0,532.8 L994.0,530.2 L989.4,532.9 L994.3,530.3 L989.6,533.1 L994.5,530.4
		L989.8,533.2 L994.7,530.6 L990.0,533.4 L994.9,530.7 L987.8,535.3 L991.8,532.8 L996.2,530.5 L990.5,533.7
		L995.4,531.1 L989.1,535.1 L992.5,532.9 L996.8,530.7 L990.8,534.1 L995.7,531.4 L990.6,534.3 L995.6,531.6
		L990.7,534.4 L995.7,531.7 L991.0,534.5 L995.9,531.8 L991.1,534.6 L996.1,531.9 L991.2,534.7 L996.1,532.0
		L991.2,534.9 L996.2,532.1 L991.4,534.9 L996.3,532.2 L991.3,535.1 L996.3,532.4 L992.8,534.6 L994.4,533.9
		L998.4,531.5 L991.5,535.4 L996.5,532.7 L991.7,535.4 L996.7,532.7 L991.6,535.6 L996.6,532.8 L990.6,536.7
		L993.9,534.5 L998.2,532.3 L992.0,535.7 L996.9,533.0 L991.8,536.0 L996.8,533.2 L991.9,536.0 L996.9,533.2
		L992.1,536.0 L997.0,533.2 L991.9,536.2 L996.9,533.4 L992.1,536.2 L997.1,533.4 L992.2,536.3 L997.2,533.5
		L992.2,536.3 L997.2,533.6 L992.1,536.5 L997.2,533.7 L992.3,536.5 L997.3,533.7 L989.2,538.9 L993.7,535.9
		L998.2,533.5 L992.5,536.6 L997.4,533.9 L992.3,536.8 L997.3,534.0 L993.9,536.1 L994.2,535.9 L998.6,533.5
		L992.6,536.9 L997.5,534.1 L992.4,537.0 L997.5,534.2 L993.1,536.9 L995.4,535.4 L999.4,533.3 L992.4,537.2
		L997.5,534.4 L992.6,537.2 L997.6,534.4 L992.4,537.3 L997.5,534.5 L992.5,537.4 L997.6,534.6 L992.6,537.4
		L997.7,534.5 L992.5,537.5 L997.5,534.7 L992.5,537.5 L997.6,534.7 L990.8,539.0 L994.5,536.5 L998.9,534.2
		L992.8,537.6 L997.8,534.8 L992.6,537.7 L997.6,534.9 L993.9,537.2 L995.6,536.2 L999.7,534.0 L992.6,537.9
		L997.7,535.0 L992.7,537.8 L997.8,535.0 L992.5,538.0 L997.6,535.1 L992.7,538.0 L997.7,535.1 L992.7,538.0
		L997.7,535.2 L992.7,538.0 L997.8,535.2 L992.5,538.2 L997.6,535.4 L992.7,538.2 L997.7,535.3 L992.7,538.2
		L997.8,535.4 L992.7,538.2 L997.8,535.4 L992.7,538.3 L997.8,535.4 L992.6,538.4 L997.7,535.5 L992.8,538.3
		L997.8,535.5 L992.6,538.5  '/></g>
	</g>
	<g id="gnuplot_plot_4" ><title>4-NO2PhN2+</title>
<g fill="none" color="black" stroke="currentColor" stroke-width="3.00" stroke-linecap="butt" stroke-linejoin="miter">
	<g transform="translate(1253.0,262.1)" stroke="none" fill="black" font-family="Helvetica" font-size="26.00"  text-anchor="end">
		<text><tspan font-family="Helvetica" >4-NO</tspan><tspan font-family="Helvetica"  font-size="20.8" dy="7.80px">2</tspan><tspan font-family="Helvetica"  font-size="26.0" dy="-7.80px">PhN</tspan><tspan font-family="Helvetica"  font-size="20.8" dy="7.80px">2</tspan><tspan font-family="Helvetica"  dy="-20.80px">+</tspan><tspan font-size="26.0" dy="13.00"></tspan></text>
	</g>
</g>
<g fill="none" color="black" stroke="currentColor" stroke-width="3.00" stroke-linecap="butt" stroke-linejoin="miter">
	<path stroke='rgb(230, 159,   0)'  d='M1271.2,253.6 L1363.5,253.6 M363.6,540.0 L367.8,537.9 L370.2,535.5 L377.0,532.5 L381.3,530.1 L386.3,527.5
		L390.5,525.0 L395.5,522.3 L398.4,520.4 L402.2,518.1 L407.2,515.9 L412.2,513.4 L415.0,511.7 L420.1,509.4
		L422.0,507.9 L426.8,505.9 L431.4,503.8 L435.4,502.2 L437.6,500.7 L440.7,499.1 L447.1,497.3 L449.3,495.8
		L455.3,494.1 L457.3,492.9 L460.3,491.5 L466.2,490.1 L470.7,488.6 L472.7,487.5 L475.7,486.4 L479.0,485.2
		L485.3,483.8 L487.6,482.9 L490.7,481.8 L496.7,480.6 L499.1,479.7 L502.1,478.8 L508.1,477.6 L510.5,476.7
		L513.5,475.8 L519.5,474.6 L521.9,473.8 L525.0,472.9 L531.1,471.7 L533.4,470.8 L536.5,469.9 L542.5,468.6
		L544.9,467.7 L548.1,466.6 L554.4,465.2 L556.8,464.1 L560.0,463.0 L566.2,461.4 L568.7,460.1 L571.9,458.7
		L578.2,456.9 L580.8,455.4 L584.1,453.7 L590.7,451.6 L593.3,449.8 L596.6,447.8 L603.0,445.3 L605.8,443.2
		L609.2,440.9 L616.3,437.9 L618.9,435.4 L622.3,432.6 L628.8,429.3 L631.7,426.4 L635.2,423.2 L642.7,419.3
		L645.2,416.0 L648.7,412.5 L655.2,408.2 L658.2,404.5 L661.8,400.5 L669.5,395.6 L672.1,391.5 L675.5,387.1
		L682.1,382.1 L685.0,377.6 L688.7,372.8 L696.5,367.2 L699.0,362.4 L702.4,357.5 L708.9,351.8 L711.9,346.7
		L715.5,341.5 L723.3,335.3 L725.8,330.2 L729.1,324.9 L735.4,318.9 L738.3,313.7 L741.8,308.3 L749.7,315.4
		L752.1,327.0 L755.2,338.0 L761.3,347.2 L764.1,357.6 L767.5,367.4 L775.1,374.8 L777.4,384.4 L780.4,393.4
		L786.1,400.8 L788.9,409.3 L792.1,417.3 L800.5,422.3 L802.2,430.6 L804.8,438.1 L810.1,443.9 L812.6,450.9
		L815.6,457.5 L822.6,461.6 L824.6,468.2 L827.2,474.3 L832.2,478.8 L834.6,484.6 L837.4,489.9 L844.0,492.9
		L845.9,498.3 L848.3,503.3 L853.1,506.8 L855.3,511.5 L857.9,515.8 L864.2,517.8 L865.9,522.4 L868.1,526.5
		L872.4,529.2 L874.5,533.1 L876.9,536.6 L882.7,538.0 L884.3,541.8 L886.3,545.1 L890.3,547.2 L892.2,550.4
		L894.4,553.3 L898.3,555.1 L900.2,557.9 L904.1,559.4 L905.8,562.2 L907.7,564.7 L911.6,566.0 L913.2,568.5
		L916.7,569.8 L918.2,572.2 L920.0,574.3 L923.5,575.4 L929.5,574.8 L934.3,574.9 L933.3,578.2 L938.3,578.0
		L942.3,578.4 L941.5,581.6 L946.2,581.4 L949.9,581.7 L949.1,584.7 L953.1,584.6 L956.5,585.0 L954.1,588.7
		L958.4,588.3 L961.7,588.5 L960.4,591.4 L964.3,591.1 L967.4,591.3 L964.7,594.9 L968.8,594.3 L972.0,594.2
		L970.2,597.2 L974.0,596.5 L977.0,596.5 L973.9,600.2 L977.8,599.3 L973.0,603.9 L978.1,602.3 L981.9,601.6
		L977.0,606.1 L982.1,604.5 L979.3,607.7 L984.4,605.9 L988.1,605.0 L982.9,609.6 L987.9,607.7 L991.6,606.8
		L986.2,611.5 L991.1,609.5 L994.8,608.5 L993.2,610.7 L996.9,609.5 L999.6,608.9 L995.8,612.5 L999.5,611.1
		L993.6,615.9 L998.6,613.7 L1002.2,612.4 L996.2,617.3 L1001.2,615.1 L1004.7,613.8 L998.6,618.6 L1003.5,616.4
		L999.8,619.6 L1004.8,617.3 L1008.4,615.9 L1002.0,620.8 L1006.9,618.4 L1010.4,617.0 L1003.9,622.0 L1008.8,619.5
		L1012.3,618.1 L1007.5,622.0 L1011.8,619.8 L1008.3,622.9 L1012.7,620.6 L1009.4,623.5 L1013.8,621.2 L1010.3,624.2
		L1014.7,621.9 L1013.2,623.5 L1017.0,621.6 L1010.4,626.5 L1015.4,623.7 L1018.8,622.1 L1014.8,625.3 L1018.7,623.2
		L1012.5,627.9 L1017.5,625.1 L1020.9,623.4 L1013.8,628.5 L1018.6,625.8 L1022.0,624.1 L1016.8,628.1 L1021.0,625.7
		L1016.9,628.8 L1021.3,626.4 L1019.7,627.9 L1023.4,625.9 L1016.4,630.9 L1021.4,628.0 L1024.7,626.2 L1020.6,629.4
		L1024.4,627.2 L1017.7,631.9 L1022.7,629.0 L1026.0,627.2 L1020.4,631.3 L1024.7,628.7 L1022.5,630.6 L1026.2,628.4
		L1019.3,633.3 L1024.2,630.3 L1027.5,628.4 L1021.7,632.6 L1026.0,630.0 L1022.7,632.6 L1026.8,630.1 L1020.5,634.5
		L1025.3,631.6 L1028.7,629.6 L1021.2,634.8 L1026.1,631.8 L1029.3,630.0 L1026.2,632.4 L1029.5,630.3 L1021.7,635.7
		L1026.7,632.6 L1030.0,630.7 L1024.1,634.9 L1028.4,632.2 L1024.2,635.3 L1028.6,632.5 L1024.3,635.6 L1028.7,632.9
		L1026.9,634.4 L1030.5,632.1 L1023.0,637.2 L1028.0,634.1 L1031.3,632.1 L1026.2,635.8 L1030.2,633.2 L1023.5,637.8
		L1028.5,634.7 L1031.8,632.7 L1025.8,636.9 L1030.1,634.1 L1026.4,636.7 L1030.6,634.1 L1024.1,638.5 L1029.0,635.4
		L1024.0,638.9 L1029.0,635.7 L1032.4,633.6 L1026.5,637.7 L1030.8,634.9 L1026.3,638.1 L1030.7,635.3 L1028.2,637.2
		L1032.0,634.7 L1024.8,639.6 L1029.8,636.4 L1024.7,639.9 L1029.7,636.7 L1024.9,640.1 L1029.9,636.8 L1025.0,640.2
		L1030.0,637.0 L1025.1,640.4 L1030.1,637.2 L1025.2,640.6 L1030.2,637.3 L1025.3,640.7 L1030.3,637.5 L1025.4,640.9
		L1030.4,637.6 L1025.5,641.1 L1030.5,637.8 L1025.6,641.2 L1030.6,637.9 L1025.6,641.3 L1030.6,638.0 L1025.7,641.4
		L1030.7,638.1 L1025.7,641.6 L1030.8,638.3 L1025.8,641.7 L1030.9,638.4 L1025.9,641.8 L1030.9,638.5 L1025.9,642.0
		L1030.9,638.6 L1026.0,642.1 L1031.0,638.7 L1026.0,642.2 L1031.1,638.9 L1026.1,642.3 L1031.1,639.0 L1026.1,642.4
		L1031.2,639.1 L1026.2,642.5 L1031.2,639.2 L1026.2,642.7 L1031.3,639.3 L1026.3,642.8 L1031.3,639.4 L1026.3,642.9
		L1031.4,639.5 L1026.3,643.0 L1031.4,639.7 L1026.3,643.1 L1031.4,639.8 L1026.4,643.2 L1031.5,639.9 L1026.4,643.3
		L1031.5,640.0 L1026.5,643.4 L1031.5,640.1 L1026.5,643.5 L1031.6,640.2 L1026.5,643.6 L1031.6,640.2 L1026.6,643.7
		L1031.6,640.3 L1026.6,643.8 L1031.7,640.4 L1026.6,643.9 L1031.7,640.5 L1026.6,643.9 L1031.7,640.6 L1026.6,644.0
		L1031.7,640.7 L1026.6,644.1 L1031.7,640.7 L1026.7,644.2 L1031.8,640.8 L1026.7,644.3 L1031.8,640.9 L1026.7,644.3
		L1031.8,641.0 L1026.7,644.4 L1031.8,641.0 L1026.7,644.5 L1031.8,641.1 L1026.8,644.6 L1031.9,641.2 L1026.8,644.7
		L1031.9,641.3 L1026.8,644.7 L1031.9,641.3 L1026.8,644.8 L1031.9,641.4 L1026.8,644.9 L1031.9,641.5 L1026.8,645.0
		L1031.9,641.6 L1026.9,645.0 L1032.0,641.6 L1026.8,645.1 L1032.0,641.7 L1026.9,645.2 L1032.0,641.8 L1026.9,645.2
		L1032.0,641.8 L1026.9,645.3  '/></g>
	</g>
	<g id="gnuplot_plot_5" ><title>2-MeOPhN2+</title>
<g fill="none" color="black" stroke="currentColor" stroke-width="3.00" stroke-linecap="butt" stroke-linejoin="miter">
	<g transform="translate(1253.0,301.1)" stroke="none" fill="black" font-family="Helvetica" font-size="26.00"  text-anchor="end">
		<text><tspan font-family="Helvetica" >2-MeOPhN</tspan><tspan font-family="Helvetica"  font-size="20.8" dy="7.80px">2</tspan><tspan font-family="Helvetica"  dy="-20.80px">+</tspan><tspan font-size="26.0" dy="13.00"></tspan></text>
	</g>
</g>
<g fill="none" color="black" stroke="currentColor" stroke-width="3.00" stroke-linecap="butt" stroke-linejoin="miter">
	<path stroke='rgb(240, 228,  66)'  d='M1271.2,292.6 L1363.5,292.6 M358.4,468.8 L365.8,462.3 L369.9,457.5 L372.3,453.6 L378.9,448.3 L382.4,444.6
		L384.8,441.7 L390.9,437.7 L395.1,434.6 L397.0,432.7 L403.5,429.4 L404.9,428.1 L409.5,426.0 L411.7,424.7
		L417.8,422.5 L419.4,421.8 L423.9,420.3 L426.2,419.6 L429.2,418.8 L432.6,418.1 L439.2,416.9 L441.2,416.6
		L444.2,416.2 L447.6,415.9 L451.2,415.6 L454.9,415.4 L462.1,414.8 L464.2,414.9 L467.2,415.0 L470.6,415.1
		L474.3,415.2 L478.0,415.4 L481.8,415.6 L485.6,415.9 L489.5,416.2 L493.3,416.5 L497.1,416.9 L500.9,417.3
		L504.7,417.7 L508.5,418.2 L512.4,418.6 L516.2,419.1 L520.0,419.6 L523.8,420.1 L527.6,420.5 L531.5,421.0
		L535.3,421.4 L539.2,421.8 L543.1,422.2 L547.0,422.5 L550.9,422.8 L554.8,423.0 L558.8,423.1 L562.8,423.2
		L566.8,423.2 L570.9,423.1 L575.0,422.8 L579.1,422.6 L583.2,422.1 L587.4,421.6 L591.6,420.9 L595.8,420.2
		L600.1,419.2 L604.4,418.2 L608.7,416.9 L613.0,415.6 L617.4,414.0 L621.8,412.3 L626.2,410.5 L630.6,408.4
		L635.0,406.1 L639.5,403.8 L643.9,401.2 L648.4,398.4 L652.9,395.5 L657.4,392.3 L661.9,389.0 L666.3,385.5
		L670.8,381.8 L675.3,378.0 L679.8,373.9 L684.3,369.8 L688.8,365.4 L693.2,360.8 L697.7,356.2 L702.1,351.3
		L706.5,346.4 L710.9,341.3 L715.3,336.0 L719.6,330.6 L723.9,325.2 L728.2,326.2 L732.5,337.7 L736.7,348.9
		L740.9,359.9 L745.1,370.4 L749.2,380.7 L753.3,390.6 L757.4,400.1 L761.4,409.3 L765.4,418.2 L769.4,426.8
		L773.3,435.1 L777.2,443.1 L781.0,450.8 L784.8,458.2 L788.6,465.4 L792.3,472.3 L795.9,478.9 L799.5,485.4
		L803.1,491.6 L806.7,497.5 L810.2,503.3 L813.6,508.8 L817.0,514.2 L820.3,519.3 L823.6,524.3 L826.9,529.1
		L830.1,533.7 L833.3,538.2 L836.4,542.4 L839.5,546.6 L842.5,550.5 L845.5,554.4 L848.5,558.1 L851.3,561.7
		L854.1,565.2 L856.9,568.5 L859.7,571.7 L862.4,574.8 L865.1,577.8 L867.7,580.7 L870.3,583.5 L872.8,586.2
		L875.3,588.8 L877.8,591.2 L880.2,593.7 L882.6,596.0 L886.7,596.7 L890.2,597.8 L893.3,599.2 L896.1,600.7
		L898.7,602.3 L901.1,603.9 L903.4,605.5 L905.6,607.1 L907.7,608.7 L909.8,610.3 L911.8,611.8 L913.8,613.2
		L915.7,614.7 L917.5,616.0 L919.3,617.4 L921.1,618.7 L922.9,620.0 L924.6,621.2 L926.2,622.4 L927.9,623.5
		L929.5,624.6 L931.0,625.7 L932.6,626.7 L934.1,627.8 L935.5,628.7 L937.0,629.7 L938.4,630.6 L939.8,631.5
		L941.1,632.4 L945.5,631.8 L939.9,637.8 L945.5,636.1 L949.6,635.3 L952.8,634.9 L945.4,640.9 L950.9,639.1
		L955.0,638.1 L958.2,637.6 L949.9,643.7 L955.3,641.8 L959.3,640.7 L962.3,640.1 L953.8,646.3 L959.1,644.3
		L963.1,643.1 L966.0,642.4 L957.2,648.7 L962.6,646.5 L966.5,645.3 L969.4,644.5 L960.4,650.9 L965.8,648.6
		L969.6,647.2 L972.5,646.4 L963.2,652.9 L968.6,650.5 L972.4,649.1 L975.3,648.2 L965.8,654.7 L971.1,652.3
		L974.9,650.8 L969.6,654.7 L974.3,652.6 L977.7,651.3 L969.1,657.2 L974.4,654.7 L978.2,653.1 L972.7,657.1
		L977.4,654.8 L980.7,653.5 L971.9,659.4 L977.2,656.8 L981.0,655.1 L975.3,659.1 L980.1,656.8 L983.3,655.3
		L974.3,661.4 L979.7,658.6 L983.4,656.9 L977.6,660.9 L982.3,658.5 L985.6,657.0 L976.4,663.1 L981.8,660.3
		L985.5,658.4 L979.5,662.5 L984.2,660.0 L987.5,658.5 L978.2,664.6 L983.5,661.7 L987.2,659.8 L981.2,664.0
		L985.9,661.4 L989.1,659.8 L979.7,666.0 L985.0,663.0 L988.7,661.2 L982.5,665.3 L987.2,662.7 L990.4,661.1
		L980.9,667.3 L986.2,664.3 L989.8,662.3 L983.5,666.5 L988.2,663.9 L991.5,662.2 L981.9,668.4 L987.2,665.3
		L990.9,663.4 L984.5,667.5 L989.2,664.8 L992.4,663.1 L982.7,669.3 L988.1,666.3 L991.8,664.3 L983.2,669.8
		L988.5,666.7 L992.2,664.7 L985.8,668.8 L990.5,666.1 L985.5,669.4 L990.4,666.6 L993.6,664.8 L984.0,670.9
		L989.4,667.8 L993.1,665.7 L984.4,671.3 L989.7,668.1 L993.4,666.1 L984.6,671.6 L990.0,668.5 L993.7,666.4
		L984.9,672.0 L990.3,668.8 L993.9,666.7 L985.1,672.3 L990.5,669.1 L994.1,667.0 L985.3,672.6 L990.7,669.4
		L994.3,667.3 L985.5,672.9 L990.9,669.6 L987.5,671.9 L992.4,669.0 L987.6,672.1 L992.4,669.2 L987.6,672.3
		L992.5,669.3 L987.7,672.4 L992.6,669.5 L987.8,672.6 L992.7,669.6 L987.9,672.7 L992.8,669.8 L988.0,672.9
		L992.9,669.9 L988.0,673.0 L992.9,670.0 L988.1,673.2 L993.0,670.2 L988.2,673.4 L993.1,670.3 L988.3,673.5
		L993.1,670.5 L988.3,673.6 L993.2,670.6 L988.4,673.7 L993.3,670.7 L988.5,673.9 L993.4,670.8 L988.6,673.9
		L993.5,670.9 L988.6,674.0 L993.5,671.0 L988.6,674.2 L993.6,671.1 L988.7,674.2 L993.6,671.2 L988.8,674.3
		L993.7,671.3 L988.9,674.3 L993.8,671.3 L989.0,674.4 L993.9,671.4 L989.0,674.5 L993.9,671.5 L988.9,674.7
		L993.9,671.6 L989.0,674.7 L993.9,671.6 L989.2,674.7 L994.0,671.7 L989.0,674.9 L994.0,671.8 L989.1,675.0
		L994.0,671.9 L989.1,675.1 L994.0,672.0 L989.1,675.2 L994.1,672.1 L989.2,675.2 L994.1,672.1 L989.3,675.3
		L994.2,672.2 L989.2,675.4 L994.2,672.3 L989.3,675.4 L994.3,672.3 L989.3,675.5 L994.3,672.4 L989.4,675.5
		L994.3,672.4 L989.4,675.6 L994.3,672.5 L989.4,675.7 L994.3,672.5 L989.4,675.7 L994.4,672.6 L989.4,675.8
		L994.4,672.6 L989.4,675.8 L994.4,672.7 L989.5,675.9 L994.4,672.7 L989.5,675.9 L994.4,672.8 L989.5,676.0
		L994.4,672.8 L989.5,676.0 L994.4,672.9 L989.5,676.1 L994.5,672.9 L989.5,676.2 L994.5,673.0 L989.5,676.2
		L994.5,673.0 L989.5,676.3 L994.5,673.1 L989.5,676.3 L994.5,673.1 L989.5,676.4 L994.5,673.2 L989.5,676.4
		L994.5,673.2 L989.5,676.4 L994.5,673.3 L989.5,676.5 L994.5,673.3 L989.5,676.5 L994.5,673.3 L989.5,676.5
		L994.5,673.4 L989.5,676.6 L994.5,673.4 L989.5,676.6 L994.5,673.4 L989.5,676.6 L994.5,673.4 L989.5,676.6
		L994.5,673.4 L989.5,676.6  '/></g>
	</g>
	<g id="gnuplot_plot_6" ><title>3-MeOPhN2+</title>
<g fill="none" color="black" stroke="currentColor" stroke-width="3.00" stroke-linecap="butt" stroke-linejoin="miter">
	<g transform="translate(1253.0,340.1)" stroke="none" fill="black" font-family="Helvetica" font-size="26.00"  text-anchor="end">
		<text><tspan font-family="Helvetica" >3-MeOPhN</tspan><tspan font-family="Helvetica"  font-size="20.8" dy="7.80px">2</tspan><tspan font-family="Helvetica"  dy="-20.80px">+</tspan><tspan font-size="26.0" dy="13.00"></tspan></text>
	</g>
</g>
<g fill="none" color="black" stroke="currentColor" stroke-width="3.00" stroke-linecap="butt" stroke-linejoin="miter">
	<path stroke='rgb(  0, 114, 178)'  d='M1271.2,331.6 L1363.5,331.6 M373.7,596.4 L377.9,593.4 L382.0,590.9 L384.7,588.8 L391.9,585.7 L396.5,583.1
		L398.7,581.5 L406.0,578.3 L408.6,576.8 L411.2,575.1 L418.0,572.4 L420.1,571.0 L426.3,568.5 L428.4,567.4
		L431.5,565.9 L435.1,564.3 L443.1,561.9 L444.9,561.0 L450.8,559.0 L452.8,558.3 L455.8,557.2 L459.3,556.1
		L463.0,555.0 L470.5,553.2 L472.6,552.6 L475.6,551.8 L479.0,551.0 L482.6,550.2 L486.4,549.4 L490.2,548.7
		L494.0,548.0 L497.8,547.4 L501.7,546.8 L505.5,546.2 L509.3,545.7 L513.1,545.2 L516.9,544.7 L520.7,544.3
		L524.5,543.8 L528.4,543.4 L532.2,543.0 L536.0,542.6 L539.8,542.1 L543.7,541.7 L547.5,541.2 L551.4,540.7
		L555.3,540.1 L559.2,539.5 L563.1,538.9 L567.1,538.2 L571.0,537.4 L575.0,536.6 L579.0,535.7 L583.1,534.7
		L587.1,533.6 L591.2,532.4 L595.3,531.1 L599.5,529.7 L603.6,528.1 L607.8,526.4 L612.0,524.6 L616.3,522.6
		L620.5,520.5 L624.8,518.2 L629.1,515.8 L633.4,513.2 L637.8,510.5 L642.1,507.5 L646.5,504.4 L650.9,501.2
		L655.3,497.7 L659.7,494.0 L664.2,490.2 L668.6,486.2 L673.0,482.0 L677.5,477.7 L681.9,473.1 L686.4,468.4
		L690.8,463.6 L695.3,458.5 L699.7,453.3 L704.2,447.9 L708.6,442.4 L713.0,436.7 L717.5,430.9 L721.9,425.0
		L726.2,418.9 L730.6,412.7 L735.0,406.4 L739.3,400.0 L743.6,393.4 L747.9,386.8 L752.1,386.0 L756.4,395.8
		L760.6,405.5 L764.8,414.9 L769.0,424.1 L773.1,433.0 L777.2,441.5 L781.2,449.7 L785.2,457.7 L789.2,465.3
		L793.2,472.7 L797.1,479.8 L801.0,486.6 L804.9,493.2 L808.7,499.5 L812.5,505.5 L816.2,511.4 L819.9,517.0
		L823.5,522.3 L827.2,527.5 L830.7,532.5 L834.3,537.3 L837.8,541.9 L841.2,546.3 L844.6,550.5 L848.0,554.6
		L851.3,558.5 L854.6,562.2 L857.8,565.8 L861.0,569.3 L864.1,572.6 L867.2,575.8 L870.2,578.9 L873.2,581.9
		L876.1,584.7 L879.0,587.4 L881.9,590.0 L884.7,592.5 L887.5,594.9 L890.3,597.2 L893.0,599.4 L895.7,601.5
		L898.3,603.5 L900.9,605.5 L903.5,607.3 L906.0,609.1 L908.5,610.8 L910.9,612.5 L913.3,614.1 L915.6,615.6
		L917.9,617.1 L921.9,617.6 L925.1,618.5 L928.0,619.4 L930.6,620.4 L933.2,621.3 L938.4,620.3 L942.6,620.0
		L946.1,620.0 L949.1,620.3 L943.5,625.3 L948.8,624.2 L952.8,623.9 L956.1,623.9 L958.9,624.1 L961.3,624.5
		L963.5,624.9 L955.7,631.2 L960.9,629.7 L965.0,629.0 L968.3,628.7 L970.9,628.8 L963.5,634.5 L968.8,632.9
		L972.7,632.1 L975.8,631.7 L971.1,635.9 L975.7,634.4 L979.1,633.7 L981.8,633.4 L974.0,639.2 L979.2,637.3
		L983.0,636.2 L986.0,635.6 L980.7,639.9 L985.2,638.1 L988.6,637.2 L983.8,641.2 L988.3,639.3 L991.6,638.3
		L986.7,642.4 L991.2,640.4 L994.5,639.3 L989.5,643.4 L994.0,641.4 L997.2,640.2 L992.0,644.4 L996.5,642.3
		L999.7,641.1 L994.2,645.3 L998.7,643.0 L1001.9,641.8 L996.1,646.1 L1000.7,643.7 L1003.9,642.3 L997.2,646.7
		L1002.0,644.0 L1005.2,642.2 L996.0,646.9 L1001.3,643.0 L1004.9,640.4 L959.4,596.2 L965.2,594.1 L969.5,592.7
		L966.3,595.3 L970.7,593.4 L966.8,595.7 L971.3,593.6 L974.5,592.4 L968.2,595.8 L972.5,593.6 L975.5,592.4
		L968.8,595.8 L973.1,593.6 L976.1,592.3 L965.5,596.8 L970.8,594.2 L974.5,592.7 L969.2,595.4 L973.6,593.3
		L976.6,592.0 L966.1,596.6 L971.3,594.0 L975.0,592.5 L969.7,595.3 L974.0,593.1 L977.1,591.8 L966.5,596.5
		L971.8,593.9 L975.5,592.3 L970.1,595.2 L974.4,593.0 L969.7,595.4 L974.2,593.1 L969.8,595.3 L974.2,593.1
		L969.8,595.3 L974.3,593.0 L969.9,595.3 L974.4,593.0 L970.0,595.3 L974.4,593.0 L970.0,595.3 L974.5,593.0
		L970.1,595.3 L974.5,593.0 L970.1,595.3 L974.6,593.0 L970.1,595.3 L974.6,593.0 L970.2,595.3 L974.7,593.0
		L970.2,595.3 L974.7,593.0 L970.2,595.4 L974.7,593.1 L970.3,595.4 L974.7,593.1 L970.3,595.4 L974.8,593.1
		L970.3,595.4 L974.8,593.1 L970.3,595.4 L974.8,593.1 L970.3,595.4 L974.8,593.1 L970.3,595.5 L974.8,593.2
		L970.3,595.5 L974.8,593.2 L970.3,595.5 L974.8,593.2 L970.3,595.5 L974.8,593.2 L970.3,595.5 L974.8,593.2
		L970.2,595.5 L974.8,593.2 L970.2,595.6 L974.8,593.2 L970.2,595.6 L974.8,593.3 L970.2,595.6 L974.7,593.3
		L970.2,595.6 L974.7,593.3 L970.2,595.7 L974.7,593.3 L970.1,595.7 L974.7,593.4 L970.1,595.7 L974.6,593.4
		L970.1,595.7 L974.6,593.4 L970.0,595.8 L974.6,593.4 L970.0,595.8 L974.5,593.5 L970.0,595.8 L974.5,593.5
		L969.9,595.8 L974.5,593.5 L969.9,595.8 L974.5,593.5 L969.9,595.8 L974.5,593.5 L969.9,595.8 L974.4,593.5
		L969.9,595.8 L974.4,593.5 L969.9,595.9 L974.4,593.5 L969.8,595.9 L974.4,593.6 L969.8,595.9 L974.4,593.6
		L969.8,595.9 L974.3,593.6 L969.7,596.0 L974.3,593.6 L969.7,596.0 L974.3,593.6 L969.7,596.0 L974.3,593.6
		L969.7,596.0 L974.2,593.7 L969.6,596.0 L974.2,593.7 L969.6,596.1 L974.1,593.7 L969.5,596.1 L974.1,593.7
		L969.5,596.1 L974.1,593.7 L969.5,596.1 L974.1,593.8 L969.4,596.1 L974.0,593.8 L969.4,596.1 L974.0,593.8
		L969.4,596.1 L974.0,593.8 L969.4,596.1 L974.0,593.8 L969.3,596.2 L974.0,593.8 L969.3,596.2 L974.0,593.8
		L969.3,596.2 L973.9,593.8 L969.3,596.2 L973.9,593.8 L969.2,596.2 L973.9,593.9 L969.2,596.2 L973.8,593.9
		L969.2,596.2 L973.8,593.9 L969.1,596.3 L973.8,593.9 L969.1,596.3 L973.7,593.9 L969.1,596.3 L973.7,594.0
		L969.0,596.3 L973.7,594.0 L969.0,596.4 L973.6,594.0 L969.0,596.4 L973.6,594.0 L968.9,596.4 L973.6,594.0
		L968.9,596.4 L973.6,594.0 L968.9,596.4 L973.5,594.0 L968.8,596.4 L973.5,594.1 L968.8,596.4 L973.5,594.1
		L968.8,596.5 L973.5,594.1 L968.8,596.5 L973.4,594.1 L968.7,596.5 L973.4,594.1 L968.7,596.5 L973.4,594.1
		L968.7,596.5 L973.4,594.1 L968.7,596.5 L973.3,594.1 L968.6,596.5 L973.3,594.1 L968.6,596.5 L973.3,594.1
		L968.6,596.5 L973.3,594.2  '/></g>
	</g>
	<g id="gnuplot_plot_7" ><title>4-MeOPhN2+</title>
<g fill="none" color="black" stroke="currentColor" stroke-width="3.00" stroke-linecap="butt" stroke-linejoin="miter">
	<g transform="translate(1253.0,379.1)" stroke="none" fill="black" font-family="Helvetica" font-size="26.00"  text-anchor="end">
		<text><tspan font-family="Helvetica" >4-MeOPhN</tspan><tspan font-family="Helvetica"  font-size="20.8" dy="7.80px">2</tspan><tspan font-family="Helvetica"  dy="-20.80px">+</tspan><tspan font-size="26.0" dy="13.00"></tspan></text>
	</g>
</g>
<g fill="none" color="black" stroke="currentColor" stroke-width="3.00" stroke-linecap="butt" stroke-linejoin="miter">
	<path stroke='rgb(255,   0, 255)'  d='M1271.2,370.6 L1363.5,370.6 M346.0,471.4 L342.3,466.7 L344.6,460.3 L351.5,452.3 L355.1,446.0 L357.7,440.4
		L364.7,433.5 L368.5,427.9 L370.8,423.3 L377.0,417.7 L379.1,413.6 L385.6,408.4 L387.5,405.0 L392.8,400.7
		L395.1,397.8 L398.2,394.8 L401.6,391.9 L408.8,388.7 L410.8,386.6 L413.8,384.6 L417.2,382.7 L420.8,381.0
		L424.5,379.5 L431.9,377.9 L433.9,377.1 L436.8,376.3 L440.1,375.6 L443.7,375.1 L447.4,374.7 L451.1,374.5
		L454.8,374.5 L458.5,374.6 L462.3,374.8 L466.0,375.1 L469.8,375.6 L473.5,376.2 L477.3,376.9 L481.0,377.7
		L484.7,378.5 L488.5,379.4 L492.2,380.5 L496.0,381.6 L499.7,382.7 L503.5,383.9 L507.2,385.1 L511.0,386.3
		L514.8,387.6 L518.6,388.9 L522.5,390.2 L526.3,391.5 L530.2,392.8 L534.1,394.0 L538.0,395.3 L541.9,396.5
		L545.9,397.7 L549.9,398.8 L553.9,399.8 L558.0,400.8 L562.0,401.7 L566.1,402.6 L570.3,403.3 L574.4,403.9
		L578.6,404.5 L582.8,404.9 L587.1,405.2 L591.4,405.3 L595.7,405.3 L600.0,405.2 L604.3,404.9 L608.7,404.5
		L613.1,403.9 L617.5,403.2 L621.9,402.2 L626.4,401.1 L630.8,399.9 L635.3,398.3 L639.8,396.8 L644.3,394.9
		L648.8,392.9 L653.3,390.7 L657.8,388.3 L662.4,385.7 L666.9,383.0 L671.4,380.1 L675.9,376.9 L680.4,373.6
		L684.9,370.2 L689.4,366.5 L693.9,362.7 L698.3,358.8 L702.8,354.6 L707.2,350.4 L711.6,362.4 L716.0,374.5
		L720.3,386.1 L724.7,397.4 L729.0,408.3 L733.2,418.9 L737.5,429.0 L741.7,438.9 L745.9,448.3 L750.0,457.5
		L754.1,466.3 L758.2,474.8 L762.2,483.0 L766.3,490.8 L770.2,498.5 L774.1,505.8 L778.0,512.8 L781.9,519.6
		L785.7,526.2 L789.4,532.5 L793.1,538.6 L796.8,544.5 L800.4,550.1 L804.0,555.5 L807.5,560.8 L811.0,565.8
		L814.5,570.7 L817.9,575.4 L821.3,579.9 L824.6,584.2 L827.8,588.4 L831.1,592.4 L834.2,596.3 L837.4,600.1
		L840.4,603.7 L843.4,607.2 L846.4,610.5 L849.4,613.7 L852.3,616.9 L855.1,619.9 L857.9,622.8 L860.7,625.6
		L863.4,628.3 L866.1,630.9 L868.7,633.4 L871.3,635.8 L873.8,638.1 L876.3,640.4 L878.8,642.5 L881.2,644.6
		L883.5,646.7 L885.9,648.6 L888.2,650.5 L890.4,652.4 L892.6,654.2 L894.8,655.9 L898.6,656.5 L904.6,656.0
		L909.2,656.1 L912.9,656.7 L916.1,657.4 L919.0,658.3 L921.5,659.3 L924.0,660.3 L916.7,666.4 L922.0,665.7
		L926.1,665.7 L929.3,666.0 L932.0,666.6 L927.0,671.4 L931.6,670.7 L935.1,670.6 L937.9,671.0 L932.9,675.5
		L937.5,674.7 L940.9,674.5 L943.7,674.6 L938.3,679.2 L942.9,678.2 L946.3,677.9 L949.0,677.9 L943.3,682.6
		L947.8,681.4 L951.2,680.9 L953.8,680.9 L947.7,685.6 L952.2,684.3 L955.6,683.7 L950.8,687.7 L955.3,686.3
		L958.6,685.6 L953.6,689.6 L958.1,688.1 L961.4,687.4 L956.4,691.4 L960.8,689.8 L964.1,689.0 L958.8,693.1
		L963.3,691.4 L966.5,690.5 L961.1,694.6 L965.6,692.8 L968.8,691.9 L963.3,696.0 L967.7,694.2 L970.9,693.2
		L965.3,697.3 L969.7,695.5 L972.8,694.5 L967.1,698.6 L971.5,696.7 L974.6,695.7 L968.8,699.8 L973.2,697.9
		L976.3,696.8 L970.3,701.0 L974.7,699.0 L977.8,697.8 L971.7,702.0 L976.1,699.9 L979.2,698.8 L973.0,703.0
		L977.5,700.9 L980.5,699.7 L974.3,703.9 L978.7,701.7 L981.8,700.5 L975.5,704.7 L979.9,702.5 L982.9,701.3
		L976.5,705.5 L980.9,703.3 L983.9,702.0 L977.5,706.3 L981.9,704.0 L984.9,702.8 L978.3,707.1 L982.7,704.8
		L985.7,703.5 L979.2,707.8 L983.6,705.5 L986.5,704.1 L979.9,708.4 L984.3,706.1 L987.3,704.7 L980.7,709.0
		L985.1,706.7 L988.0,705.3 L981.2,709.7 L985.6,707.3 L988.6,705.9 L981.8,710.2 L986.2,707.8 L989.2,706.4
		L982.4,710.7 L986.8,708.2 L982.4,711.2 L986.9,708.7 L989.9,707.2 L983.2,711.5 L987.6,709.0 L983.2,711.9
		L987.7,709.4 L983.5,712.2 L988.0,709.7 L983.7,712.5 L988.2,709.9 L984.1,712.7 L988.5,710.2 L984.2,713.0
		L988.7,710.5 L984.5,713.3 L989.0,710.7 L984.8,713.5 L989.2,710.9 L984.9,713.7 L989.4,711.2 L985.1,714.0
		L989.6,711.4 L985.3,714.2 L989.8,711.6 L985.5,714.4 L990.0,711.8 L985.7,714.6 L990.2,712.0 L985.7,714.9
		L990.2,712.2 L985.9,715.0 L990.4,712.4 L986.1,715.2 L990.6,712.6 L986.2,715.3 L990.7,712.7 L986.4,715.5
		L990.9,712.9 L986.5,715.7 L991.0,713.0 L986.6,715.8 L991.1,713.2 L986.7,715.9 L991.2,713.3 L986.8,716.1
		L991.3,713.5 L986.9,716.3 L991.4,713.6 L987.0,716.4 L991.5,713.8 L987.1,716.6 L991.6,713.9 L987.1,716.7
		L991.6,714.1 L987.2,716.9 L991.7,714.2 L987.4,717.0 L991.9,714.3 L987.4,717.2 L991.9,714.5 L987.4,717.3
		L992.0,714.6 L987.5,717.4 L992.0,714.7 L987.6,717.5 L992.1,714.8 L987.6,717.6 L992.2,714.9 L987.7,717.7
		L992.2,715.0 L987.7,717.8 L992.3,715.1 L987.8,717.9 L992.3,715.2 L987.8,718.0 L992.4,715.3 L987.8,718.1
		L992.4,715.4 L987.9,718.2 L992.5,715.5 L987.9,718.3 L992.5,715.6 L988.0,718.4 L992.5,715.7 L988.0,718.5
		L992.6,715.7 L988.1,718.5 L992.7,715.8 L988.1,718.6 L992.7,715.9 L988.2,718.7 L992.7,716.0 L988.1,718.8
		L992.7,716.1 L988.2,718.9 L992.8,716.2 L988.2,719.0 L992.8,716.3 L988.3,719.1 L992.9,716.4 L988.3,719.2
		L992.9,716.4 L988.3,719.2 L992.9,716.5 L988.4,719.3 L993.0,716.5 L988.3,719.4 L993.0,716.6 L988.4,719.4
		L993.0,716.7 L988.4,719.5 L993.0,716.7 L988.4,719.5 L993.0,716.8 L988.4,719.6 L993.1,716.9 L988.4,719.7
		L993.1,716.9 L988.4,719.7 L993.1,717.0 L988.5,719.8 L993.1,717.0 L988.5,719.9 L993.1,717.1 L988.5,719.9
		L993.1,717.1 L988.5,720.0 L993.1,717.2 L988.5,720.0 L993.1,717.2 L988.5,720.0 L993.2,717.3 L988.5,720.1
		L993.2,717.3 L988.5,720.2 L993.2,717.4 L988.5,720.2 L993.1,717.5 L988.5,720.3 L993.1,717.5 L988.6,720.3
		L993.2,717.5 L988.5,720.3 L993.1,717.6 L988.5,720.4 L993.1,717.6 L988.4,720.4 L993.1,717.6 L988.4,720.5
		L993.0,717.7 L988.3,720.5  '/></g>
	</g>
<g fill="none" color="white" stroke="rgb(255,   0, 255)" stroke-width="2.00" stroke-linecap="butt" stroke-linejoin="miter">
</g>
<g fill="none" color="black" stroke="currentColor" stroke-width="2.00" stroke-linecap="butt" stroke-linejoin="miter">
</g>
<g fill="none" color="black" stroke="black" stroke-width="1.00" stroke-linecap="butt" stroke-linejoin="miter">
</g>
<g fill="none" color="black" stroke="currentColor" stroke-width="1.00" stroke-linecap="butt" stroke-linejoin="miter">
	<path stroke='black'  d='M175.5,117.1 L175.5,736.2 L1052.8,736.2 L1052.8,117.1 L175.5,117.1 Z  '/></g>
<g fill="none" color="black" stroke="currentColor" stroke-width="1.00" stroke-linecap="butt" stroke-linejoin="miter">
</g>
</g>
</svg>

