<?xml version="1.0" encoding="utf-8"  standalone="no"?>
<!DOCTYPE svg PUBLIC "-//W3C//DTD SVG 1.1//EN"
 "http://www.w3.org/Graphics/SVG/1.1/DTD/svg11.dtd">
<svg 
 width="1400" height="900"
 viewBox="0 0 1400 900"
 xmlns="http://www.w3.org/2000/svg"
 xmlns:xlink="http://www.w3.org/1999/xlink"
>

<title>Gnuplot</title>
<desc>Produced by GNUPLOT 5.0 patchlevel 5 </desc>

<g id="gnuplot_canvas">

<rect x="0" y="0" width="1400" height="900" fill="none"/>
<defs>

	<circle id='gpDot' r='0.5' stroke-width='0.5'/>
	<path id='gpPt0' stroke-width='0.103' stroke='currentColor' d='M-1,0 h2 M0,-1 v2'/>
	<path id='gpPt1' stroke-width='0.103' stroke='currentColor' d='M-1,-1 L1,1 M1,-1 L-1,1'/>
	<path id='gpPt2' stroke-width='0.103' stroke='currentColor' d='M-1,0 L1,0 M0,-1 L0,1 M-1,-1 L1,1 M-1,1 L1,-1'/>
	<rect id='gpPt3' stroke-width='0.103' stroke='currentColor' x='-1' y='-1' width='2' height='2'/>
	<rect id='gpPt4' stroke-width='0.103' stroke='currentColor' fill='currentColor' x='-1' y='-1' width='2' height='2'/>
	<circle id='gpPt5' stroke-width='0.103' stroke='currentColor' cx='0' cy='0' r='1'/>
	<use xlink:href='#gpPt5' id='gpPt6' fill='currentColor' stroke='none'/>
	<path id='gpPt7' stroke-width='0.103' stroke='currentColor' d='M0,-1.33 L-1.33,0.67 L1.33,0.67 z'/>
	<use xlink:href='#gpPt7' id='gpPt8' fill='currentColor' stroke='none'/>
	<use xlink:href='#gpPt7' id='gpPt9' stroke='currentColor' transform='rotate(180)'/>
	<use xlink:href='#gpPt9' id='gpPt10' fill='currentColor' stroke='none'/>
	<use xlink:href='#gpPt3' id='gpPt11' stroke='currentColor' transform='rotate(45)'/>
	<use xlink:href='#gpPt11' id='gpPt12' fill='currentColor' stroke='none'/>
	<path id='gpPt13' stroke-width='0.103' stroke='currentColor' d='M0,1.330 L1.265,0.411 L0.782,-1.067 L-0.782,-1.076 L-1.265,0.411 z'/>
	<use xlink:href='#gpPt13' id='gpPt14' fill='currentColor' stroke='none'/>
	<filter id='textbox' filterUnits='objectBoundingBox' x='0' y='0' height='1' width='1'>
	  <feFlood flood-color='white' flood-opacity='1' result='bgnd'/>
	  <feComposite in='SourceGraphic' in2='bgnd' operator='atop'/>
	</filter>
	<filter id='greybox' filterUnits='objectBoundingBox' x='0' y='0' height='1' width='1'>
	  <feFlood flood-color='lightgrey' flood-opacity='1' result='grey'/>
	  <feComposite in='SourceGraphic' in2='grey' operator='atop'/>
	</filter>
</defs>
<g fill="none" color="white" stroke="black" stroke-width="1.00" stroke-linecap="butt" stroke-linejoin="miter">
</g>
<g fill="none" color="black" stroke="currentColor" stroke-width="1.00" stroke-linecap="butt" stroke-linejoin="miter">
	<path stroke='black'  d='M175.5,775.2 L195.0,775.2 M1052.8,775.2 L1033.3,775.2  '/>	<g transform="translate(157.3,783.7)" stroke="none" fill="black" font-family="Helvetica" font-size="26.00"  text-anchor="end">
		<text><tspan font-family="Helvetica" > 0.08</tspan></text>
	</g>
</g>
<g fill="none" color="black" stroke="currentColor" stroke-width="1.00" stroke-linecap="butt" stroke-linejoin="miter">
	<path stroke='black'  d='M175.5,665.5 L195.0,665.5 M1052.8,665.5 L1033.3,665.5  '/>	<g transform="translate(157.3,674.0)" stroke="none" fill="black" font-family="Helvetica" font-size="26.00"  text-anchor="end">
		<text><tspan font-family="Helvetica" > 0.1</tspan></text>
	</g>
</g>
<g fill="none" color="black" stroke="currentColor" stroke-width="1.00" stroke-linecap="butt" stroke-linejoin="miter">
	<path stroke='black'  d='M175.5,555.8 L195.0,555.8 M1052.8,555.8 L1033.3,555.8  '/>	<g transform="translate(157.3,564.3)" stroke="none" fill="black" font-family="Helvetica" font-size="26.00"  text-anchor="end">
		<text><tspan font-family="Helvetica" > 0.12</tspan></text>
	</g>
</g>
<g fill="none" color="black" stroke="currentColor" stroke-width="1.00" stroke-linecap="butt" stroke-linejoin="miter">
	<path stroke='black'  d='M175.5,446.2 L195.0,446.2 M1052.8,446.2 L1033.3,446.2  '/>	<g transform="translate(157.3,454.7)" stroke="none" fill="black" font-family="Helvetica" font-size="26.00"  text-anchor="end">
		<text><tspan font-family="Helvetica" > 0.14</tspan></text>
	</g>
</g>
<g fill="none" color="black" stroke="currentColor" stroke-width="1.00" stroke-linecap="butt" stroke-linejoin="miter">
	<path stroke='black'  d='M175.5,336.5 L195.0,336.5 M1052.8,336.5 L1033.3,336.5  '/>	<g transform="translate(157.3,345.0)" stroke="none" fill="black" font-family="Helvetica" font-size="26.00"  text-anchor="end">
		<text><tspan font-family="Helvetica" > 0.16</tspan></text>
	</g>
</g>
<g fill="none" color="black" stroke="currentColor" stroke-width="1.00" stroke-linecap="butt" stroke-linejoin="miter">
	<path stroke='black'  d='M175.5,226.8 L195.0,226.8 M1052.8,226.8 L1033.3,226.8  '/>	<g transform="translate(157.3,235.3)" stroke="none" fill="black" font-family="Helvetica" font-size="26.00"  text-anchor="end">
		<text><tspan font-family="Helvetica" > 0.18</tspan></text>
	</g>
</g>
<g fill="none" color="black" stroke="currentColor" stroke-width="1.00" stroke-linecap="butt" stroke-linejoin="miter">
	<path stroke='black'  d='M175.5,117.1 L195.0,117.1 M1052.8,117.1 L1033.3,117.1  '/>	<g transform="translate(157.3,125.6)" stroke="none" fill="black" font-family="Helvetica" font-size="26.00"  text-anchor="end">
		<text><tspan font-family="Helvetica" > 0.2</tspan></text>
	</g>
</g>
<g fill="none" color="black" stroke="currentColor" stroke-width="1.00" stroke-linecap="butt" stroke-linejoin="miter">
	<path stroke='black'  d='M175.5,775.2 L175.5,755.7 M175.5,117.1 L175.5,136.6  '/>	<g transform="translate(175.5,822.7)" stroke="none" fill="black" font-family="Helvetica" font-size="26.00"  text-anchor="middle">
		<text><tspan font-family="Helvetica" > 0.5</tspan></text>
	</g>
</g>
<g fill="none" color="black" stroke="currentColor" stroke-width="1.00" stroke-linecap="butt" stroke-linejoin="miter">
	<path stroke='black'  d='M273.0,775.2 L273.0,755.7 M273.0,117.1 L273.0,136.6  '/>	<g transform="translate(273.0,822.7)" stroke="none" fill="black" font-family="Helvetica" font-size="26.00"  text-anchor="middle">
		<text><tspan font-family="Helvetica" > 1</tspan></text>
	</g>
</g>
<g fill="none" color="black" stroke="currentColor" stroke-width="1.00" stroke-linecap="butt" stroke-linejoin="miter">
	<path stroke='black'  d='M370.5,775.2 L370.5,755.7 M370.5,117.1 L370.5,136.6  '/>	<g transform="translate(370.5,822.7)" stroke="none" fill="black" font-family="Helvetica" font-size="26.00"  text-anchor="middle">
		<text><tspan font-family="Helvetica" > 1.5</tspan></text>
	</g>
</g>
<g fill="none" color="black" stroke="currentColor" stroke-width="1.00" stroke-linecap="butt" stroke-linejoin="miter">
	<path stroke='black'  d='M467.9,775.2 L467.9,755.7 M467.9,117.1 L467.9,136.6  '/>	<g transform="translate(467.9,822.7)" stroke="none" fill="black" font-family="Helvetica" font-size="26.00"  text-anchor="middle">
		<text><tspan font-family="Helvetica" > 2</tspan></text>
	</g>
</g>
<g fill="none" color="black" stroke="currentColor" stroke-width="1.00" stroke-linecap="butt" stroke-linejoin="miter">
	<path stroke='black'  d='M565.4,775.2 L565.4,755.7 M565.4,117.1 L565.4,136.6  '/>	<g transform="translate(565.4,822.7)" stroke="none" fill="black" font-family="Helvetica" font-size="26.00"  text-anchor="middle">
		<text><tspan font-family="Helvetica" > 2.5</tspan></text>
	</g>
</g>
<g fill="none" color="black" stroke="currentColor" stroke-width="1.00" stroke-linecap="butt" stroke-linejoin="miter">
	<path stroke='black'  d='M662.9,775.2 L662.9,755.7 M662.9,117.1 L662.9,136.6  '/>	<g transform="translate(662.9,822.7)" stroke="none" fill="black" font-family="Helvetica" font-size="26.00"  text-anchor="middle">
		<text><tspan font-family="Helvetica" > 3</tspan></text>
	</g>
</g>
<g fill="none" color="black" stroke="currentColor" stroke-width="1.00" stroke-linecap="butt" stroke-linejoin="miter">
	<path stroke='black'  d='M760.4,775.2 L760.4,755.7 M760.4,117.1 L760.4,136.6  '/>	<g transform="translate(760.4,822.7)" stroke="none" fill="black" font-family="Helvetica" font-size="26.00"  text-anchor="middle">
		<text><tspan font-family="Helvetica" > 3.5</tspan></text>
	</g>
</g>
<g fill="none" color="black" stroke="currentColor" stroke-width="1.00" stroke-linecap="butt" stroke-linejoin="miter">
	<path stroke='black'  d='M857.8,775.2 L857.8,755.7 M857.8,117.1 L857.8,136.6  '/>	<g transform="translate(857.8,822.7)" stroke="none" fill="black" font-family="Helvetica" font-size="26.00"  text-anchor="middle">
		<text><tspan font-family="Helvetica" > 4</tspan></text>
	</g>
</g>
<g fill="none" color="black" stroke="currentColor" stroke-width="1.00" stroke-linecap="butt" stroke-linejoin="miter">
	<path stroke='black'  d='M955.3,775.2 L955.3,755.7 M955.3,117.1 L955.3,136.6  '/>	<g transform="translate(955.3,822.7)" stroke="none" fill="black" font-family="Helvetica" font-size="26.00"  text-anchor="middle">
		<text><tspan font-family="Helvetica" > 4.5</tspan></text>
	</g>
</g>
<g fill="none" color="black" stroke="currentColor" stroke-width="1.00" stroke-linecap="butt" stroke-linejoin="miter">
	<path stroke='black'  d='M1052.8,775.2 L1052.8,755.7 M1052.8,117.1 L1052.8,136.6  '/>	<g transform="translate(1052.8,822.7)" stroke="none" fill="black" font-family="Helvetica" font-size="26.00"  text-anchor="middle">
		<text><tspan font-family="Helvetica" > 5</tspan></text>
	</g>
</g>
<g fill="none" color="black" stroke="currentColor" stroke-width="1.00" stroke-linecap="butt" stroke-linejoin="miter">
</g>
<g fill="none" color="black" stroke="currentColor" stroke-width="1.00" stroke-linecap="butt" stroke-linejoin="miter">
	<path stroke='black'  d='M175.5,117.1 L175.5,775.2 L1052.8,775.2 L1052.8,117.1 L175.5,117.1 Z  '/></g>
<g fill="none" color="black" stroke="currentColor" stroke-width="1.00" stroke-linecap="butt" stroke-linejoin="miter">
	<g transform="translate(37.0,446.2) rotate(270)" stroke="none" fill="black" font-family="Helvetica-Bold" font-size="26.00"  text-anchor="middle">
		<text><tspan font-family="Helvetica-Bold" >LUMO-HOMO, Hartree</tspan></text>
	</g>
</g>
<g fill="none" color="black" stroke="currentColor" stroke-width="1.00" stroke-linecap="butt" stroke-linejoin="miter">
	<g transform="translate(614.1,881.2)" stroke="none" fill="black" font-family="Helvetica-Bold" font-size="26.00"  text-anchor="middle">
		<text><tspan font-family="Helvetica-Bold" >d(C1-N1), A</tspan></text>
	</g>
</g>
<g fill="none" color="black" stroke="currentColor" stroke-width="1.00" stroke-linecap="butt" stroke-linejoin="miter">
	<g transform="translate(614.1,67.1)" stroke="none" fill="black" font-family="Helvetica" font-size="26.00"  text-anchor="middle">
		<text><tspan font-family="Helvetica"  font-weight="bold" >XPhN</tspan><tspan font-family="Helvetica"  font-weight="bold"  font-size="20.8" dy="7.80px">2</tspan><tspan font-family="Helvetica"  font-weight="bold"  dy="-20.80px">+</tspan><tspan font-size="26.0" dy="13.00"></tspan></text>
	</g>
</g>
<g fill="none" color="black" stroke="black" stroke-width="0.20" stroke-linecap="butt" stroke-linejoin="miter">
</g>
<g fill="none" color="black" stroke="currentColor" stroke-width="0.20" stroke-linecap="butt" stroke-linejoin="miter">
	<path stroke='black'  d='M1089.2,390.1 L1089.2,117.1 L1381.7,117.1 L1381.7,390.1 L1089.2,390.1 Z  '/></g>
	<g id="gnuplot_plot_1" ><title>PhN2+</title>
<g fill="none" color="white" stroke="black" stroke-width="3.00" stroke-linecap="butt" stroke-linejoin="miter">
</g>
<g fill="none" color="black" stroke="currentColor" stroke-width="3.00" stroke-linecap="butt" stroke-linejoin="miter">
	<g transform="translate(1253.0,145.1)" stroke="none" fill="black" font-family="Helvetica" font-size="26.00"  text-anchor="end">
		<text><tspan font-family="Helvetica" >PhN</tspan><tspan font-family="Helvetica"  font-size="20.8" dy="7.80px">2</tspan><tspan font-family="Helvetica"  dy="-20.80px">+</tspan><tspan font-size="26.0" dy="13.00"></tspan></text>
	</g>
</g>
<g fill="none" color="black" stroke="currentColor" stroke-width="3.00" stroke-linecap="butt" stroke-linejoin="miter">
	<path stroke='rgb(255,   0,   0)'  d='M1271.2,136.6 L1363.5,136.6 M253.5,463.2 L255.4,451.4 L257.4,442.4 L259.3,430.1 L261.3,421.5 L263.3,413.1
		L265.2,402.5 L267.2,393.1 L269.1,386.2 L271.1,376.5 L273.0,370.2 L275.0,361.1 L276.9,355.5 L278.9,347.8
		L280.8,342.4 L282.8,336.7 L284.8,335.6 L286.7,334.0 L288.7,333.3 L290.6,332.5 L292.6,331.6 L294.5,330.2
		L296.5,329.8 L298.4,329.2 L300.4,328.5 L302.3,327.9 L304.3,326.8 L306.3,326.6 L308.2,326.2 L310.2,325.9
		L312.1,325.4 L314.1,325.0 L316.0,324.7 L318.0,324.4 L319.9,324.1 L321.9,323.8 L323.8,323.5 L325.8,323.3
		L327.8,323.0 L329.7,322.8 L331.7,322.5 L333.6,322.3 L335.6,321.9 L337.5,321.6 L339.5,321.3 L341.4,320.9
		L343.4,320.5 L345.3,320.0 L347.3,319.5 L349.2,318.8 L351.2,318.1 L353.2,317.4 L355.1,316.5 L357.1,315.5
		L359.0,314.4 L361.0,313.2 L362.9,311.9 L364.9,310.4 L366.8,308.8 L368.8,307.1 L370.7,305.2 L372.7,303.1
		L374.7,300.9 L376.6,298.5 L378.6,295.9 L380.5,293.2 L382.5,290.2 L384.4,287.1 L386.4,283.8 L388.3,280.3
		L390.3,276.6 L392.2,272.6 L394.2,268.5 L396.2,264.2 L398.1,259.7 L400.1,255.0 L402.0,250.2 L404.0,245.1
		L405.9,239.8 L407.9,234.4 L409.8,228.7 L411.8,223.0 L413.7,217.0 L415.7,210.9 L417.7,204.6 L419.6,198.2
		L421.6,191.7 L423.5,185.0 L425.5,178.2 L427.4,171.3 L429.4,164.2 L431.3,157.1 L433.3,156.4 L435.2,167.4
		L437.2,178.0 L439.2,188.2 L441.1,198.1 L443.1,207.6 L445.0,216.7 L447.0,225.5 L448.9,234.0 L450.9,242.2
		L452.8,250.0 L454.8,257.6 L456.7,264.9 L458.7,271.8 L460.7,278.6 L462.6,285.0 L464.6,291.3 L466.5,297.2
		L468.5,303.0 L470.4,308.5 L472.4,313.8 L474.3,318.9 L476.3,323.8 L478.2,328.6 L480.2,333.1 L482.2,337.5
		L484.1,341.6 L486.1,345.7 L488.0,349.5 L490.0,353.3 L491.9,356.8 L493.9,360.3 L495.8,363.6 L497.8,366.8
		L499.7,369.8 L501.7,372.7 L503.7,375.6 L505.6,378.3 L507.6,380.9 L509.5,383.4 L511.5,385.8 L513.4,388.1
		L515.4,390.4 L517.3,392.5 L519.3,394.6 L521.2,396.5 L523.2,398.4 L525.1,400.3 L527.1,402.0 L529.1,403.7
		L531.0,405.4 L533.0,406.9 L534.9,408.5 L536.9,409.9 L538.8,408.4 L540.8,407.9 L542.7,407.9 L544.7,408.3
		L546.6,408.9 L548.6,409.6 L550.6,410.4 L552.5,411.1 L554.5,411.9 L556.4,412.8 L558.4,420.1 L560.3,418.6
		L562.3,418.1 L564.2,418.0 L566.2,418.2 L568.1,423.6 L570.1,422.2 L572.1,421.7 L574.0,421.6 L576.0,426.8
		L577.9,425.2 L579.9,424.5 L581.8,424.4 L583.8,429.7 L585.7,427.9 L587.7,427.1 L589.6,426.8 L591.6,432.2
		L593.6,430.3 L595.5,429.4 L597.5,429.0 L599.4,434.5 L601.4,432.5 L603.3,431.5 L605.3,436.2 L607.2,434.0
		L609.2,432.9 L611.1,437.6 L613.1,435.4 L615.1,434.2 L617.0,438.9 L619.0,436.6 L620.9,435.4 L622.9,440.2
		L624.8,437.8 L626.8,436.6 L628.7,441.4 L630.7,438.9 L632.6,437.6 L634.6,442.5 L636.6,440.0 L638.5,438.6
		L640.5,443.5 L642.4,440.9 L644.4,439.6 L646.3,444.5 L648.3,441.8 L650.2,440.5 L652.2,445.4 L654.1,442.7
		L656.1,441.3 L658.1,446.2 L660.0,443.5 L662.0,442.0 L663.9,447.0 L665.9,444.3 L667.8,442.8 L669.8,447.8
		L671.7,445.0 L673.7,443.4 L675.6,448.5 L677.6,445.6 L679.6,444.1 L681.5,449.1 L683.5,446.2 L685.4,444.7
		L687.4,449.7 L689.3,446.8 L691.3,445.2 L693.2,450.3 L695.2,447.4 L697.1,445.8 L699.1,450.9 L701.0,448.0
		L703.0,446.3 L705.0,451.5 L706.9,448.5 L708.9,446.9 L710.8,452.0 L712.8,449.0 L714.7,447.3 L716.7,452.5
		L718.6,449.5 L720.6,447.8 L722.5,453.0 L724.5,449.9 L726.5,448.2 L728.4,453.4 L730.4,450.3 L732.3,448.6
		L734.3,453.8 L736.2,450.7 L738.2,449.0 L740.1,454.2 L742.1,451.1 L744.0,449.3 L746.0,454.5 L748.0,451.4
		L749.9,455.0 L751.9,451.8 L753.8,455.2 L755.8,452.0 L757.7,455.4 L759.7,452.2 L761.6,455.6 L763.6,452.4
		L765.5,455.8 L767.5,452.6 L769.5,456.0 L771.4,452.8 L773.4,456.2 L775.3,453.0 L777.3,456.4 L779.2,453.2
		L781.2,456.6 L783.1,453.4 L785.1,456.8 L787.0,453.5 L789.0,456.9 L791.0,453.7 L792.9,457.1 L794.9,453.8
		L796.8,457.3 L798.8,454.0 L800.7,457.4 L802.7,454.1 L804.6,457.6 L806.6,454.3 L808.5,457.7 L810.5,454.4
		L812.5,457.8 L814.4,454.5 L816.4,458.0 L818.3,454.7 L820.3,458.1 L822.2,454.8 L824.2,458.2 L826.1,454.9
		L828.1,458.3 L830.0,455.0 L832.0,458.5 L834.0,455.2 L835.9,458.6 L837.9,455.3 L839.8,458.7 L841.8,455.4
		L843.7,458.9 L845.7,455.5 L847.6,459.0 L849.6,455.7 L851.5,459.1 L853.5,455.8 L855.5,459.2 L857.4,455.9
		L859.4,459.3 L861.3,455.9 L863.3,459.4 L865.2,456.0 L867.2,459.5 L869.1,456.1 L871.1,459.6 L873.0,456.2
		L875.0,459.6 L876.9,456.3 L878.9,459.7 L880.9,456.4 L882.8,459.8 L884.8,456.4 L886.7,459.9 L888.7,456.5
		L890.6,460.0 L892.6,456.6 L894.5,460.0 L896.5,456.7 L898.4,460.1 L900.4,456.7 L902.4,460.2 L904.3,456.8
		L906.3,460.3 L908.2,456.9 L910.2,460.3 L912.1,457.0 L914.1,460.4 L916.0,457.0 L918.0,460.5 L919.9,457.1
		L921.9,460.6 L923.9,457.2 L925.8,460.7 L927.8,457.3 L929.7,460.7 L931.7,457.3 L933.6,460.8 L935.6,457.4
		L937.5,460.9 L939.5,457.5 L941.4,460.9 L943.4,457.5 L945.4,460.9 L947.3,457.5 L949.3,461.0 L951.2,457.6
		L953.2,461.1 L955.1,457.7 L957.1,461.1 L959.0,457.7 L961.0,461.2 L962.9,457.8 L964.9,461.2 L966.9,457.8
		L968.8,461.3 L970.8,457.9 L972.7,461.4 L974.7,457.9 L976.6,461.4 L978.6,458.0 L980.5,461.5 L982.5,458.0
		L984.4,461.5 L986.4,458.1 L988.4,461.6 L990.3,458.1 L992.3,461.6 L994.2,458.2 L996.2,461.7 L998.1,458.2
		L1000.1,461.7 L1002.0,458.3 L1004.0,461.8 L1005.9,458.3 L1007.9,461.8 L1009.9,458.4 L1011.8,461.9 L1013.8,458.4
		L1015.7,461.9 L1017.7,458.5 L1019.6,462.0 L1021.6,458.5 L1023.5,462.0 L1025.5,458.5 L1027.4,462.0 L1029.4,458.6
		L1031.4,462.1 L1033.3,458.6  '/></g>
	</g>
	<g id="gnuplot_plot_2" ><title>2-NO2PhN2+</title>
<g fill="none" color="black" stroke="currentColor" stroke-width="3.00" stroke-linecap="butt" stroke-linejoin="miter">
	<g transform="translate(1253.0,184.1)" stroke="none" fill="black" font-family="Helvetica" font-size="26.00"  text-anchor="end">
		<text><tspan font-family="Helvetica" >2-NO</tspan><tspan font-family="Helvetica"  font-size="20.8" dy="7.80px">2</tspan><tspan font-family="Helvetica"  font-size="26.0" dy="-7.80px">PhN</tspan><tspan font-family="Helvetica"  font-size="20.8" dy="7.80px">2</tspan><tspan font-family="Helvetica"  dy="-20.80px">+</tspan><tspan font-size="26.0" dy="13.00"></tspan></text>
	</g>
</g>
<g fill="none" color="black" stroke="currentColor" stroke-width="3.00" stroke-linecap="butt" stroke-linejoin="miter">
	<path stroke='rgb(  0,   0, 255)'  d='M1271.2,175.6 L1363.5,175.6 M253.5,505.1 L255.4,501.4 L257.4,497.0 L259.3,492.5 L261.3,489.4 L263.3,484.7
		L265.2,480.4 L267.2,477.0 L269.1,471.5 L271.1,466.7 L273.0,463.3 L275.0,457.2 L276.9,452.2 L278.9,448.9
		L280.8,443.3 L282.8,440.2 L284.8,435.1 L286.7,432.0 L288.7,427.3 L290.6,424.1 L292.6,419.9 L294.5,416.6
		L296.5,412.2 L298.4,409.3 L300.4,405.9 L302.3,402.4 L304.3,398.9 L306.3,394.6 L308.2,391.4 L310.2,388.0
		L312.1,384.2 L314.1,380.8 L316.0,377.4 L318.0,373.4 L319.9,369.9 L321.9,366.1 L323.8,362.7 L325.8,359.0
		L327.8,355.3 L329.7,351.7 L331.7,348.2 L333.6,344.8 L335.6,340.8 L337.5,337.2 L339.5,333.8 L341.4,329.8
		L343.4,326.2 L345.3,322.6 L347.3,318.2 L349.2,314.5 L351.2,310.4 L353.2,306.5 L355.1,302.6 L357.1,298.8
		L359.0,295.2 L361.0,290.8 L362.9,287.5 L364.9,284.8 L366.8,281.6 L368.8,278.8 L370.7,275.8 L372.7,272.3
		L374.7,269.1 L376.6,265.9 L378.6,262.1 L380.5,258.7 L382.5,255.2 L384.4,251.0 L386.4,247.4 L388.3,243.7
		L390.3,239.5 L392.2,235.7 L394.2,231.7 L396.2,227.1 L398.1,223.2 L400.1,219.2 L402.0,214.7 L404.0,210.7
		L405.9,206.5 L407.9,201.8 L409.8,197.9 L411.8,193.9 L413.7,189.4 L415.7,185.5 L417.7,181.5 L419.6,177.1
		L421.6,173.4 L423.5,169.8 L425.5,168.4 L427.4,176.7 L429.4,185.0 L431.3,191.2 L433.3,200.4 L435.2,205.6
		L437.2,215.8 L439.2,224.8 L441.1,235.3 L443.1,245.2 L445.0,251.0 L447.0,261.5 L448.9,268.8 L450.9,278.7
		L452.8,285.6 L454.8,295.1 L456.7,304.3 L458.7,311.0 L460.7,319.8 L462.6,327.9 L464.6,335.3 L466.5,342.4
		L468.5,349.3 L470.4,356.0 L472.4,362.4 L474.3,368.7 L476.3,374.8 L478.2,380.5 L480.2,386.2 L482.2,391.7
		L484.1,397.0 L486.1,402.1 L488.0,407.0 L490.0,411.9 L491.9,416.5 L493.9,421.1 L495.8,425.4 L497.8,429.6
		L499.7,433.7 L501.7,437.6 L503.7,441.4 L505.6,445.1 L507.6,448.7 L509.5,452.0 L511.5,455.3 L513.4,458.5
		L515.4,461.6 L517.3,464.6 L519.3,463.6 L521.2,468.0 L523.2,471.7 L525.1,475.0 L527.1,475.2 L529.1,477.8
		L531.0,480.2 L533.0,482.6 L534.9,484.8 L536.9,487.1 L538.8,489.2 L540.8,491.3 L542.7,493.3 L544.7,495.5
		L546.6,497.3 L548.6,499.0 L550.6,500.7 L552.5,502.9 L554.5,504.4 L556.4,505.9 L558.4,507.4 L560.3,509.5
		L562.3,510.8 L564.2,512.1 L566.2,514.1 L568.1,515.2 L570.1,516.4 L572.1,518.3 L574.0,519.3 L576.0,520.3
		L577.9,522.3 L579.9,523.1 L581.8,524.0 L583.8,526.0 L585.7,526.7 L587.7,527.4 L589.6,529.4 L591.6,530.0
		L593.6,528.6 L595.5,527.8 L597.5,531.5 L599.4,530.3 L601.4,529.6 L603.3,535.9 L605.3,534.1 L607.2,533.1
		L609.2,538.6 L611.1,536.7 L613.1,535.6 L615.1,541.2 L617.0,539.2 L619.0,538.0 L620.9,543.6 L622.9,541.5
		L624.8,540.2 L626.8,545.9 L628.7,543.8 L630.7,545.9 L632.6,544.0 L634.6,549.0 L636.6,546.7 L638.5,548.6
		L640.5,546.7 L642.4,551.6 L644.4,549.2 L646.3,551.2 L648.3,549.2 L650.2,554.0 L652.2,551.6 L654.1,555.2
		L656.1,552.8 L658.1,556.4 L660.0,553.9 L662.0,557.4 L663.9,554.9 L665.9,558.4 L667.8,555.9 L669.8,559.4
		L671.7,556.9 L673.7,560.4 L675.6,557.8 L677.6,561.3 L679.6,558.7 L681.5,562.2 L683.5,559.5 L685.4,563.0
		L687.4,560.3 L689.3,563.9 L691.3,561.1 L693.2,564.6 L695.2,561.8 L697.1,565.3 L699.1,562.6 L701.0,566.0
		L703.0,563.2 L705.0,566.7 L706.9,563.9 L708.9,567.3 L710.8,564.5 L712.8,568.0 L714.7,565.2 L716.7,568.5
		L718.6,565.7 L720.6,569.1 L722.5,566.3 L724.5,569.6 L726.5,566.8 L728.4,570.1 L730.4,567.3 L732.3,570.6
		L734.3,567.8 L736.2,571.2 L738.2,568.3 L740.1,571.6 L742.1,568.7 L744.0,572.1 L746.0,571.6 L748.0,571.6
		L749.9,571.8 L751.9,572.1 L753.8,572.3 L755.8,572.6 L757.7,573.9 L759.7,572.5 L761.6,574.0 L763.6,572.7
		L765.5,574.6 L767.5,573.2 L769.5,575.0 L771.4,573.6 L773.4,575.6 L775.3,574.0 L777.3,575.8 L779.2,574.3
		L781.2,576.0 L783.1,574.5 L785.1,576.2 L787.0,574.6 L789.0,576.2 L791.0,574.6 L792.9,576.3 L794.9,574.5
		L796.8,577.9 L798.8,575.3 L800.7,575.6 L802.7,573.4 L804.6,555.4 L806.6,693.8 L808.5,694.4 L810.5,695.0
		L812.5,695.6 L814.4,696.2 L816.4,696.8 L818.3,697.4 L820.3,697.9 L822.2,698.4 L824.2,698.9 L826.1,699.3
		L828.1,699.8 L830.0,700.2 L832.0,700.6 L834.0,700.9 L835.9,701.3 L837.9,701.6 L839.8,701.9 L841.8,702.2
		L843.7,702.5 L845.7,702.9 L847.6,703.1 L849.6,703.4 L851.5,703.7 L853.5,704.0 L855.5,704.3 L857.4,704.5
		L859.4,704.8 L861.3,705.1 L863.3,705.3 L865.2,705.6 L867.2,705.9 L869.1,706.1 L871.1,706.4 L873.0,706.6
		L875.0,706.9 L876.9,707.2 L878.9,701.3 L880.9,702.2 L882.8,703.2 L884.8,704.2 L886.7,705.1 L888.7,705.9
		L890.6,706.6 L892.6,707.3 L894.5,708.0 L896.5,708.6 L898.4,709.1 L900.4,709.6 L902.4,710.1 L904.3,709.5
		L906.3,709.0 L908.2,708.5 L910.2,708.2 L912.1,707.8 L914.1,707.5 L916.0,707.2 L918.0,707.0 L919.9,706.8
		L921.9,706.7 L923.9,706.6 L925.8,706.5 L927.8,706.4 L929.7,706.4 L931.7,706.3 L933.6,706.3 L935.6,706.3
		L937.5,706.3 L939.5,706.3 L941.4,706.3 L943.4,706.3 L945.4,706.3 L947.3,706.3 L949.3,706.4 L951.2,706.4
		L953.2,706.4 L955.1,706.5 L957.1,706.5 L959.0,706.5 L961.0,706.5 L962.9,706.6 L964.9,706.6 L966.9,706.6
		L968.8,706.7 L970.8,706.7 L972.7,706.7 L974.7,706.8 L976.6,706.8 L978.6,706.8 L980.5,706.9 L982.5,706.9
		L984.4,706.9 L986.4,707.0 L988.4,707.0 L990.3,707.0 L992.3,707.1 L994.2,707.1 L996.2,706.8 L998.1,707.2
		L1000.1,707.2 L1002.0,707.2 L1004.0,707.3 L1005.9,707.3 L1007.9,707.3 L1009.9,707.4 L1011.8,707.4 L1013.8,707.4
		L1015.7,707.5 L1017.7,707.5 L1019.6,707.6 L1021.6,707.6 L1023.5,707.6 L1025.5,707.7 L1027.4,707.7 L1029.4,707.7
		L1031.4,707.8 L1033.3,707.8  '/></g>
	</g>
	<g id="gnuplot_plot_3" ><title>3-NO2PhN2+</title>
<g fill="none" color="black" stroke="currentColor" stroke-width="3.00" stroke-linecap="butt" stroke-linejoin="miter">
	<g transform="translate(1253.0,223.1)" stroke="none" fill="black" font-family="Helvetica" font-size="26.00"  text-anchor="end">
		<text><tspan font-family="Helvetica" >3-NO</tspan><tspan font-family="Helvetica"  font-size="20.8" dy="7.80px">2</tspan><tspan font-family="Helvetica"  font-size="26.0" dy="-7.80px">PhN</tspan><tspan font-family="Helvetica"  font-size="20.8" dy="7.80px">2</tspan><tspan font-family="Helvetica"  dy="-20.80px">+</tspan><tspan font-size="26.0" dy="13.00"></tspan></text>
	</g>
</g>
<g fill="none" color="black" stroke="currentColor" stroke-width="3.00" stroke-linecap="butt" stroke-linejoin="miter">
	<path stroke='rgb(  0, 255,   0)'  d='M1271.2,214.6 L1363.5,214.6 M253.5,527.7 L255.4,525.4 L257.4,522.7 L259.3,519.3 L261.3,516.9 L263.3,513.8
		L265.2,510.9 L267.2,508.6 L269.1,505.7 L271.1,502.0 L273.0,500.4 L275.0,498.2 L276.9,496.2 L278.9,493.5
		L280.8,491.6 L282.8,489.6 L284.8,487.5 L286.7,485.1 L288.7,483.3 L290.6,481.0 L292.6,479.4 L294.5,477.3
		L296.5,475.8 L298.4,474.2 L300.4,472.2 L302.3,470.9 L304.3,469.0 L306.3,467.8 L308.2,466.1 L310.2,464.9
		L312.1,463.4 L314.1,462.2 L316.0,460.7 L318.0,459.6 L319.9,458.5 L321.9,457.0 L323.8,456.0 L325.8,454.9
		L327.8,453.4 L329.7,452.4 L331.7,451.3 L333.6,449.9 L335.6,448.9 L337.5,447.8 L339.5,446.2 L341.4,445.1
		L343.4,443.9 L345.3,442.3 L347.3,441.0 L349.2,439.6 L351.2,437.6 L353.2,436.3 L355.1,434.7 L357.1,432.6
		L359.0,430.8 L361.0,428.9 L362.9,426.3 L364.9,424.3 L366.8,422.0 L368.8,419.2 L370.7,416.7 L372.7,414.0
		L374.7,410.3 L376.6,407.5 L378.6,404.4 L380.5,400.5 L382.5,397.1 L384.4,393.4 L386.4,388.6 L388.3,384.7
		L390.3,380.6 L392.2,375.5 L394.2,371.0 L396.2,366.2 L398.1,360.1 L400.1,355.3 L402.0,350.0 L404.0,343.8
		L405.9,338.3 L407.9,332.4 L409.8,325.2 L411.8,319.4 L413.7,313.2 L415.7,306.0 L417.7,299.6 L419.6,292.9
		L421.6,284.8 L423.5,278.3 L425.5,270.3 L427.4,263.6 L429.4,256.7 L431.3,266.0 L433.3,277.8 L435.2,289.1
		L437.2,297.7 L439.2,308.7 L441.1,319.0 L443.1,327.3 L445.0,337.0 L447.0,346.0 L448.9,352.4 L450.9,361.4
		L452.8,369.6 L454.8,376.0 L456.7,383.8 L458.7,391.0 L460.7,395.6 L462.6,402.8 L464.6,406.8 L466.5,414.0
		L468.5,420.3 L470.4,424.2 L472.4,430.3 L474.3,435.7 L476.3,439.5 L478.2,444.6 L480.2,449.3 L482.2,451.7
		L484.1,456.5 L486.1,460.9 L488.0,463.6 L490.0,467.7 L491.9,471.5 L493.9,473.1 L495.8,477.0 L497.8,480.5
		L499.7,482.5 L501.7,485.8 L503.7,488.7 L505.6,489.7 L507.6,492.8 L509.5,495.6 L511.5,497.0 L513.4,499.6
		L515.4,502.0 L517.3,502.4 L519.3,505.0 L521.2,507.2 L523.2,508.3 L525.1,510.4 L527.1,512.3 L529.1,512.6
		L531.0,514.7 L533.0,516.5 L534.9,517.1 L536.9,518.9 L538.8,519.2 L540.8,519.6 L542.7,518.8 L544.7,518.7
		L546.6,520.5 L548.6,520.4 L550.6,520.6 L552.5,523.5 L554.5,523.0 L556.4,526.7 L558.4,525.8 L560.3,525.4
		L562.3,529.2 L564.2,528.1 L566.2,527.6 L568.1,530.0 L570.1,529.2 L572.1,528.9 L574.0,531.3 L576.0,530.7
		L577.9,530.5 L579.9,533.1 L581.8,532.4 L583.8,536.5 L585.7,535.1 L587.7,534.2 L589.6,537.4 L591.6,536.0
		L593.6,538.2 L595.5,536.8 L597.5,540.3 L599.4,538.5 L601.4,537.5 L603.3,539.4 L605.3,538.3 L607.2,537.7
		L609.2,540.3 L611.1,539.2 L613.1,543.6 L615.1,541.6 L617.0,540.4 L619.0,544.7 L620.9,542.6 L622.9,541.4
		L624.8,545.7 L626.8,543.6 L628.7,546.3 L630.7,544.2 L632.6,542.9 L634.6,546.2 L636.6,544.3 L638.5,546.7
		L640.5,544.8 L642.4,548.4 L644.4,546.1 L646.3,547.9 L648.3,549.4 L650.2,547.0 L652.2,545.6 L654.1,547.4
		L656.1,545.9 L658.1,550.4 L660.0,548.0 L662.0,546.6 L663.9,550.0 L665.9,547.9 L667.8,550.0 L669.8,548.0
		L671.7,552.0 L673.7,549.5 L675.6,548.0 L677.6,551.1 L679.6,549.1 L681.5,552.9 L683.5,550.4 L685.4,553.2
		L687.4,550.7 L689.3,552.6 L691.3,553.9 L693.2,551.3 L695.2,549.8 L697.1,552.0 L699.1,550.2 L701.0,554.7
		L703.0,552.1 L705.0,550.5 L706.9,555.1 L708.9,552.5 L710.8,555.4 L712.8,552.8 L714.7,554.6 L716.7,556.0
		L718.6,553.3 L720.6,551.7 L722.5,553.6 L724.5,551.9 L726.5,556.5 L728.4,553.9 L730.4,552.2 L732.3,555.8
		L734.3,553.5 L736.2,556.2 L738.2,553.8 L740.1,556.4 L742.1,554.0 L744.0,556.5 L746.0,557.9 L748.0,555.1
		L749.9,558.0 L751.9,555.2 L753.8,558.1 L755.8,555.4 L757.7,558.3 L759.7,555.6 L761.6,558.5 L763.6,555.7
		L765.5,558.7 L767.5,555.9 L769.5,559.0 L771.4,556.2 L773.4,559.1 L775.3,556.3 L777.3,559.3 L779.2,556.5
		L781.2,559.5 L783.1,556.6 L785.1,559.6 L787.0,556.8 L789.0,561.7 L791.0,559.0 L792.9,556.5 L794.9,560.0
		L796.8,557.1 L798.8,561.4 L800.7,559.1 L802.7,556.7 L804.6,560.3 L806.6,557.5 L808.5,560.6 L810.5,557.7
		L812.5,560.7 L814.4,557.8 L816.4,560.8 L818.3,557.9 L820.3,560.9 L822.2,558.0 L824.2,561.0 L826.1,558.1
		L828.1,561.2 L830.0,558.3 L832.0,561.2 L834.0,558.3 L835.9,561.4 L837.9,558.5 L839.8,560.9 L841.8,560.2
		L843.7,557.7 L845.7,561.8 L847.6,558.8 L849.6,561.8 L851.5,558.9 L853.5,561.9 L855.5,559.0 L857.4,563.1
		L859.4,560.8 L861.3,558.4 L863.3,562.1 L865.2,559.2 L867.2,562.3 L869.1,559.4 L871.1,562.3 L873.0,559.4
		L875.0,562.4 L876.9,559.5 L878.9,562.6 L880.9,559.6 L882.8,562.6 L884.8,559.7 L886.7,562.7 L888.7,559.7
		L890.6,562.7 L892.6,559.8 L894.5,562.9 L896.5,559.9 L898.4,562.9 L900.4,559.9 L902.4,565.4 L904.3,562.3
		L906.3,559.7 L908.2,563.0 L910.2,560.1 L912.1,563.2 L914.1,560.3 L916.0,562.5 L918.0,562.3 L919.9,559.7
		L921.9,563.3 L923.9,560.4 L925.8,563.4 L927.8,560.5 L929.7,563.4 L931.7,561.8 L933.6,559.6 L935.6,563.7
		L937.5,560.7 L939.5,563.6 L941.4,560.7 L943.4,563.8 L945.4,560.8 L947.3,563.8 L949.3,560.9 L951.2,563.8
		L953.2,560.8 L955.1,564.0 L957.1,561.0 L959.0,564.0 L961.0,561.0 L962.9,565.6 L964.9,563.0 L966.9,560.5
		L968.8,564.1 L970.8,561.1 L972.7,564.2 L974.7,561.2 L976.6,563.7 L978.6,562.6 L980.5,560.2 L982.5,564.4
		L984.4,561.4 L986.4,564.3 L988.4,561.4 L990.3,564.5 L992.3,561.5 L994.2,564.5 L996.2,561.5 L998.1,564.5
		L1000.1,561.6 L1002.0,564.6 L1004.0,561.6 L1005.9,564.7 L1007.9,561.7 L1009.9,564.7 L1011.8,561.7 L1013.8,564.7
		L1015.7,561.7 L1017.7,564.8 L1019.6,561.8 L1021.6,564.8 L1023.5,561.8 L1025.5,564.9 L1027.4,561.9 L1029.4,564.9
		L1031.4,561.9 L1033.3,565.0  '/></g>
	</g>
	<g id="gnuplot_plot_4" ><title>4-NO2PhN2+</title>
<g fill="none" color="black" stroke="currentColor" stroke-width="3.00" stroke-linecap="butt" stroke-linejoin="miter">
	<g transform="translate(1253.0,262.1)" stroke="none" fill="black" font-family="Helvetica" font-size="26.00"  text-anchor="end">
		<text><tspan font-family="Helvetica" >4-NO</tspan><tspan font-family="Helvetica"  font-size="20.8" dy="7.80px">2</tspan><tspan font-family="Helvetica"  font-size="26.0" dy="-7.80px">PhN</tspan><tspan font-family="Helvetica"  font-size="20.8" dy="7.80px">2</tspan><tspan font-family="Helvetica"  dy="-20.80px">+</tspan><tspan font-size="26.0" dy="13.00"></tspan></text>
	</g>
</g>
<g fill="none" color="black" stroke="currentColor" stroke-width="3.00" stroke-linecap="butt" stroke-linejoin="miter">
	<path stroke='rgb(230, 159,   0)'  d='M1271.2,253.6 L1363.5,253.6 M253.5,566.7 L255.4,564.4 L257.4,561.9 L259.3,558.7 L261.3,556.1 L263.3,553.4
		L265.2,550.7 L267.2,547.8 L269.1,545.8 L271.1,543.4 L273.0,541.0 L275.0,538.4 L276.9,536.6 L278.9,534.1
		L280.8,532.5 L282.8,530.4 L284.8,528.2 L286.7,526.5 L288.7,524.8 L290.6,523.1 L292.6,521.3 L294.5,519.7
		L296.5,517.9 L298.4,516.5 L300.4,515.1 L302.3,513.6 L304.3,512.0 L306.3,510.9 L308.2,509.6 L310.2,508.4
		L312.1,507.0 L314.1,505.9 L316.0,504.8 L318.0,503.5 L319.9,502.5 L321.9,501.5 L323.8,500.3 L325.8,499.4
		L327.8,498.4 L329.7,497.2 L331.7,496.3 L333.6,495.3 L335.6,494.0 L337.5,493.1 L339.5,492.1 L341.4,490.7
		L343.4,489.8 L345.3,488.6 L347.3,487.1 L349.2,486.0 L351.2,484.7 L353.2,483.1 L355.1,481.7 L357.1,480.2
		L359.0,478.3 L361.0,476.7 L362.9,474.9 L364.9,472.6 L366.8,470.7 L368.8,468.6 L370.7,466.0 L372.7,463.7
		L374.7,461.2 L376.6,458.1 L378.6,455.4 L380.5,452.5 L382.5,449.0 L384.4,445.9 L386.4,442.5 L388.3,438.4
		L390.3,434.9 L392.2,431.1 L394.2,426.6 L396.2,422.6 L398.1,418.3 L400.1,413.2 L402.0,408.8 L404.0,404.2
		L405.9,398.8 L407.9,394.0 L409.8,388.9 L411.8,382.9 L413.7,377.9 L415.7,372.6 L417.7,366.6 L419.6,361.2
		L421.6,355.6 L423.5,349.1 L425.5,343.6 L427.4,338.0 L429.4,331.7 L431.3,326.1 L433.3,320.4 L435.2,327.9
		L437.2,340.2 L439.2,351.9 L441.1,361.7 L443.1,372.7 L445.0,383.2 L447.0,391.0 L448.9,401.3 L450.9,410.9
		L452.8,418.7 L454.8,427.7 L456.7,436.2 L458.7,441.6 L460.7,450.3 L462.6,458.3 L464.6,464.5 L466.5,472.0
		L468.5,479.0 L470.4,483.3 L472.4,490.3 L474.3,496.8 L476.3,501.6 L478.2,507.7 L480.2,513.3 L482.2,516.5
		L484.1,522.3 L486.1,527.6 L488.0,531.3 L490.0,536.3 L491.9,540.9 L493.9,543.1 L495.8,547.9 L497.8,552.3
		L499.7,555.2 L501.7,559.3 L503.7,563.0 L505.6,564.5 L507.6,568.5 L509.5,572.1 L511.5,574.3 L513.4,577.7
		L515.4,580.8 L517.3,582.7 L519.3,585.7 L521.2,587.3 L523.2,590.3 L525.1,592.9 L527.1,594.3 L529.1,597.0
		L531.0,598.3 L533.0,600.9 L534.9,603.2 L536.9,604.2 L538.8,603.6 L540.8,603.7 L542.7,607.3 L544.7,607.1
		L546.6,607.5 L548.6,610.9 L550.6,610.6 L552.5,611.0 L554.5,614.1 L556.4,614.1 L558.4,614.5 L560.3,618.4
		L562.3,618.0 L564.2,618.2 L566.2,621.3 L568.1,621.0 L570.1,621.1 L572.1,625.0 L574.0,624.4 L576.0,624.3
		L577.9,627.4 L579.9,626.7 L581.8,626.7 L583.8,630.6 L585.7,629.7 L587.7,634.6 L589.6,632.9 L591.6,632.1
		L593.6,636.9 L595.5,635.2 L597.5,638.6 L599.4,636.7 L601.4,635.7 L603.3,640.6 L605.3,638.6 L607.2,637.6
		L609.2,642.6 L611.1,640.5 L613.1,639.4 L615.1,641.8 L617.0,640.5 L619.0,639.9 L620.9,643.7 L622.9,642.2
		L624.8,647.3 L626.8,645.0 L628.7,643.6 L630.7,648.8 L632.6,646.4 L634.6,645.1 L636.6,650.2 L638.5,647.8
		L640.5,651.3 L642.4,648.8 L644.4,647.3 L646.3,652.6 L648.3,650.0 L650.2,648.5 L652.2,653.8 L654.1,651.2
		L656.1,649.6 L658.1,653.8 L660.0,651.5 L662.0,654.7 L663.9,652.3 L665.9,655.4 L667.8,653.0 L669.8,656.1
		L671.7,653.7 L673.7,655.4 L675.6,653.4 L677.6,658.5 L679.6,655.7 L681.5,653.9 L683.5,657.3 L685.4,655.1
		L687.4,660.0 L689.3,657.1 L691.3,655.3 L693.2,660.8 L695.2,657.8 L697.1,656.0 L699.1,660.3 L701.0,657.7
		L703.0,661.1 L705.0,658.5 L706.9,660.1 L708.9,657.9 L710.8,663.2 L712.8,660.2 L714.7,658.3 L716.7,661.7
		L718.6,659.3 L720.6,664.4 L722.5,661.2 L724.5,659.3 L726.5,663.7 L728.4,661.0 L730.4,663.0 L732.3,660.6
		L734.3,665.8 L736.2,662.6 L738.2,660.6 L740.1,665.1 L742.1,662.3 L744.0,665.1 L746.0,662.4 L748.0,667.1
		L749.9,664.0 L751.9,661.9 L753.8,667.5 L755.8,664.3 L757.7,662.3 L759.7,664.9 L761.6,662.7 L763.6,668.4
		L765.5,665.1 L767.5,663.1 L769.5,667.5 L771.4,664.6 L773.4,667.9 L775.3,665.0 L777.3,668.3 L779.2,665.4
		L781.2,666.9 L783.1,664.6 L785.1,670.0 L787.0,666.7 L789.0,664.6 L791.0,668.5 L792.9,665.7 L794.9,670.6
		L796.8,667.3 L798.8,665.2 L800.7,669.6 L802.7,666.7 L804.6,669.5 L806.6,666.7 L808.5,671.4 L810.5,668.0
		L812.5,671.8 L814.4,668.3 L816.4,666.2 L818.3,670.5 L820.3,667.6 L822.2,670.9 L824.2,667.9 L826.1,669.9
		L828.1,667.3 L830.0,672.5 L832.0,669.1 L834.0,672.9 L835.9,669.4 L837.9,673.0 L839.8,669.6 L841.8,673.2
		L843.7,669.7 L845.7,673.4 L847.6,669.9 L849.6,673.6 L851.5,670.1 L853.5,673.7 L855.5,670.3 L857.4,673.9
		L859.4,670.4 L861.3,674.1 L863.3,670.6 L865.2,674.2 L867.2,670.7 L869.1,674.4 L871.1,670.8 L873.0,674.5
		L875.0,671.0 L876.9,674.6 L878.9,671.1 L880.9,674.8 L882.8,671.2 L884.8,674.9 L886.7,671.4 L888.7,675.0
		L890.6,671.5 L892.6,675.1 L894.5,671.6 L896.5,675.3 L898.4,671.7 L900.4,675.4 L902.4,671.9 L904.3,675.5
		L906.3,672.0 L908.2,675.6 L910.2,672.1 L912.1,675.8 L914.1,672.2 L916.0,675.9 L918.0,672.3 L919.9,676.0
		L921.9,672.5 L923.9,676.1 L925.8,672.6 L927.8,676.3 L929.7,672.7 L931.7,676.4 L933.6,672.8 L935.6,676.5
		L937.5,672.9 L939.5,676.6 L941.4,673.0 L943.4,676.7 L945.4,673.1 L947.3,676.8 L949.3,673.2 L951.2,676.8
		L953.2,673.3 L955.1,676.9 L957.1,673.4 L959.0,677.0 L961.0,673.5 L962.9,677.1 L964.9,673.6 L966.9,677.2
		L968.8,673.6 L970.8,677.3 L972.7,673.7 L974.7,677.4 L976.6,673.8 L978.6,677.5 L980.5,673.9 L982.5,677.6
		L984.4,674.0 L986.4,677.6 L988.4,674.1 L990.3,677.8 L992.3,674.1 L994.2,677.8 L996.2,674.2 L998.1,677.9
		L1000.1,674.3 L1002.0,678.0 L1004.0,674.4 L1005.9,678.1 L1007.9,674.5 L1009.9,678.2 L1011.8,674.5 L1013.8,678.2
		L1015.7,674.6 L1017.7,678.3 L1019.6,674.7 L1021.6,678.4 L1023.5,674.8 L1025.5,678.4 L1027.4,674.8 L1029.4,678.5
		L1031.4,674.9 L1033.3,678.6  '/></g>
	</g>
	<g id="gnuplot_plot_5" ><title>2-MeOPhN2+</title>
<g fill="none" color="black" stroke="currentColor" stroke-width="3.00" stroke-linecap="butt" stroke-linejoin="miter">
	<g transform="translate(1253.0,301.1)" stroke="none" fill="black" font-family="Helvetica" font-size="26.00"  text-anchor="end">
		<text><tspan font-family="Helvetica" >2-MeOPhN</tspan><tspan font-family="Helvetica"  font-size="20.8" dy="7.80px">2</tspan><tspan font-family="Helvetica"  dy="-20.80px">+</tspan><tspan font-size="26.0" dy="13.00"></tspan></text>
	</g>
</g>
<g fill="none" color="black" stroke="currentColor" stroke-width="3.00" stroke-linecap="butt" stroke-linejoin="miter">
	<path stroke='rgb(240, 228,  66)'  d='M1271.2,292.6 L1363.5,292.6 M253.5,490.9 L255.4,484.1 L257.4,479.0 L259.3,474.8 L261.3,469.2 L263.3,465.2
		L265.2,462.1 L267.2,457.9 L269.1,454.6 L271.1,452.6 L273.0,449.1 L275.0,447.7 L276.9,445.5 L278.9,444.1
		L280.8,441.8 L282.8,441.0 L284.8,439.4 L286.7,438.7 L288.7,437.8 L290.6,437.0 L292.6,435.8 L294.5,435.5
		L296.5,435.1 L298.4,434.7 L300.4,434.4 L302.3,434.2 L304.3,433.5 L306.3,433.7 L308.2,433.8 L310.2,433.9
		L312.1,434.0 L314.1,434.2 L316.0,434.4 L318.0,434.7 L319.9,435.0 L321.9,435.4 L323.8,435.7 L325.8,436.2
		L327.8,436.7 L329.7,437.1 L331.7,437.6 L333.6,438.1 L335.6,438.6 L337.5,439.2 L339.5,439.7 L341.4,440.1
		L343.4,440.6 L345.3,441.0 L347.3,441.4 L349.2,441.7 L351.2,442.0 L353.2,442.2 L355.1,442.4 L357.1,442.5
		L359.0,442.4 L361.0,442.3 L362.9,442.1 L364.9,441.8 L366.8,441.3 L368.8,440.8 L370.7,440.1 L372.7,439.2
		L374.7,438.3 L376.6,437.2 L378.6,435.8 L380.5,434.4 L382.5,432.7 L384.4,430.9 L386.4,428.9 L388.3,426.7
		L390.3,424.4 L392.2,421.8 L394.2,419.1 L396.2,416.1 L398.1,413.0 L400.1,409.7 L402.0,406.1 L404.0,402.4
		L405.9,398.5 L407.9,394.4 L409.8,390.1 L411.8,385.7 L413.7,381.0 L415.7,376.2 L417.7,371.2 L419.6,366.1
		L421.6,360.8 L423.5,355.4 L425.5,349.8 L427.4,344.1 L429.4,338.3 L431.3,339.4 L433.3,351.6 L435.2,363.5
		L437.2,375.2 L439.2,386.4 L441.1,397.3 L443.1,407.8 L445.0,417.9 L447.0,427.7 L448.9,437.2 L450.9,446.3
		L452.8,455.1 L454.8,463.6 L456.7,471.8 L458.7,479.7 L460.7,487.3 L462.6,494.6 L464.6,501.7 L466.5,508.6
		L468.5,515.1 L470.4,521.5 L472.4,527.6 L474.3,533.5 L476.3,539.2 L478.2,544.7 L480.2,549.9 L482.2,555.0
		L484.1,559.9 L486.1,564.7 L488.0,569.2 L490.0,573.6 L491.9,577.8 L493.9,581.9 L495.8,585.9 L497.8,589.7
		L499.7,593.4 L501.7,597.0 L503.7,600.4 L505.6,603.7 L507.6,606.9 L509.5,609.9 L511.5,612.9 L513.4,615.7
		L515.4,618.5 L517.3,621.1 L519.3,623.7 L521.2,626.1 L523.2,626.9 L525.1,628.1 L527.1,629.5 L529.1,631.1
		L531.0,632.8 L533.0,634.6 L534.9,636.3 L536.9,638.0 L538.8,639.7 L540.8,641.3 L542.7,642.9 L544.7,644.5
		L546.6,646.0 L548.6,647.5 L550.6,648.9 L552.5,650.3 L554.5,651.6 L556.4,652.9 L558.4,654.2 L560.3,655.4
		L562.3,656.6 L564.2,657.8 L566.2,658.9 L568.1,659.9 L570.1,661.0 L572.1,662.0 L574.0,663.0 L576.0,663.9
		L577.9,664.8 L579.9,664.3 L581.8,670.6 L583.8,668.8 L585.7,667.9 L587.7,667.5 L589.6,673.9 L591.6,671.9
		L593.6,670.9 L595.5,670.4 L597.5,676.9 L599.4,674.8 L601.4,673.7 L603.3,673.1 L605.3,679.6 L607.2,677.5
		L609.2,676.2 L611.1,675.5 L613.1,682.2 L615.1,679.9 L617.0,678.5 L619.0,677.8 L620.9,684.5 L622.9,682.1
		L624.8,680.6 L626.8,679.8 L628.7,686.6 L630.7,684.1 L632.6,682.6 L634.6,681.7 L636.6,688.6 L638.5,686.0
		L640.5,684.4 L642.4,688.6 L644.4,686.3 L646.3,684.9 L648.3,691.2 L650.2,688.5 L652.2,686.8 L654.1,691.1
		L656.1,688.7 L658.1,687.2 L660.0,693.6 L662.0,690.8 L663.9,689.0 L665.9,693.3 L667.8,690.8 L669.8,689.2
		L671.7,695.6 L673.7,692.7 L675.6,690.9 L677.6,695.2 L679.6,692.6 L681.5,691.0 L683.5,697.5 L685.4,694.5
		L687.4,692.5 L689.3,696.9 L691.3,694.2 L693.2,692.6 L695.2,699.0 L697.1,696.0 L699.1,694.0 L701.0,698.4
		L703.0,695.7 L705.0,694.0 L706.9,700.5 L708.9,697.4 L710.8,695.4 L712.8,699.8 L714.7,697.1 L716.7,695.3
		L718.6,701.9 L720.6,698.7 L722.5,696.7 L724.5,701.2 L726.5,698.3 L728.4,696.5 L730.4,703.1 L732.3,699.9
		L734.3,697.8 L736.2,702.2 L738.2,699.3 L740.1,697.5 L742.1,704.1 L744.0,700.9 L746.0,698.7 L748.0,704.6
		L749.9,701.3 L751.9,699.2 L753.8,703.6 L755.8,700.7 L757.7,704.2 L759.7,701.2 L761.6,699.3 L763.6,705.8
		L765.5,702.5 L767.5,700.3 L769.5,706.2 L771.4,702.8 L773.4,700.6 L775.3,706.6 L777.3,703.2 L779.2,701.0
		L781.2,706.9 L783.1,703.5 L785.1,701.3 L787.0,707.3 L789.0,703.9 L791.0,701.6 L792.9,707.6 L794.9,704.2
		L796.8,701.9 L798.8,707.9 L800.7,704.4 L802.7,706.8 L804.6,703.7 L806.6,707.1 L808.5,703.9 L810.5,707.3
		L812.5,704.1 L814.4,707.4 L816.4,704.3 L818.3,707.6 L820.3,704.4 L822.2,707.8 L824.2,704.6 L826.1,707.9
		L828.1,704.7 L830.0,708.1 L832.0,704.9 L834.0,708.2 L835.9,705.0 L837.9,708.4 L839.8,705.2 L841.8,708.5
		L843.7,705.3 L845.7,708.7 L847.6,705.5 L849.6,708.8 L851.5,705.6 L853.5,708.9 L855.5,705.7 L857.4,709.0
		L859.4,705.8 L861.3,709.1 L863.3,705.9 L865.2,709.3 L867.2,706.0 L869.1,709.3 L871.1,706.1 L873.0,709.4
		L875.0,706.2 L876.9,709.4 L878.9,706.2 L880.9,709.5 L882.8,706.3 L884.8,709.6 L886.7,706.4 L888.7,709.8
		L890.6,706.5 L892.6,709.9 L894.5,706.6 L896.5,709.9 L898.4,706.6 L900.4,710.1 L902.4,706.8 L904.3,710.1
		L906.3,706.9 L908.2,710.2 L910.2,706.9 L912.1,710.3 L914.1,707.0 L916.0,710.4 L918.0,707.1 L919.9,710.4
		L921.9,707.1 L923.9,710.5 L925.8,707.2 L927.8,710.6 L929.7,707.3 L931.7,710.7 L933.6,707.4 L935.6,710.7
		L937.5,707.4 L939.5,710.8 L941.4,707.5 L943.4,710.8 L945.4,707.5 L947.3,710.9 L949.3,707.6 L951.2,711.0
		L953.2,707.6 L955.1,711.0 L957.1,707.7 L959.0,711.1 L961.0,707.7 L962.9,711.1 L964.9,707.8 L966.9,711.2
		L968.8,707.9 L970.8,711.2 L972.7,707.9 L974.7,711.3 L976.6,708.0 L978.6,711.4 L980.5,708.0 L982.5,711.4
		L984.4,708.1 L986.4,711.5 L988.4,708.1 L990.3,711.5 L992.3,708.2 L994.2,711.6 L996.2,708.2 L998.1,711.6
		L1000.1,708.3 L1002.0,711.7 L1004.0,708.3 L1005.9,711.7 L1007.9,708.3 L1009.9,711.8 L1011.8,708.4 L1013.8,711.8
		L1015.7,708.4 L1017.7,711.8 L1019.6,708.4 L1021.6,711.8 L1023.5,708.4 L1025.5,711.8 L1027.4,708.5 L1029.4,711.8
		L1031.4,708.5 L1033.3,711.8  '/></g>
	</g>
	<g id="gnuplot_plot_6" ><title>3-MeOPhN2+</title>
<g fill="none" color="black" stroke="currentColor" stroke-width="3.00" stroke-linecap="butt" stroke-linejoin="miter">
	<g transform="translate(1253.0,340.1)" stroke="none" fill="black" font-family="Helvetica" font-size="26.00"  text-anchor="end">
		<text><tspan font-family="Helvetica" >3-MeOPhN</tspan><tspan font-family="Helvetica"  font-size="20.8" dy="7.80px">2</tspan><tspan font-family="Helvetica"  dy="-20.80px">+</tspan><tspan font-size="26.0" dy="13.00"></tspan></text>
	</g>
</g>
<g fill="none" color="black" stroke="currentColor" stroke-width="3.00" stroke-linecap="butt" stroke-linejoin="miter">
	<path stroke='rgb(  0, 114, 178)'  d='M1271.2,331.6 L1363.5,331.6 M253.5,626.6 L255.4,623.4 L257.4,620.7 L259.3,618.6 L261.3,615.2 L263.3,612.5
		L265.2,610.7 L267.2,607.4 L269.1,605.7 L271.1,603.9 L273.0,601.1 L275.0,599.6 L276.9,596.9 L278.9,595.7
		L280.8,594.2 L282.8,592.5 L284.8,589.9 L286.7,589.0 L288.7,586.8 L290.6,586.1 L292.6,584.9 L294.5,583.7
		L296.5,582.5 L298.4,580.6 L300.4,580.0 L302.3,579.2 L304.3,578.3 L306.3,577.5 L308.2,576.7 L310.2,575.9
		L312.1,575.2 L314.1,574.5 L316.0,573.8 L318.0,573.3 L319.9,572.7 L321.9,572.2 L323.8,571.7 L325.8,571.2
		L327.8,570.7 L329.7,570.3 L331.7,569.8 L333.6,569.4 L335.6,568.9 L337.5,568.4 L339.5,567.9 L341.4,567.4
		L343.4,566.8 L345.3,566.1 L347.3,565.5 L349.2,564.7 L351.2,563.9 L353.2,563.0 L355.1,562.1 L357.1,561.0
		L359.0,559.8 L361.0,558.6 L362.9,557.2 L364.9,555.6 L366.8,554.0 L368.8,552.2 L370.7,550.3 L372.7,548.2
		L374.7,545.9 L376.6,543.5 L378.6,540.9 L380.5,538.2 L382.5,535.3 L384.4,532.1 L386.4,528.8 L388.3,525.4
		L390.3,521.7 L392.2,517.8 L394.2,513.7 L396.2,509.5 L398.1,505.0 L400.1,500.4 L402.0,495.5 L404.0,490.5
		L405.9,485.4 L407.9,480.0 L409.8,474.4 L411.8,468.8 L413.7,462.9 L415.7,456.9 L417.7,450.7 L419.6,444.4
		L421.6,437.9 L423.5,431.3 L425.5,424.6 L427.4,417.8 L429.4,410.9 L431.3,403.8 L433.3,402.9 L435.2,413.4
		L437.2,423.7 L439.2,433.7 L441.1,443.4 L443.1,452.9 L445.0,461.9 L447.0,470.7 L448.9,479.1 L450.9,487.3
		L452.8,495.1 L454.8,502.6 L456.7,509.9 L458.7,516.8 L460.7,523.5 L462.6,530.0 L464.6,536.2 L466.5,542.1
		L468.5,547.9 L470.4,553.4 L472.4,558.7 L474.3,563.7 L476.3,568.6 L478.2,573.3 L480.2,577.8 L482.2,582.1
		L484.1,586.3 L486.1,590.3 L488.0,594.1 L490.0,597.8 L491.9,601.3 L493.9,604.7 L495.8,608.0 L497.8,611.2
		L499.7,614.2 L501.7,617.0 L503.7,619.8 L505.6,622.5 L507.6,625.0 L509.5,627.5 L511.5,629.8 L513.4,632.0
		L515.4,634.2 L517.3,636.2 L519.3,638.2 L521.2,640.1 L523.2,641.9 L525.1,643.7 L527.1,645.4 L529.1,647.0
		L531.0,648.6 L533.0,649.2 L534.9,650.0 L536.9,651.0 L538.8,652.1 L540.8,653.1 L542.7,652.0 L544.7,651.6
		L546.6,651.7 L548.6,652.0 L550.6,657.3 L552.5,656.2 L554.5,655.8 L556.4,655.8 L558.4,656.0 L560.3,656.4
		L562.3,656.9 L564.2,663.6 L566.2,662.0 L568.1,661.3 L570.1,661.0 L572.1,661.0 L574.0,667.1 L576.0,665.4
		L577.9,664.5 L579.9,664.1 L581.8,668.6 L583.8,667.0 L585.7,666.2 L587.7,665.9 L589.6,672.1 L591.6,670.0
		L593.6,668.9 L595.5,668.2 L597.5,672.9 L599.4,671.0 L601.4,670.0 L603.3,674.2 L605.3,672.2 L607.2,671.2
		L609.2,675.5 L611.1,673.4 L613.1,672.2 L615.1,676.6 L617.0,674.4 L619.0,673.2 L620.9,677.6 L622.9,675.3
		L624.8,674.1 L626.8,678.5 L628.7,676.2 L630.7,674.8 L632.6,679.4 L634.6,676.9 L636.6,675.4 L638.5,680.1
		L640.5,677.1 L642.4,675.3 L644.4,680.3 L646.3,676.1 L648.3,673.4 L650.2,626.4 L652.2,624.2 L654.1,622.7
		L656.1,625.4 L658.1,623.4 L660.0,625.9 L662.0,623.6 L663.9,622.4 L665.9,625.9 L667.8,623.6 L669.8,622.3
		L671.7,626.0 L673.7,623.6 L675.6,622.3 L677.6,627.0 L679.6,624.3 L681.5,622.7 L683.5,625.6 L685.4,623.3
		L687.4,621.9 L689.3,626.8 L691.3,624.0 L693.2,622.4 L695.2,625.4 L697.1,623.1 L699.1,621.7 L701.0,626.7
		L703.0,623.9 L705.0,622.3 L706.9,625.3 L708.9,623.0 L710.8,625.5 L712.8,623.1 L714.7,625.5 L716.7,623.0
		L718.6,625.4 L720.6,623.0 L722.5,625.4 L724.5,623.0 L726.5,625.4 L728.4,623.0 L730.4,625.4 L732.3,623.0
		L734.3,625.4 L736.2,623.0 L738.2,625.4 L740.1,623.0 L742.1,625.4 L744.0,623.0 L746.0,625.4 L748.0,623.0
		L749.9,625.4 L751.9,623.0 L753.8,625.5 L755.8,623.1 L757.7,625.5 L759.7,623.1 L761.6,625.5 L763.6,623.1
		L765.5,625.5 L767.5,623.1 L769.5,625.5 L771.4,623.1 L773.4,625.6 L775.3,623.1 L777.3,625.6 L779.2,623.2
		L781.2,625.6 L783.1,623.2 L785.1,625.6 L787.0,623.2 L789.0,625.6 L791.0,623.2 L792.9,625.7 L794.9,623.2
		L796.8,625.7 L798.8,623.2 L800.7,625.7 L802.7,623.2 L804.6,625.7 L806.6,623.3 L808.5,625.7 L810.5,623.3
		L812.5,625.8 L814.4,623.3 L816.4,625.8 L818.3,623.3 L820.3,625.8 L822.2,623.4 L824.2,625.8 L826.1,623.4
		L828.1,625.9 L830.0,623.4 L832.0,625.9 L834.0,623.4 L835.9,625.9 L837.9,623.5 L839.8,625.9 L841.8,623.5
		L843.7,626.0 L845.7,623.5 L847.6,626.0 L849.6,623.5 L851.5,626.0 L853.5,623.5 L855.5,626.0 L857.4,623.5
		L859.4,626.0 L861.3,623.5 L863.3,626.0 L865.2,623.5 L867.2,626.0 L869.1,623.6 L871.1,626.1 L873.0,623.6
		L875.0,626.1 L876.9,623.6 L878.9,626.1 L880.9,623.6 L882.8,626.1 L884.8,623.6 L886.7,626.1 L888.7,623.7
		L890.6,626.2 L892.6,623.7 L894.5,626.2 L896.5,623.7 L898.4,626.2 L900.4,623.7 L902.4,626.2 L904.3,623.7
		L906.3,626.2 L908.2,623.8 L910.2,626.3 L912.1,623.8 L914.1,626.3 L916.0,623.8 L918.0,626.3 L919.9,623.8
		L921.9,626.3 L923.9,623.8 L925.8,626.3 L927.8,623.8 L929.7,626.3 L931.7,623.8 L933.6,626.3 L935.6,623.8
		L937.5,626.4 L939.5,623.9 L941.4,626.4 L943.4,623.9 L945.4,626.4 L947.3,623.9 L949.3,626.4 L951.2,623.9
		L953.2,626.4 L955.1,623.9 L957.1,626.5 L959.0,623.9 L961.0,626.5 L962.9,624.0 L964.9,626.5 L966.9,624.0
		L968.8,626.5 L970.8,624.0 L972.7,626.5 L974.7,624.0 L976.6,626.6 L978.6,624.0 L980.5,626.6 L982.5,624.1
		L984.4,626.6 L986.4,624.1 L988.4,626.6 L990.3,624.1 L992.3,626.6 L994.2,624.1 L996.2,626.6 L998.1,624.1
		L1000.1,626.7 L1002.0,624.1 L1004.0,626.7 L1005.9,624.1 L1007.9,626.7 L1009.9,624.1 L1011.8,626.7 L1013.8,624.1
		L1015.7,626.7 L1017.7,624.2 L1019.6,626.7 L1021.6,624.2 L1023.5,626.7 L1025.5,624.2 L1027.4,626.7 L1029.4,624.2
		L1031.4,626.7 L1033.3,624.2  '/></g>
	</g>
	<g id="gnuplot_plot_7" ><title>4-MeOPhN2+</title>
<g fill="none" color="black" stroke="currentColor" stroke-width="3.00" stroke-linecap="butt" stroke-linejoin="miter">
	<g transform="translate(1253.0,379.1)" stroke="none" fill="black" font-family="Helvetica" font-size="26.00"  text-anchor="end">
		<text><tspan font-family="Helvetica" >4-MeOPhN</tspan><tspan font-family="Helvetica"  font-size="20.8" dy="7.80px">2</tspan><tspan font-family="Helvetica"  dy="-20.80px">+</tspan><tspan font-size="26.0" dy="13.00"></tspan></text>
	</g>
</g>
<g fill="none" color="black" stroke="currentColor" stroke-width="3.00" stroke-linecap="butt" stroke-linejoin="miter">
	<path stroke='rgb(255,   0, 255)'  d='M1271.2,370.6 L1363.5,370.6 M253.5,493.7 L255.4,488.8 L257.4,481.9 L259.3,473.4 L261.3,466.7 L263.3,460.8
		L265.2,453.4 L267.2,447.5 L269.1,442.6 L271.1,436.6 L273.0,432.2 L275.0,426.7 L276.9,423.2 L278.9,418.6
		L280.8,415.5 L282.8,412.3 L284.8,409.2 L286.7,405.8 L288.7,403.6 L290.6,401.4 L292.6,399.4 L294.5,397.6
		L296.5,396.0 L298.4,394.3 L300.4,393.5 L302.3,392.6 L304.3,391.9 L306.3,391.3 L308.2,390.9 L310.2,390.7
		L312.1,390.7 L314.1,390.8 L316.0,391.0 L318.0,391.4 L319.9,391.9 L321.9,392.5 L323.8,393.2 L325.8,394.1
		L327.8,395.0 L329.7,396.0 L331.7,397.1 L333.6,398.2 L335.6,399.4 L337.5,400.7 L339.5,401.9 L341.4,403.3
		L343.4,404.7 L345.3,406.0 L347.3,407.4 L349.2,408.8 L351.2,410.2 L353.2,411.5 L355.1,412.8 L357.1,414.1
		L359.0,415.3 L361.0,416.5 L362.9,417.7 L364.9,418.7 L366.8,419.7 L368.8,420.5 L370.7,421.3 L372.7,422.0
		L374.7,422.6 L376.6,423.0 L378.6,423.3 L380.5,423.5 L382.5,423.5 L384.4,423.4 L386.4,423.1 L388.3,422.6
		L390.3,422.0 L392.2,421.2 L394.2,420.2 L396.2,419.0 L398.1,417.7 L400.1,416.1 L402.0,414.4 L404.0,412.4
		L405.9,410.3 L407.9,408.0 L409.8,405.4 L411.8,402.7 L413.7,399.7 L415.7,396.6 L417.7,393.3 L419.6,389.8
		L421.6,386.1 L423.5,382.2 L425.5,378.2 L427.4,374.0 L429.4,369.6 L431.3,365.1 L433.3,377.9 L435.2,390.7
		L437.2,403.1 L439.2,415.1 L441.1,426.7 L443.1,437.9 L445.0,448.7 L447.0,459.1 L448.9,469.2 L450.9,478.9
		L452.8,488.3 L454.8,497.3 L456.7,506.0 L458.7,514.4 L460.7,522.5 L462.6,530.3 L464.6,537.8 L466.5,545.0
		L468.5,552.0 L470.4,558.7 L472.4,565.2 L474.3,571.4 L476.3,577.4 L478.2,583.1 L480.2,588.7 L482.2,594.1
		L484.1,599.2 L486.1,604.2 L488.0,609.0 L490.0,613.6 L491.9,618.1 L493.9,622.4 L495.8,626.5 L497.8,630.5
		L499.7,634.3 L501.7,638.0 L503.7,641.6 L505.6,645.0 L507.6,648.3 L509.5,651.5 L511.5,654.6 L513.4,657.6
		L515.4,660.5 L517.3,663.2 L519.3,665.9 L521.2,668.5 L523.2,670.9 L525.1,673.3 L527.1,675.6 L529.1,677.9
		L531.0,680.0 L533.0,682.1 L534.9,684.1 L536.9,686.1 L538.8,688.0 L540.8,689.8 L542.7,690.5 L544.7,689.9
		L546.6,690.1 L548.6,690.6 L550.6,691.5 L552.5,692.4 L554.5,693.4 L556.4,694.5 L558.4,700.9 L560.3,700.2
		L562.3,700.2 L564.2,700.6 L566.2,701.3 L568.1,706.3 L570.1,705.6 L572.1,705.5 L574.0,705.9 L576.0,710.7
		L577.9,709.8 L579.9,709.6 L581.8,709.8 L583.8,714.6 L585.7,713.6 L587.7,713.2 L589.6,713.3 L591.6,718.2
		L593.6,716.9 L595.5,716.5 L597.5,716.4 L599.4,721.4 L601.4,720.0 L603.3,719.4 L605.3,723.7 L607.2,722.1
		L609.2,721.4 L611.1,725.7 L613.1,724.1 L615.1,723.3 L617.0,727.6 L619.0,725.8 L620.9,725.0 L622.9,729.3
		L624.8,727.5 L626.8,726.6 L628.7,731.0 L630.7,729.1 L632.6,728.1 L634.6,732.5 L636.6,730.5 L638.5,729.5
		L640.5,733.9 L642.4,731.9 L644.4,730.9 L646.3,735.3 L648.3,733.2 L650.2,732.1 L652.2,736.5 L654.1,734.4
		L656.1,733.3 L658.1,737.8 L660.0,735.6 L662.0,734.4 L663.9,738.9 L665.9,736.7 L667.8,735.4 L669.8,739.9
		L671.7,737.6 L673.7,736.4 L675.6,740.8 L677.6,738.5 L679.6,737.3 L681.5,741.7 L683.5,739.4 L685.4,738.1
		L687.4,742.6 L689.3,740.2 L691.3,738.9 L693.2,743.4 L695.2,741.0 L697.1,739.7 L699.1,744.2 L701.0,741.8
		L703.0,740.4 L705.0,745.0 L706.9,742.5 L708.9,741.1 L710.8,745.7 L712.8,743.2 L714.7,741.8 L716.7,746.3
		L718.6,743.8 L720.6,742.3 L722.5,747.0 L724.5,744.5 L726.5,743.0 L728.4,747.6 L730.4,745.0 L732.3,743.5
		L734.3,748.1 L736.2,745.5 L738.2,748.6 L740.1,746.0 L742.1,744.4 L744.0,748.9 L746.0,746.3 L748.0,749.4
		L749.9,746.7 L751.9,749.7 L753.8,747.0 L755.8,750.0 L757.7,747.3 L759.7,750.2 L761.6,747.5 L763.6,750.6
		L765.5,747.9 L767.5,750.8 L769.5,748.1 L771.4,751.0 L773.4,748.3 L775.3,751.3 L777.3,748.6 L779.2,751.6
		L781.2,748.8 L783.1,751.8 L785.1,749.1 L787.0,752.0 L789.0,749.3 L791.0,752.2 L792.9,749.5 L794.9,752.5
		L796.8,749.7 L798.8,752.7 L800.7,749.9 L802.7,752.9 L804.6,750.1 L806.6,753.0 L808.5,750.2 L810.5,753.2
		L812.5,750.4 L814.4,753.4 L816.4,750.6 L818.3,753.5 L820.3,750.7 L822.2,753.7 L824.2,750.9 L826.1,753.8
		L828.1,751.0 L830.0,754.0 L832.0,751.2 L834.0,754.2 L835.9,751.4 L837.9,754.4 L839.8,751.5 L841.8,754.5
		L843.7,751.7 L845.7,754.7 L847.6,751.9 L849.6,754.8 L851.5,752.0 L853.5,755.0 L855.5,752.1 L857.4,755.1
		L859.4,752.2 L861.3,755.2 L863.3,752.4 L865.2,755.3 L867.2,752.5 L869.1,755.4 L871.1,752.6 L873.0,755.6
		L875.0,752.7 L876.9,755.6 L878.9,752.8 L880.9,755.8 L882.8,752.9 L884.8,755.9 L886.7,753.0 L888.7,756.0
		L890.6,753.1 L892.6,756.1 L894.5,753.2 L896.5,756.2 L898.4,753.3 L900.4,756.3 L902.4,753.4 L904.3,756.3
		L906.3,753.5 L908.2,756.4 L910.2,753.5 L912.1,756.5 L914.1,753.7 L916.0,756.6 L918.0,753.8 L919.9,756.8
		L921.9,753.9 L923.9,756.8 L925.8,753.9 L927.8,756.9 L929.7,754.0 L931.7,757.0 L933.6,754.1 L935.6,757.1
		L937.5,754.2 L939.5,757.1 L941.4,754.2 L943.4,757.2 L945.4,754.3 L947.3,757.3 L949.3,754.4 L951.2,757.4
		L953.2,754.4 L955.1,757.4 L957.1,754.5 L959.0,757.5 L961.0,754.6 L962.9,757.6 L964.9,754.6 L966.9,757.6
		L968.8,754.7 L970.8,757.7 L972.7,754.8 L974.7,757.7 L976.6,754.8 L978.6,757.8 L980.5,754.9 L982.5,757.9
		L984.4,754.9 L986.4,757.9 L988.4,755.0 L990.3,758.0 L992.3,755.1 L994.2,758.0 L996.2,755.1 L998.1,758.1
		L1000.1,755.2 L1002.0,758.1 L1004.0,755.2 L1005.9,758.2 L1007.9,755.3 L1009.9,758.3 L1011.8,755.4 L1013.8,758.3
		L1015.7,755.3 L1017.7,758.3 L1019.6,755.4 L1021.6,758.4 L1023.5,755.4 L1025.5,758.4 L1027.4,755.5 L1029.4,758.5
		L1031.4,755.5 L1033.3,758.5  '/></g>
	</g>
<g fill="none" color="white" stroke="rgb(255,   0, 255)" stroke-width="2.00" stroke-linecap="butt" stroke-linejoin="miter">
</g>
<g fill="none" color="black" stroke="currentColor" stroke-width="2.00" stroke-linecap="butt" stroke-linejoin="miter">
</g>
<g fill="none" color="black" stroke="black" stroke-width="1.00" stroke-linecap="butt" stroke-linejoin="miter">
</g>
<g fill="none" color="black" stroke="currentColor" stroke-width="1.00" stroke-linecap="butt" stroke-linejoin="miter">
	<path stroke='black'  d='M175.5,117.1 L175.5,775.2 L1052.8,775.2 L1052.8,117.1 L175.5,117.1 Z  '/></g>
<g fill="none" color="black" stroke="currentColor" stroke-width="1.00" stroke-linecap="butt" stroke-linejoin="miter">
</g>
</g>
</svg>

