<?xml version="1.0" encoding="utf-8"  standalone="no"?>
<!DOCTYPE svg PUBLIC "-//W3C//DTD SVG 1.1//EN"
 "http://www.w3.org/Graphics/SVG/1.1/DTD/svg11.dtd">
<svg 
 width="1400" height="900"
 viewBox="0 0 1400 900"
 xmlns="http://www.w3.org/2000/svg"
 xmlns:xlink="http://www.w3.org/1999/xlink"
>

<title>Gnuplot</title>
<desc>Produced by GNUPLOT 5.0 patchlevel 5 </desc>

<g id="gnuplot_canvas">

<rect x="0" y="0" width="1400" height="900" fill="none"/>
<defs>

	<circle id='gpDot' r='0.5' stroke-width='0.5'/>
	<path id='gpPt0' stroke-width='0.103' stroke='currentColor' d='M-1,0 h2 M0,-1 v2'/>
	<path id='gpPt1' stroke-width='0.103' stroke='currentColor' d='M-1,-1 L1,1 M1,-1 L-1,1'/>
	<path id='gpPt2' stroke-width='0.103' stroke='currentColor' d='M-1,0 L1,0 M0,-1 L0,1 M-1,-1 L1,1 M-1,1 L1,-1'/>
	<rect id='gpPt3' stroke-width='0.103' stroke='currentColor' x='-1' y='-1' width='2' height='2'/>
	<rect id='gpPt4' stroke-width='0.103' stroke='currentColor' fill='currentColor' x='-1' y='-1' width='2' height='2'/>
	<circle id='gpPt5' stroke-width='0.103' stroke='currentColor' cx='0' cy='0' r='1'/>
	<use xlink:href='#gpPt5' id='gpPt6' fill='currentColor' stroke='none'/>
	<path id='gpPt7' stroke-width='0.103' stroke='currentColor' d='M0,-1.33 L-1.33,0.67 L1.33,0.67 z'/>
	<use xlink:href='#gpPt7' id='gpPt8' fill='currentColor' stroke='none'/>
	<use xlink:href='#gpPt7' id='gpPt9' stroke='currentColor' transform='rotate(180)'/>
	<use xlink:href='#gpPt9' id='gpPt10' fill='currentColor' stroke='none'/>
	<use xlink:href='#gpPt3' id='gpPt11' stroke='currentColor' transform='rotate(45)'/>
	<use xlink:href='#gpPt11' id='gpPt12' fill='currentColor' stroke='none'/>
	<path id='gpPt13' stroke-width='0.103' stroke='currentColor' d='M0,1.330 L1.265,0.411 L0.782,-1.067 L-0.782,-1.076 L-1.265,0.411 z'/>
	<use xlink:href='#gpPt13' id='gpPt14' fill='currentColor' stroke='none'/>
	<filter id='textbox' filterUnits='objectBoundingBox' x='0' y='0' height='1' width='1'>
	  <feFlood flood-color='white' flood-opacity='1' result='bgnd'/>
	  <feComposite in='SourceGraphic' in2='bgnd' operator='atop'/>
	</filter>
	<filter id='greybox' filterUnits='objectBoundingBox' x='0' y='0' height='1' width='1'>
	  <feFlood flood-color='lightgrey' flood-opacity='1' result='grey'/>
	  <feComposite in='SourceGraphic' in2='grey' operator='atop'/>
	</filter>
</defs>
<g fill="none" color="white" stroke="black" stroke-width="1.00" stroke-linecap="butt" stroke-linejoin="miter">
</g>
<g fill="none" color="black" stroke="currentColor" stroke-width="1.00" stroke-linecap="butt" stroke-linejoin="miter">
	<path stroke='black'  d='M175.5,736.2 L195.0,736.2 M1052.8,736.2 L1033.3,736.2  '/>	<g transform="translate(157.3,744.7)" stroke="none" fill="black" font-family="Helvetica" font-size="26.00"  text-anchor="end">
		<text><tspan font-family="Helvetica" >-0.4</tspan></text>
	</g>
</g>
<g fill="none" color="black" stroke="currentColor" stroke-width="1.00" stroke-linecap="butt" stroke-linejoin="miter">
	<path stroke='black'  d='M175.5,658.8 L195.0,658.8 M1052.8,658.8 L1033.3,658.8  '/>	<g transform="translate(157.3,667.3)" stroke="none" fill="black" font-family="Helvetica" font-size="26.00"  text-anchor="end">
		<text><tspan font-family="Helvetica" >-0.38</tspan></text>
	</g>
</g>
<g fill="none" color="black" stroke="currentColor" stroke-width="1.00" stroke-linecap="butt" stroke-linejoin="miter">
	<path stroke='black'  d='M175.5,581.4 L195.0,581.4 M1052.8,581.4 L1033.3,581.4  '/>	<g transform="translate(157.3,589.9)" stroke="none" fill="black" font-family="Helvetica" font-size="26.00"  text-anchor="end">
		<text><tspan font-family="Helvetica" >-0.36</tspan></text>
	</g>
</g>
<g fill="none" color="black" stroke="currentColor" stroke-width="1.00" stroke-linecap="butt" stroke-linejoin="miter">
	<path stroke='black'  d='M175.5,504.0 L195.0,504.0 M1052.8,504.0 L1033.3,504.0  '/>	<g transform="translate(157.3,512.5)" stroke="none" fill="black" font-family="Helvetica" font-size="26.00"  text-anchor="end">
		<text><tspan font-family="Helvetica" >-0.34</tspan></text>
	</g>
</g>
<g fill="none" color="black" stroke="currentColor" stroke-width="1.00" stroke-linecap="butt" stroke-linejoin="miter">
	<path stroke='black'  d='M175.5,426.6 L195.0,426.6 M1052.8,426.6 L1033.3,426.6  '/>	<g transform="translate(157.3,435.1)" stroke="none" fill="black" font-family="Helvetica" font-size="26.00"  text-anchor="end">
		<text><tspan font-family="Helvetica" >-0.32</tspan></text>
	</g>
</g>
<g fill="none" color="black" stroke="currentColor" stroke-width="1.00" stroke-linecap="butt" stroke-linejoin="miter">
	<path stroke='black'  d='M175.5,349.3 L195.0,349.3 M1052.8,349.3 L1033.3,349.3  '/>	<g transform="translate(157.3,357.8)" stroke="none" fill="black" font-family="Helvetica" font-size="26.00"  text-anchor="end">
		<text><tspan font-family="Helvetica" >-0.3</tspan></text>
	</g>
</g>
<g fill="none" color="black" stroke="currentColor" stroke-width="1.00" stroke-linecap="butt" stroke-linejoin="miter">
	<path stroke='black'  d='M175.5,271.9 L195.0,271.9 M1052.8,271.9 L1033.3,271.9  '/>	<g transform="translate(157.3,280.4)" stroke="none" fill="black" font-family="Helvetica" font-size="26.00"  text-anchor="end">
		<text><tspan font-family="Helvetica" >-0.28</tspan></text>
	</g>
</g>
<g fill="none" color="black" stroke="currentColor" stroke-width="1.00" stroke-linecap="butt" stroke-linejoin="miter">
	<path stroke='black'  d='M175.5,194.5 L195.0,194.5 M1052.8,194.5 L1033.3,194.5  '/>	<g transform="translate(157.3,203.0)" stroke="none" fill="black" font-family="Helvetica" font-size="26.00"  text-anchor="end">
		<text><tspan font-family="Helvetica" >-0.26</tspan></text>
	</g>
</g>
<g fill="none" color="black" stroke="currentColor" stroke-width="1.00" stroke-linecap="butt" stroke-linejoin="miter">
	<path stroke='black'  d='M175.5,117.1 L195.0,117.1 M1052.8,117.1 L1033.3,117.1  '/>	<g transform="translate(157.3,125.6)" stroke="none" fill="black" font-family="Helvetica" font-size="26.00"  text-anchor="end">
		<text><tspan font-family="Helvetica" >-0.24</tspan></text>
	</g>
</g>
<g fill="none" color="black" stroke="currentColor" stroke-width="1.00" stroke-linecap="butt" stroke-linejoin="miter">
	<path stroke='black'  d='M175.5,736.2 L175.5,716.7 M175.5,117.1 L175.5,136.6  '/>	<g transform="translate(175.5,783.7)" stroke="none" fill="black" font-family="Helvetica" font-size="26.00"  text-anchor="middle">
		<text><tspan font-family="Helvetica" > 105</tspan></text>
	</g>
</g>
<g fill="none" color="black" stroke="currentColor" stroke-width="1.00" stroke-linecap="butt" stroke-linejoin="miter">
	<path stroke='black'  d='M273.0,736.2 L273.0,716.7 M273.0,117.1 L273.0,136.6  '/>	<g transform="translate(273.0,783.7)" stroke="none" fill="black" font-family="Helvetica" font-size="26.00"  text-anchor="middle">
		<text><tspan font-family="Helvetica" > 110</tspan></text>
	</g>
</g>
<g fill="none" color="black" stroke="currentColor" stroke-width="1.00" stroke-linecap="butt" stroke-linejoin="miter">
	<path stroke='black'  d='M370.5,736.2 L370.5,716.7 M370.5,117.1 L370.5,136.6  '/>	<g transform="translate(370.5,783.7)" stroke="none" fill="black" font-family="Helvetica" font-size="26.00"  text-anchor="middle">
		<text><tspan font-family="Helvetica" > 115</tspan></text>
	</g>
</g>
<g fill="none" color="black" stroke="currentColor" stroke-width="1.00" stroke-linecap="butt" stroke-linejoin="miter">
	<path stroke='black'  d='M467.9,736.2 L467.9,716.7 M467.9,117.1 L467.9,136.6  '/>	<g transform="translate(467.9,783.7)" stroke="none" fill="black" font-family="Helvetica" font-size="26.00"  text-anchor="middle">
		<text><tspan font-family="Helvetica" > 120</tspan></text>
	</g>
</g>
<g fill="none" color="black" stroke="currentColor" stroke-width="1.00" stroke-linecap="butt" stroke-linejoin="miter">
	<path stroke='black'  d='M565.4,736.2 L565.4,716.7 M565.4,117.1 L565.4,136.6  '/>	<g transform="translate(565.4,783.7)" stroke="none" fill="black" font-family="Helvetica" font-size="26.00"  text-anchor="middle">
		<text><tspan font-family="Helvetica" > 125</tspan></text>
	</g>
</g>
<g fill="none" color="black" stroke="currentColor" stroke-width="1.00" stroke-linecap="butt" stroke-linejoin="miter">
	<path stroke='black'  d='M662.9,736.2 L662.9,716.7 M662.9,117.1 L662.9,136.6  '/>	<g transform="translate(662.9,783.7)" stroke="none" fill="black" font-family="Helvetica" font-size="26.00"  text-anchor="middle">
		<text><tspan font-family="Helvetica" > 130</tspan></text>
	</g>
</g>
<g fill="none" color="black" stroke="currentColor" stroke-width="1.00" stroke-linecap="butt" stroke-linejoin="miter">
	<path stroke='black'  d='M760.4,736.2 L760.4,716.7 M760.4,117.1 L760.4,136.6  '/>	<g transform="translate(760.4,783.7)" stroke="none" fill="black" font-family="Helvetica" font-size="26.00"  text-anchor="middle">
		<text><tspan font-family="Helvetica" > 135</tspan></text>
	</g>
</g>
<g fill="none" color="black" stroke="currentColor" stroke-width="1.00" stroke-linecap="butt" stroke-linejoin="miter">
	<path stroke='black'  d='M857.8,736.2 L857.8,716.7 M857.8,117.1 L857.8,136.6  '/>	<g transform="translate(857.8,783.7)" stroke="none" fill="black" font-family="Helvetica" font-size="26.00"  text-anchor="middle">
		<text><tspan font-family="Helvetica" > 140</tspan></text>
	</g>
</g>
<g fill="none" color="black" stroke="currentColor" stroke-width="1.00" stroke-linecap="butt" stroke-linejoin="miter">
	<path stroke='black'  d='M955.3,736.2 L955.3,716.7 M955.3,117.1 L955.3,136.6  '/>	<g transform="translate(955.3,783.7)" stroke="none" fill="black" font-family="Helvetica" font-size="26.00"  text-anchor="middle">
		<text><tspan font-family="Helvetica" > 145</tspan></text>
	</g>
</g>
<g fill="none" color="black" stroke="currentColor" stroke-width="1.00" stroke-linecap="butt" stroke-linejoin="miter">
	<path stroke='black'  d='M1052.8,736.2 L1052.8,716.7 M1052.8,117.1 L1052.8,136.6  '/>	<g transform="translate(1052.8,783.7)" stroke="none" fill="black" font-family="Helvetica" font-size="26.00"  text-anchor="middle">
		<text><tspan font-family="Helvetica" > 150</tspan></text>
	</g>
</g>
<g fill="none" color="black" stroke="currentColor" stroke-width="1.00" stroke-linecap="butt" stroke-linejoin="miter">
</g>
<g fill="none" color="black" stroke="currentColor" stroke-width="1.00" stroke-linecap="butt" stroke-linejoin="miter">
	<path stroke='black'  d='M175.5,117.1 L175.5,736.2 L1052.8,736.2 L1052.8,117.1 L175.5,117.1 Z  '/></g>
<g fill="none" color="black" stroke="currentColor" stroke-width="1.00" stroke-linecap="butt" stroke-linejoin="miter">
	<g transform="translate(37.0,426.7) rotate(270)" stroke="none" fill="black" font-family="Helvetica-Bold" font-size="26.00"  text-anchor="middle">
		<text><tspan font-family="Helvetica-Bold" >LUMO, Hartree</tspan></text>
	</g>
</g>
<g fill="none" color="black" stroke="currentColor" stroke-width="1.00" stroke-linecap="butt" stroke-linejoin="miter">
	<g transform="translate(614.1,842.2)" stroke="none" fill="black" font-family="Helvetica-Bold" font-size="26.00"  text-anchor="middle">
		<text><tspan font-family="Helvetica-Bold" >∠ C2-C1-C6, </tspan><tspan font-family="Helvetica-Bold"  font-size="20.8" dy="-13.00px">o</tspan><tspan font-size="26.0" dy="13.00"></tspan></text>
	</g>
</g>
<g fill="none" color="black" stroke="currentColor" stroke-width="1.00" stroke-linecap="butt" stroke-linejoin="miter">
	<g transform="translate(614.1,67.1)" stroke="none" fill="black" font-family="Helvetica" font-size="26.00"  text-anchor="middle">
		<text><tspan font-family="Helvetica"  font-weight="bold" >XPhN</tspan><tspan font-family="Helvetica"  font-weight="bold"  font-size="20.8" dy="7.80px">2</tspan><tspan font-family="Helvetica"  font-weight="bold"  dy="-20.80px">+</tspan><tspan font-size="26.0" dy="13.00"></tspan></text>
	</g>
</g>
<g fill="none" color="black" stroke="black" stroke-width="0.20" stroke-linecap="butt" stroke-linejoin="miter">
</g>
<g fill="none" color="black" stroke="currentColor" stroke-width="0.20" stroke-linecap="butt" stroke-linejoin="miter">
	<path stroke='black'  d='M1089.2,390.1 L1089.2,117.1 L1381.7,117.1 L1381.7,390.1 L1089.2,390.1 Z  '/></g>
	<g id="gnuplot_plot_1" ><title>PhN2+</title>
<g fill="none" color="white" stroke="black" stroke-width="3.00" stroke-linecap="butt" stroke-linejoin="miter">
</g>
<g fill="none" color="black" stroke="currentColor" stroke-width="3.00" stroke-linecap="butt" stroke-linejoin="miter">
	<g transform="translate(1253.0,145.1)" stroke="none" fill="black" font-family="Helvetica" font-size="26.00"  text-anchor="end">
		<text><tspan font-family="Helvetica" >PhN</tspan><tspan font-family="Helvetica"  font-size="20.8" dy="7.80px">2</tspan><tspan font-family="Helvetica"  dy="-20.80px">+</tspan><tspan font-size="26.0" dy="13.00"></tspan></text>
	</g>
</g>
<g fill="none" color="black" stroke="currentColor" stroke-width="3.00" stroke-linecap="butt" stroke-linejoin="miter">
	<path stroke='rgb(255,   0,   0)'  d='M1271.2,136.6 L1363.5,136.6 M355.4,473.1 L362.0,469.2 L364.7,466.0 L372.8,461.6 L376.2,458.4 L378.7,455.3
		L385.4,451.3 L390.4,447.6 L392.3,444.9 L398.6,440.9 L400.7,438.2 L407.4,434.3 L409.2,431.7 L414.7,428.2
		L417.0,425.5 L420.1,422.6 L423.8,419.7 L431.2,416.2 L433.3,413.7 L436.3,411.0 L439.9,408.3 L447.2,405.0
		L449.2,402.7 L452.2,400.2 L455.7,397.8 L459.3,395.3 L466.6,392.4 L468.7,390.3 L471.6,388.1 L475.0,385.9
		L478.6,383.7 L482.3,381.6 L486.1,379.5 L489.9,377.5 L493.6,375.4 L497.4,373.5 L501.2,371.6 L505.0,369.7
		L508.8,367.8 L512.6,366.0 L516.4,364.2 L520.2,362.5 L524.0,360.7 L527.8,359.0 L531.7,357.3 L535.5,355.7
		L539.4,354.0 L543.3,352.3 L547.2,350.6 L551.1,348.9 L555.1,347.2 L559.0,345.5 L563.0,343.8 L567.0,342.1
		L571.1,340.3 L575.2,338.5 L579.2,336.6 L583.4,334.7 L587.5,332.8 L591.7,330.7 L595.9,328.7 L600.1,326.6
		L604.3,324.4 L608.6,322.2 L612.9,319.9 L617.2,317.5 L621.5,315.0 L625.9,312.5 L630.3,309.8 L634.7,307.1
		L639.1,304.4 L643.5,301.5 L647.9,298.5 L652.4,295.5 L656.8,292.4 L661.3,289.2 L665.7,285.9 L670.2,282.5
		L674.6,279.0 L679.1,275.5 L683.5,271.9 L688.0,268.2 L692.4,264.5 L696.9,260.7 L701.3,256.8 L705.7,252.8
		L710.1,248.8 L714.5,244.8 L718.8,240.7 L723.2,236.5 L727.5,232.3 L731.8,228.1 L736.1,228.5 L740.3,237.1
		L744.6,245.4 L748.8,253.5 L752.9,261.4 L757.1,269.1 L761.2,276.5 L765.3,283.7 L769.3,290.7 L773.3,297.4
		L777.3,304.0 L781.2,310.4 L785.1,316.6 L789.0,322.6 L792.8,328.4 L796.6,334.0 L800.4,339.5 L804.1,344.8
		L807.7,349.9 L811.4,354.9 L814.9,359.7 L818.5,364.4 L822.0,369.0 L825.4,373.4 L828.8,377.7 L832.2,381.8
		L835.5,385.9 L838.8,389.8 L842.1,393.6 L845.3,397.3 L848.4,400.8 L851.5,404.3 L854.5,407.7 L857.5,411.0
		L860.5,414.1 L863.5,417.2 L866.3,420.2 L869.1,423.1 L871.9,425.9 L874.7,428.7 L877.4,431.3 L880.1,433.9
		L882.7,436.4 L885.3,438.9 L887.8,441.3 L890.3,443.6 L892.8,445.8 L895.2,448.0 L897.6,450.1 L899.9,452.2
		L902.2,454.2 L904.5,456.1 L906.7,458.0 L908.9,459.9 L915.5,459.8 L920.6,460.3 L924.6,461.2 L928.0,462.2
		L930.9,463.4 L933.5,464.7 L935.9,466.0 L938.4,467.3 L940.7,468.6 L942.8,469.9 L934.6,475.3 L939.9,475.2
		L943.9,475.6 L947.1,476.2 L949.8,477.0 L944.7,481.1 L949.3,481.0 L952.8,481.3 L955.6,481.9 L950.5,485.8
		L955.1,485.5 L958.5,485.7 L961.2,486.2 L955.8,490.1 L960.3,489.7 L963.7,489.7 L966.4,490.1 L960.6,494.1
		L965.1,493.5 L968.5,493.4 L971.1,493.7 L965.0,497.7 L969.5,497.0 L972.8,496.8 L967.9,500.3 L972.4,499.4
		L975.7,499.2 L970.8,502.6 L975.2,501.7 L978.5,501.4 L973.4,504.8 L977.9,503.9 L981.1,503.5 L975.8,506.9
		L980.3,505.9 L983.5,505.5 L978.1,508.9 L982.5,507.8 L985.7,507.3 L980.2,510.8 L984.6,509.6 L987.7,509.1
		L982.1,512.6 L986.5,511.4 L989.7,510.8 L983.9,514.3 L988.3,513.0 L991.4,512.4 L985.6,515.9 L990.0,514.5
		L993.0,513.9 L987.1,517.4 L991.5,516.0 L994.6,515.3 L988.5,518.8 L992.9,517.4 L996.0,516.6 L989.8,520.2
		L994.2,518.7 L997.2,517.9 L991.0,521.5 L995.4,519.9 L998.4,519.1 L992.1,522.7 L996.5,521.1 L999.5,520.3
		L993.2,523.8 L997.6,522.2 L1000.6,521.4 L994.1,524.9 L998.5,523.3 L1001.5,522.4 L995.0,526.0 L999.4,524.3
		L1002.3,523.4 L995.8,527.0 L1000.2,525.3 L1003.1,524.4 L996.5,528.0 L1000.9,526.3 L1003.9,525.3 L997.2,528.9
		L1001.6,527.1 L1004.5,526.1 L997.8,529.8 L1002.2,528.0 L1005.1,527.0 L998.4,530.6 L1002.8,528.8 L1005.7,527.7
		L998.9,531.4 L1003.3,529.5 L1006.2,528.5 L999.3,532.1 L1003.7,530.3 L1006.7,529.2 L999.8,532.8 L1004.2,530.9
		L999.8,533.4 L1004.3,531.5 L1000.1,533.8 L1004.6,531.9 L1000.3,534.3 L1004.8,532.3 L1000.5,534.7 L1005.0,532.7
		L1000.8,535.1 L1005.3,533.1 L1001.0,535.5 L1005.5,533.5 L1001.2,535.9 L1005.7,533.9 L1001.4,536.3 L1005.9,534.3
		L1001.6,536.6 L1006.1,534.6 L1001.8,537.0 L1006.3,535.0 L1001.9,537.3 L1006.4,535.3 L1002.1,537.6 L1006.6,535.6
		L1002.2,537.9 L1006.7,535.9 L1002.4,538.3 L1006.9,536.2 L1002.5,538.6 L1007.0,536.5 L1002.6,538.8 L1007.1,536.8
		L1002.7,539.1 L1007.2,537.1 L1002.8,539.4 L1007.4,537.3 L1002.9,539.7 L1007.5,537.6 L1003.0,539.9 L1007.6,537.8
		L1003.1,540.2 L1007.7,538.1 L1003.2,540.5 L1007.8,538.4 L1003.3,540.7 L1007.8,538.6 L1003.4,541.0 L1007.9,538.9
		L1003.4,541.2 L1008.0,539.1 L1003.5,541.4 L1008.1,539.3 L1003.6,541.7 L1008.2,539.5 L1003.7,541.9 L1008.2,539.8
		L1003.7,542.1 L1008.3,540.0 L1003.8,542.3 L1008.4,540.2 L1003.9,542.5 L1008.4,540.3 L1003.9,542.7 L1008.5,540.5
		L1004.0,542.9 L1008.5,540.7 L1004.0,543.1 L1008.6,540.9 L1004.1,543.2 L1008.6,541.1 L1004.1,543.4 L1008.7,541.3
		L1004.2,543.6 L1008.7,541.4 L1004.2,543.8 L1008.8,541.6 L1004.2,543.9 L1008.8,541.7 L1004.3,544.1 L1008.9,541.9
		L1004.3,544.3 L1008.9,542.1 L1004.3,544.4 L1008.9,542.2 L1004.4,544.6 L1009.0,542.4 L1004.4,544.7 L1009.0,542.6
		L1004.4,544.9 L1009.0,542.7 L1004.5,545.0 L1009.1,542.8 L1004.5,545.2 L1009.1,543.0 L1004.5,545.3 L1009.1,543.1
		L1004.5,545.5 L1009.1,543.3 L1004.6,545.6 L1009.2,543.4 L1004.6,545.7 L1009.2,543.5 L1004.6,545.8 L1009.2,543.6
		L1004.6,546.0 L1009.2,543.8 L1004.6,546.1 L1009.2,543.9 L1004.7,546.2 L1009.3,544.0 L1004.7,546.3 L1009.3,544.1
		L1004.7,546.4 L1009.3,544.2 L1004.7,546.6 L1009.3,544.4 L1004.7,546.7 L1009.3,544.5 L1004.7,546.8 L1009.3,544.6
		L1004.7,546.9 L1009.4,544.7 L1004.7,547.0 L1009.4,544.8 L1004.7,547.1 L1009.4,544.9 L1004.8,547.3 L1009.4,545.0
		L1004.8,547.4 L1009.4,545.1 L1004.8,547.5 L1009.4,545.2 L1004.8,547.6 L1009.4,545.3 L1004.8,547.7 L1009.4,545.4
		L1004.8,547.7 L1009.4,545.5 L1004.8,547.9 L1009.4,545.6 L1004.8,547.9 L1009.5,545.7 L1004.8,548.0 L1009.5,545.8
		L1004.8,548.1 L1009.5,545.9  '/></g>
	</g>
	<g id="gnuplot_plot_2" ><title>2-NO2PhN2+</title>
<g fill="none" color="black" stroke="currentColor" stroke-width="3.00" stroke-linecap="butt" stroke-linejoin="miter">
	<g transform="translate(1253.0,184.1)" stroke="none" fill="black" font-family="Helvetica" font-size="26.00"  text-anchor="end">
		<text><tspan font-family="Helvetica" >2-NO</tspan><tspan font-family="Helvetica"  font-size="20.8" dy="7.80px">2</tspan><tspan font-family="Helvetica"  font-size="26.0" dy="-7.80px">PhN</tspan><tspan font-family="Helvetica"  font-size="20.8" dy="7.80px">2</tspan><tspan font-family="Helvetica"  dy="-20.80px">+</tspan><tspan font-size="26.0" dy="13.00"></tspan></text>
	</g>
</g>
<g fill="none" color="black" stroke="currentColor" stroke-width="3.00" stroke-linecap="butt" stroke-linejoin="miter">
	<path stroke='rgb(  0,   0, 255)'  d='M1271.2,175.6 L1363.5,175.6 M320.1,558.8 L324.4,555.7 L329.4,552.3 L335.2,548.7 L337.6,546.1 L342.9,543.0
		L347.3,539.7 L349.9,537.1 L355.1,534.0 L359.4,530.7 L361.4,528.2 L366.6,525.2 L370.4,521.9 L372.3,519.4
		L378.2,515.7 L379.6,513.5 L384.8,510.0 L386.7,507.6 L391.6,504.3 L393.7,501.8 L398.1,498.7 L400.9,496.1
		L405.4,493.0 L407.8,490.6 L410.0,488.0 L412.9,485.3 L416.1,482.7 L422.9,479.7 L424.7,477.3 L427.4,474.7
		L432.4,472.0 L434.8,469.6 L437.9,467.1 L444.3,464.3 L446.3,462.0 L451.6,459.3 L453.6,457.0 L459.0,454.5
		L461.1,452.1 L465.8,449.6 L468.2,447.3 L471.1,445.0 L477.0,442.4 L479.4,440.1 L482.4,437.7 L487.8,435.2
		L490.5,432.8 L493.7,430.5 L500.6,427.8 L502.7,425.5 L508.8,422.9 L510.8,420.5 L515.8,417.9 L518.2,415.5
		L521.4,413.0 L527.6,410.3 L530.1,407.8 L533.4,405.3 L539.6,402.5 L542.3,400.0 L545.7,397.4 L552.2,394.5
		L554.9,391.9 L558.2,389.2 L564.6,386.3 L567.4,383.6 L570.9,380.9 L578.9,377.8 L581.1,375.2 L584.3,372.5
		L590.3,369.5 L593.3,366.8 L596.8,364.0 L604.8,360.8 L607.1,358.2 L610.4,355.5 L616.6,352.6 L619.5,349.9
		L623.1,347.3 L631.1,344.2 L633.4,341.8 L636.7,339.3 L643.0,336.6 L645.9,334.2 L649.4,331.8 L657.1,329.2
		L659.5,327.1 L662.7,325.0 L668.9,324.6 L671.8,331.0 L675.3,337.4 L682.7,342.4 L685.1,349.5 L694.7,353.9
		L695.6,361.7 L699.5,368.3 L701.9,375.6 L705.0,382.6 L713.2,387.3 L715.0,394.7 L721.3,400.1 L723.0,407.2
		L729.4,412.3 L731.0,419.2 L733.5,425.7 L738.7,430.9 L741.2,437.1 L744.1,443.0 L747.7,448.5 L751.2,453.7
		L754.8,458.9 L758.4,463.9 L762.0,468.7 L765.6,473.5 L769.1,478.1 L772.6,482.5 L776.0,486.9 L779.4,491.1
		L782.8,495.3 L786.1,499.2 L789.4,503.2 L792.6,507.0 L795.7,510.7 L798.8,514.3 L801.9,517.8 L804.9,521.2
		L807.9,524.5 L810.9,527.7 L813.8,530.9 L816.7,533.9 L819.5,536.9 L822.3,539.7 L825.1,542.5 L827.8,545.2
		L830.5,547.9 L833.1,550.5 L839.5,551.3 L840.7,554.4 L842.2,557.2 L844.0,559.9 L848.8,561.1 L852.7,563.1
		L856.0,565.0 L859.0,567.0 L861.8,568.9 L861.7,571.5 L865.1,573.1 L868.0,574.9 L870.6,576.6 L870.1,579.1
		L873.4,580.5 L876.2,582.0 L878.8,583.6 L877.8,586.0 L881.1,587.2 L883.8,588.6 L886.2,589.9 L885.0,592.3
		L888.2,593.3 L890.9,594.5 L889.9,596.7 L893.1,597.6 L895.7,598.6 L894.6,600.8 L897.8,601.6 L900.3,602.5
		L899.0,604.6 L902.2,605.3 L904.7,606.1 L903.2,608.2 L906.3,608.8 L908.7,609.6 L907.1,611.6 L910.1,612.1
		L914.5,611.7 L917.9,611.7 L913.4,614.7 L918.0,614.2 L921.5,614.2 L913.9,618.6 L919.3,617.8 L923.3,617.4
		L917.0,621.4 L922.4,620.4 L926.4,620.0 L919.8,624.0 L925.2,622.9 L929.2,622.4 L922.5,626.4 L927.9,625.3
		L931.8,624.8 L925.0,628.8 L930.4,627.6 L928.9,629.3 L933.6,628.3 L927.9,631.8 L933.3,630.5 L931.9,632.0
		L936.5,631.0 L930.8,634.4 L936.2,633.0 L934.6,634.6 L939.2,633.5 L933.4,636.8 L938.8,635.4 L934.6,638.0
		L940.0,636.6 L935.8,639.1 L941.1,637.7 L936.9,640.2 L942.2,638.7 L937.9,641.2 L943.2,639.7 L938.9,642.3
		L944.2,640.7 L939.8,643.2 L945.1,641.6 L940.7,644.1 L945.9,642.5 L941.5,645.0 L946.8,643.4 L942.2,645.9
		L947.5,644.2 L942.9,646.7 L948.2,645.0 L943.6,647.5 L948.9,645.8 L944.2,648.3 L949.5,646.5 L944.9,649.0
		L950.1,647.2 L945.5,649.7 L950.7,647.9 L946.1,650.4 L951.3,648.6 L946.5,651.0 L951.7,649.2 L947.1,651.6
		L952.2,649.8 L947.5,652.2 L952.7,650.4 L947.9,652.8 L953.0,651.0 L948.3,653.3 L953.4,651.5 L948.6,653.9
		L953.8,652.0 L948.8,654.4 L954.0,652.6 L949.1,654.9 L954.2,653.1 L949.3,655.4 L950.7,655.1 L951.0,655.3
		L951.2,655.5 L951.2,655.7 L951.3,656.0 L951.2,656.3 L949.4,657.2 L952.6,656.2 L950.3,657.4 L953.1,656.4
		L950.2,657.8 L953.0,656.9 L950.0,658.3 L952.8,657.3 L949.8,658.8 L952.4,657.8 L949.4,659.2 L952.1,658.3
		L949.1,659.6 L951.7,658.6 L948.6,660.0 L951.2,659.0 L948.0,660.3 L950.7,659.3 L947.2,660.8 L949.8,659.7
		L942.9,662.4 L946.5,660.9 L944.4,661.5 L947.2,660.3 L866.3,663.4 L263.2,569.0 L265.3,569.4 L266.8,569.9
		L267.9,570.3 L268.8,570.8 L269.6,571.2 L270.2,571.6 L270.7,572.0 L271.1,572.4 L271.5,572.8 L271.8,573.2
		L272.1,573.5 L272.4,573.9 L272.6,574.2 L272.9,574.5 L273.1,574.8 L273.3,575.1 L273.5,575.3 L273.7,575.6
		L273.9,575.9 L274.1,576.2 L274.3,576.4 L274.5,576.7 L274.7,576.9 L274.9,577.2 L275.1,577.4 L275.2,577.6
		L275.4,577.9 L275.6,578.1 L275.8,578.4 L276.0,578.6 L276.1,578.8 L276.3,579.1 L276.5,579.3 L276.6,579.5
		L276.8,579.7 L277.0,580.0 L265.1,576.4 L268.6,577.0 L271.0,577.6 L272.8,578.2 L274.1,578.8 L275.1,579.4
		L275.9,579.9 L276.5,580.4 L277.1,580.9 L277.5,581.3 L277.9,581.7 L278.2,582.1 L278.5,582.5 L276.8,582.2
		L275.6,581.9 L274.7,581.6 L274.1,581.5 L273.6,581.3 L273.2,581.1 L272.9,581.0 L272.7,580.9 L272.5,580.8
		L272.4,580.7 L272.3,580.7 L272.2,580.7 L272.1,580.6 L272.0,580.7 L272.0,580.8 L272.1,580.8 L272.1,580.9
		L272.1,581.0 L272.1,581.1 L272.2,581.2 L272.2,581.3 L272.2,581.4 L272.3,581.5 L272.3,581.6 L272.3,581.7
		L272.4,581.8 L272.4,581.9 L272.4,582.0 L272.4,581.9 L272.4,582.1 L272.5,582.1 L272.5,582.2 L272.5,582.3
		L272.5,582.4 L272.5,582.5 L272.6,582.5 L272.6,582.6 L272.6,582.7 L272.6,582.8 L272.7,582.9 L272.7,583.0
		L272.7,583.1  '/></g>
	</g>
	<g id="gnuplot_plot_3" ><title>3-NO2PhN2+</title>
<g fill="none" color="black" stroke="currentColor" stroke-width="3.00" stroke-linecap="butt" stroke-linejoin="miter">
	<g transform="translate(1253.0,223.1)" stroke="none" fill="black" font-family="Helvetica" font-size="26.00"  text-anchor="end">
		<text><tspan font-family="Helvetica" >3-NO</tspan><tspan font-family="Helvetica"  font-size="20.8" dy="7.80px">2</tspan><tspan font-family="Helvetica"  font-size="26.0" dy="-7.80px">PhN</tspan><tspan font-family="Helvetica"  font-size="20.8" dy="7.80px">2</tspan><tspan font-family="Helvetica"  dy="-20.80px">+</tspan><tspan font-size="26.0" dy="13.00"></tspan></text>
	</g>
</g>
<g fill="none" color="black" stroke="currentColor" stroke-width="3.00" stroke-linecap="butt" stroke-linejoin="miter">
	<path stroke='rgb(  0, 255,   0)'  d='M1271.2,214.6 L1363.5,214.6 M361.0,545.5 L363.3,542.4 L368.4,539.0 L374.7,535.0 L377.1,532.0 L383.5,528.3
		L388.4,524.7 L390.6,521.7 L396.8,518.1 L403.8,513.7 L405.3,511.6 L409.3,508.4 L411.5,505.6 L417.7,502.1
		L419.8,499.4 L422.9,496.5 L426.4,493.6 L433.2,490.3 L435.5,487.7 L441.1,484.6 L443.4,482.1 L449.3,479.1
		L451.4,476.7 L454.3,474.2 L460.5,471.3 L462.7,469.0 L468.6,466.3 L470.6,464.1 L475.8,461.6 L478.0,459.4
		L483.2,457.0 L485.4,454.9 L490.6,452.5 L492.9,450.6 L495.9,448.6 L501.7,446.2 L504.0,444.4 L507.1,442.5
		L513.1,440.2 L515.3,438.4 L518.3,436.6 L524.1,434.4 L526.5,432.7 L529.5,430.9 L535.8,428.7 L538.0,427.1
		L541.0,425.3 L546.7,423.2 L549.2,421.4 L552.4,419.6 L559.1,417.4 L561.3,415.6 L564.3,413.8 L570.1,411.6
		L572.7,409.7 L576.0,407.7 L583.1,405.2 L585.3,403.3 L588.4,401.2 L594.4,398.7 L597.1,396.5 L600.4,394.2
		L607.8,391.3 L610.1,389.0 L613.3,386.5 L619.4,383.6 L622.2,381.0 L625.7,378.3 L633.3,374.9 L635.6,372.2
		L638.9,369.2 L645.1,365.8 L648.0,362.7 L651.5,359.4 L659.4,355.5 L661.7,352.3 L664.9,348.8 L671.1,344.9
		L674.0,341.4 L677.5,337.7 L685.5,333.2 L687.8,329.6 L691.0,325.7 L697.1,321.4 L699.9,317.5 L703.4,313.4
		L711.4,308.7 L713.6,304.7 L720.6,300.0 L722.5,296.1 L725.4,292.0 L731.0,299.5 L733.8,308.8 L737.1,317.6
		L744.5,324.9 L746.8,333.6 L749.8,341.8 L755.5,348.9 L758.2,356.7 L761.4,364.2 L768.4,370.0 L770.6,377.3
		L773.5,384.2 L778.9,390.0 L781.4,396.6 L784.4,402.8 L791.1,407.5 L793.2,413.6 L799.9,417.9 L801.3,424.0
		L803.6,429.5 L809.1,433.7 L811.0,439.0 L813.5,444.0 L818.3,448.0 L820.6,452.8 L823.2,457.2 L829.1,460.3
		L830.9,464.8 L833.2,469.0 L837.7,472.2 L839.8,476.2 L842.2,480.0 L847.3,482.5 L849.0,486.3 L851.2,489.8
		L855.3,492.4 L857.2,495.8 L859.4,499.0 L864.3,500.9 L865.9,504.1 L867.8,507.1 L871.6,509.2 L873.3,512.1
		L875.3,514.8 L880.0,516.3 L881.3,519.1 L883.1,521.6 L886.4,523.4 L888.0,525.8 L889.8,528.1 L893.8,529.4
		L895.1,531.7 L896.7,533.9 L899.8,535.3 L901.2,537.4 L904.6,538.6 L907.7,539.8 L913.1,540.2 L917.2,541.0
		L917.7,543.1 L921.7,543.8 L924.9,544.7 L923.3,547.5 L927.3,548.0 L923.9,551.4 L928.9,551.5 L932.7,552.0
		L928.9,555.4 L933.8,555.3 L937.6,555.7 L936.5,558.0 L940.6,558.1 L943.8,558.6 L942.2,560.9 L945.9,561.1
		L948.8,561.6 L946.5,564.1 L950.0,564.2 L944.6,567.7 L949.5,567.3 L953.3,567.3 L949.9,570.1 L954.4,569.6
		L952.5,571.8 L956.8,571.3 L952.5,574.3 L957.5,573.6 L961.2,573.3 L959.6,575.2 L963.3,574.9 L966.1,575.0
		L963.3,577.2 L966.7,576.9 L960.2,580.6 L965.2,579.6 L968.7,579.2 L962.8,582.7 L967.7,581.6 L971.3,581.2
		L965.1,584.7 L970.0,583.6 L966.5,586.0 L971.4,584.8 L974.9,584.3 L970.6,587.0 L974.9,586.1 L972.0,588.1
		L976.3,587.1 L971.1,590.1 L976.0,588.8 L974.0,590.4 L972.4,591.8 L977.5,590.4 L981.0,589.7 L979.0,591.3
		L982.4,590.6 L975.4,594.2 L980.3,592.7 L983.7,592.0 L978.8,594.7 L983.1,593.5 L980.6,595.3 L984.5,594.1
		L978.4,597.3 L983.3,595.8 L986.7,594.9 L982.3,597.4 L986.4,596.2 L980.4,599.2 L985.3,597.7 L981.1,600.0
		L985.9,598.4 L983.5,599.9 L981.6,601.2 L986.6,599.5 L990.0,598.6 L987.0,600.4 L990.6,599.3 L983.4,602.8
		L988.3,601.1 L991.6,600.1 L984.3,603.7 L989.1,602.0 L984.7,604.4 L989.5,602.6 L986.9,604.1 L984.9,605.4
		L989.9,603.6 L993.3,602.5 L990.7,604.1 L994.0,603.0 L986.3,606.6 L991.2,604.8 L994.5,603.7 L989.0,606.5
		L993.2,605.0 L989.0,607.1 L993.3,605.5 L989.4,607.6 L993.7,606.0 L989.7,608.0 L987.5,609.2 L992.5,607.3
		L988.0,609.5 L992.9,607.6 L988.3,609.9 L993.3,608.0 L988.6,610.3 L993.5,608.4 L988.8,610.7 L993.7,608.8
		L989.1,611.1 L994.0,609.2 L989.0,611.6 L994.0,609.6 L989.4,611.9 L994.3,609.9 L989.6,612.2 L994.5,610.3
		L989.8,612.6 L994.7,610.6 L990.0,612.9 L994.9,610.9 L987.8,614.6 L991.8,612.7 L996.2,611.0 L990.5,613.7
		L995.4,611.7 L989.1,614.9 L992.5,613.3 L996.8,611.6 L990.8,614.4 L995.7,612.4 L990.6,614.8 L995.6,612.7
		L990.7,615.0 L995.7,613.0 L991.0,615.2 L995.9,613.2 L991.1,615.5 L996.1,613.4 L991.2,615.7 L996.1,613.7
		L991.2,616.0 L996.2,614.0 L991.4,616.2 L996.3,614.1 L991.3,616.5 L996.3,614.5 L992.8,616.3 L994.4,615.7
		L998.4,614.0 L991.5,617.1 L996.5,615.0 L991.7,617.3 L996.7,615.2 L991.6,617.5 L996.6,615.4 L990.6,618.5
		L993.9,616.9 L998.2,615.1 L992.0,618.0 L996.9,615.8 L991.8,618.3 L996.8,616.1 L991.9,618.4 L996.9,616.2
		L992.1,618.5 L997.0,616.4 L991.9,618.8 L996.9,616.6 L992.1,618.9 L997.1,616.8 L992.2,619.1 L997.2,616.9
		L992.2,619.2 L997.2,617.1 L992.1,619.4 L997.2,617.3 L992.3,619.6 L997.3,617.4 L989.2,621.5 L993.7,619.2
		L998.2,617.3 L992.5,619.9 L997.4,617.8 L992.3,620.1 L997.3,618.0 L993.9,619.7 L994.2,619.6 L998.6,617.7
		L992.6,620.4 L997.5,618.3 L992.4,620.6 L997.5,618.5 L993.1,620.6 L995.4,619.6 L999.4,617.9 L992.4,621.0
		L997.5,618.8 L992.6,621.1 L997.6,618.9 L992.4,621.3 L997.5,619.1 L992.5,621.4 L997.6,619.2 L992.6,621.4
		L997.7,619.2 L992.5,621.6 L997.5,619.4 L992.5,621.7 L997.6,619.5 L990.8,622.9 L994.5,621.0 L998.9,619.1
		L992.8,621.9 L997.8,619.7 L992.6,622.1 L997.6,619.9 L993.9,621.7 L995.6,621.0 L999.7,619.2 L992.6,622.4
		L997.7,620.2 L992.7,622.4 L997.8,620.2 L992.5,622.6 L997.6,620.4 L992.7,622.7 L997.7,620.5 L992.7,622.8
		L997.7,620.6 L992.7,622.9 L997.8,620.6 L992.5,623.0 L997.6,620.8 L992.7,623.1 L997.7,620.8 L992.7,623.2
		L997.8,620.9 L992.7,623.2 L997.8,621.0 L992.7,623.3 L997.8,621.1 L992.6,623.5 L997.7,621.2 L992.8,623.5
		L997.8,621.3 L992.6,623.7  '/></g>
	</g>
	<g id="gnuplot_plot_4" ><title>4-NO2PhN2+</title>
<g fill="none" color="black" stroke="currentColor" stroke-width="3.00" stroke-linecap="butt" stroke-linejoin="miter">
	<g transform="translate(1253.0,262.1)" stroke="none" fill="black" font-family="Helvetica" font-size="26.00"  text-anchor="end">
		<text><tspan font-family="Helvetica" >4-NO</tspan><tspan font-family="Helvetica"  font-size="20.8" dy="7.80px">2</tspan><tspan font-family="Helvetica"  font-size="26.0" dy="-7.80px">PhN</tspan><tspan font-family="Helvetica"  font-size="20.8" dy="7.80px">2</tspan><tspan font-family="Helvetica"  dy="-20.80px">+</tspan><tspan font-size="26.0" dy="13.00"></tspan></text>
	</g>
</g>
<g fill="none" color="black" stroke="currentColor" stroke-width="3.00" stroke-linecap="butt" stroke-linejoin="miter">
	<path stroke='rgb(230, 159,   0)'  d='M1271.2,253.6 L1363.5,253.6 M363.6,574.6 L367.8,571.2 L370.2,568.1 L377.0,564.1 L381.3,560.8 L386.3,557.2
		L390.5,553.8 L395.5,550.0 L398.4,547.1 L402.2,543.8 L407.2,540.4 L412.2,536.8 L415.0,534.1 L420.1,530.6
		L422.0,527.9 L426.8,524.7 L431.4,521.5 L435.4,518.6 L437.6,515.9 L440.7,513.1 L447.1,509.9 L449.3,507.3
		L455.3,504.2 L457.3,501.8 L460.3,499.2 L466.2,496.4 L470.7,493.6 L472.7,491.3 L475.7,488.8 L479.0,486.4
		L485.3,483.6 L487.6,481.5 L490.7,479.2 L496.7,476.5 L499.1,474.4 L502.1,472.3 L508.1,469.7 L510.5,467.7
		L513.5,465.6 L519.5,463.2 L521.9,461.2 L525.0,459.2 L531.1,456.8 L533.4,454.8 L536.5,452.8 L542.5,450.5
		L544.9,448.6 L548.1,446.5 L554.4,444.2 L556.8,442.2 L560.0,440.2 L566.2,437.8 L568.7,435.8 L571.9,433.7
		L578.2,431.2 L580.8,429.1 L584.1,426.9 L590.7,424.3 L593.3,422.1 L596.6,419.7 L603.0,417.0 L605.8,414.6
		L609.2,412.1 L616.3,409.2 L618.9,406.7 L622.3,404.0 L628.8,400.9 L631.7,398.2 L635.2,395.3 L642.7,391.9
		L645.2,389.1 L648.7,386.1 L655.2,382.6 L658.2,379.5 L661.8,376.2 L669.5,372.4 L672.1,369.2 L675.5,365.8
		L682.1,362.0 L685.0,358.6 L688.7,355.0 L696.5,350.9 L699.0,347.4 L702.4,343.8 L708.9,339.7 L711.9,336.2
		L715.5,332.5 L723.3,328.2 L725.8,324.6 L729.1,321.0 L735.4,316.9 L738.3,313.3 L741.8,309.7 L749.7,315.5
		L752.1,324.7 L755.2,333.4 L761.3,340.9 L764.1,349.2 L767.5,357.1 L775.1,363.3 L777.4,371.1 L780.4,378.4
		L786.1,384.6 L788.9,391.6 L792.1,398.2 L800.5,402.8 L802.2,409.5 L804.8,415.8 L810.1,420.9 L812.6,426.8
		L815.6,432.4 L822.6,436.3 L824.6,441.9 L827.2,447.2 L832.2,451.3 L834.6,456.3 L837.4,461.0 L844.0,464.1
		L845.9,468.8 L848.3,473.2 L853.1,476.6 L855.3,480.8 L857.9,484.7 L864.2,487.1 L865.9,491.2 L868.1,494.9
		L872.4,497.7 L874.5,501.2 L876.9,504.6 L882.7,506.4 L884.3,509.8 L886.3,513.0 L890.3,515.3 L892.2,518.3
		L894.4,521.2 L898.3,523.1 L900.2,525.9 L904.1,527.7 L905.8,530.4 L907.7,532.9 L911.6,534.5 L913.2,537.0
		L916.7,538.6 L918.2,541.0 L920.0,543.1 L923.5,544.5 L929.5,544.8 L934.3,545.5 L933.3,548.5 L938.3,549.0
		L942.3,549.9 L941.5,552.7 L946.2,553.2 L949.9,554.0 L949.1,556.6 L953.1,557.2 L956.5,558.0 L954.1,561.1
		L958.4,561.4 L961.7,562.0 L960.4,564.7 L964.3,564.9 L967.4,565.5 L964.7,568.6 L968.8,568.7 L972.0,569.1
		L970.2,571.6 L974.0,571.7 L977.0,572.1 L973.9,575.1 L977.8,575.0 L973.0,578.7 L978.1,578.0 L981.9,577.8
		L977.0,581.5 L982.1,580.7 L979.3,583.4 L984.4,582.5 L988.1,582.2 L982.9,585.9 L987.9,585.0 L991.6,584.6
		L986.2,588.3 L991.1,587.3 L994.8,586.8 L993.2,588.8 L996.9,588.3 L999.6,588.1 L995.8,591.1 L999.5,590.4
		L993.6,594.2 L998.6,592.9 L1002.2,592.3 L996.2,596.0 L1001.2,594.7 L1004.7,594.1 L998.6,597.9 L1003.5,596.5
		L999.8,599.1 L1004.8,597.7 L1008.4,597.0 L1002.0,600.8 L1006.9,599.3 L1010.4,598.5 L1003.9,602.4 L1008.8,600.8
		L1012.3,600.0 L1007.5,603.1 L1011.8,601.7 L1008.3,604.2 L1012.7,602.8 L1009.4,605.1 L1013.8,603.7 L1010.3,606.0
		L1014.7,604.5 L1013.2,605.9 L1017.0,604.7 L1010.4,608.5 L1015.4,606.7 L1018.8,605.7 L1014.8,608.2 L1018.7,606.9
		L1012.5,610.4 L1017.5,608.6 L1020.9,607.5 L1013.8,611.5 L1018.6,609.6 L1022.0,608.5 L1016.8,611.6 L1021.0,610.0
		L1016.9,612.5 L1021.3,610.8 L1019.7,612.1 L1023.4,610.8 L1016.4,614.6 L1021.4,612.6 L1024.7,611.5 L1020.6,614.0
		L1024.4,612.5 L1017.7,616.1 L1022.7,614.1 L1026.0,612.9 L1020.4,616.0 L1024.7,614.3 L1022.5,615.8 L1026.2,614.3
		L1019.3,618.0 L1024.2,615.9 L1027.5,614.7 L1021.7,617.9 L1026.0,616.1 L1022.7,618.1 L1026.8,616.4 L1020.5,619.7
		L1025.3,617.7 L1028.7,616.4 L1021.2,620.3 L1026.1,618.2 L1029.3,616.9 L1026.2,618.8 L1029.5,617.4 L1021.7,621.5
		L1026.7,619.3 L1030.0,618.0 L1024.1,621.1 L1028.4,619.2 L1024.2,621.6 L1028.6,619.7 L1024.3,622.0 L1028.7,620.1
		L1026.9,621.3 L1030.5,619.7 L1023.0,623.6 L1028.0,621.4 L1031.3,620.0 L1026.2,622.8 L1030.2,620.9 L1023.5,624.4
		L1028.5,622.2 L1031.8,620.8 L1025.8,623.9 L1030.1,622.0 L1026.4,624.0 L1030.6,622.1 L1024.1,625.5 L1029.0,623.2
		L1024.0,625.9 L1029.0,623.6 L1032.4,622.1 L1026.5,625.2 L1030.8,623.2 L1026.3,625.7 L1030.7,623.6 L1028.2,625.1
		L1032.0,623.3 L1024.8,627.0 L1029.8,624.7 L1024.7,627.4 L1029.7,625.0 L1024.9,627.6 L1029.9,625.3 L1025.0,627.8
		L1030.0,625.5 L1025.1,628.1 L1030.1,625.7 L1025.2,628.3 L1030.2,626.0 L1025.3,628.5 L1030.3,626.2 L1025.4,628.8
		L1030.4,626.4 L1025.5,629.0 L1030.5,626.6 L1025.6,629.2 L1030.6,626.8 L1025.6,629.4 L1030.6,627.0 L1025.7,629.6
		L1030.7,627.2 L1025.7,629.8 L1030.8,627.4 L1025.8,630.0 L1030.9,627.5 L1025.9,630.1 L1030.9,627.7 L1025.9,630.3
		L1030.9,627.9 L1026.0,630.5 L1031.0,628.1 L1026.0,630.7 L1031.1,628.3 L1026.1,630.8 L1031.1,628.4 L1026.1,631.0
		L1031.2,628.6 L1026.2,631.2 L1031.2,628.7 L1026.2,631.3 L1031.3,628.9 L1026.3,631.5 L1031.3,629.1 L1026.3,631.7
		L1031.4,629.2 L1026.3,631.8 L1031.4,629.4 L1026.3,632.0 L1031.4,629.6 L1026.4,632.1 L1031.5,629.7 L1026.4,632.3
		L1031.5,629.8 L1026.5,632.4 L1031.5,630.0 L1026.5,632.6 L1031.6,630.1 L1026.5,632.7 L1031.6,630.2 L1026.6,632.8
		L1031.6,630.3 L1026.6,632.9 L1031.7,630.5 L1026.6,633.1 L1031.7,630.6 L1026.6,633.2 L1031.7,630.7 L1026.6,633.3
		L1031.7,630.8 L1026.6,633.4 L1031.7,631.0 L1026.7,633.5 L1031.8,631.1 L1026.7,633.7 L1031.8,631.2 L1026.7,633.8
		L1031.8,631.3 L1026.7,633.9 L1031.8,631.4 L1026.7,634.0 L1031.8,631.5 L1026.8,634.1 L1031.9,631.6 L1026.8,634.2
		L1031.9,631.7 L1026.8,634.3 L1031.9,631.8 L1026.8,634.4 L1031.9,632.0 L1026.8,634.6 L1031.9,632.1 L1026.8,634.7
		L1031.9,632.2 L1026.9,634.7 L1032.0,632.2 L1026.8,634.9 L1032.0,632.4 L1026.9,634.9 L1032.0,632.4 L1026.9,635.0
		L1032.0,632.5 L1026.9,635.1  '/></g>
	</g>
	<g id="gnuplot_plot_5" ><title>2-MeOPhN2+</title>
<g fill="none" color="black" stroke="currentColor" stroke-width="3.00" stroke-linecap="butt" stroke-linejoin="miter">
	<g transform="translate(1253.0,301.1)" stroke="none" fill="black" font-family="Helvetica" font-size="26.00"  text-anchor="end">
		<text><tspan font-family="Helvetica" >2-MeOPhN</tspan><tspan font-family="Helvetica"  font-size="20.8" dy="7.80px">2</tspan><tspan font-family="Helvetica"  dy="-20.80px">+</tspan><tspan font-size="26.0" dy="13.00"></tspan></text>
	</g>
</g>
<g fill="none" color="black" stroke="currentColor" stroke-width="3.00" stroke-linecap="butt" stroke-linejoin="miter">
	<path stroke='rgb(240, 228,  66)'  d='M1271.2,292.6 L1363.5,292.6 M358.4,353.2 L365.8,350.1 L369.9,347.6 L372.3,345.3 L378.9,342.6 L382.4,340.2
		L384.8,338.1 L390.9,335.5 L395.1,333.1 L397.0,331.2 L403.5,328.4 L404.9,326.7 L409.5,324.5 L411.7,322.5
		L417.8,320.0 L419.4,318.3 L423.9,316.1 L426.2,314.4 L429.2,312.5 L432.6,310.7 L439.2,308.6 L441.2,307.0
		L444.2,305.3 L447.6,303.6 L451.2,301.9 L454.9,300.3 L462.1,298.5 L464.2,297.2 L467.2,295.7 L470.6,294.3
		L474.3,292.9 L478.0,291.6 L481.8,290.3 L485.6,289.0 L489.5,287.8 L493.3,286.6 L497.1,285.4 L500.9,284.3
		L504.7,283.2 L508.5,282.1 L512.4,281.1 L516.2,280.1 L520.0,279.1 L523.8,278.1 L527.6,277.2 L531.5,276.2
		L535.3,275.3 L539.2,274.3 L543.1,273.4 L547.0,272.4 L550.9,271.5 L554.8,270.5 L558.8,269.5 L562.8,268.5
		L566.8,267.4 L570.9,266.4 L575.0,265.2 L579.1,264.1 L583.2,262.9 L587.4,261.6 L591.6,260.3 L595.8,258.9
		L600.1,257.5 L604.4,256.0 L608.7,254.4 L613.0,252.7 L617.4,251.0 L621.8,249.2 L626.2,247.3 L630.6,245.3
		L635.0,243.2 L639.5,241.1 L643.9,238.8 L648.4,236.4 L652.9,234.0 L657.4,231.5 L661.9,228.9 L666.3,226.1
		L670.8,223.3 L675.3,220.4 L679.8,217.4 L684.3,214.4 L688.8,211.2 L693.2,207.9 L697.7,204.6 L702.1,201.2
		L706.5,197.8 L710.9,194.2 L715.3,190.7 L719.6,187.0 L723.9,183.3 L728.2,184.5 L732.5,193.6 L736.7,202.5
		L740.9,211.2 L745.1,219.7 L749.2,227.9 L753.3,235.9 L757.4,243.7 L761.4,251.2 L765.4,258.6 L769.4,265.7
		L773.3,272.6 L777.2,279.2 L781.0,285.7 L784.8,292.0 L788.6,298.1 L792.3,304.1 L795.9,309.8 L799.5,315.4
		L803.1,320.8 L806.7,326.1 L810.2,331.2 L813.6,336.1 L817.0,340.9 L820.3,345.6 L823.6,350.1 L826.9,354.5
		L830.1,358.7 L833.3,362.9 L836.4,366.9 L839.5,370.8 L842.5,374.5 L845.5,378.2 L848.5,381.8 L851.3,385.3
		L854.1,388.7 L856.9,391.9 L859.7,395.1 L862.4,398.2 L865.1,401.2 L867.7,404.1 L870.3,407.0 L872.8,409.7
		L875.3,412.4 L877.8,415.0 L880.2,417.6 L882.6,420.0 L886.7,421.7 L890.2,423.5 L893.3,425.4 L896.1,427.3
		L898.7,429.3 L901.1,431.3 L903.4,433.2 L905.6,435.1 L907.7,437.0 L909.8,438.8 L911.8,440.6 L913.8,442.3
		L915.7,444.1 L917.5,445.7 L919.3,447.4 L921.1,449.0 L922.9,450.5 L924.6,452.0 L926.2,453.5 L927.9,455.0
		L929.5,456.4 L931.0,457.8 L932.6,459.1 L934.1,460.4 L935.5,461.7 L937.0,462.9 L938.4,464.1 L939.8,465.3
		L941.1,466.5 L945.5,466.5 L939.9,470.4 L945.5,470.0 L949.6,470.0 L952.8,470.3 L945.4,474.6 L950.9,474.0
		L955.0,473.9 L958.2,474.1 L949.9,478.5 L955.3,477.8 L959.3,477.6 L962.3,477.7 L953.8,482.1 L959.1,481.3
		L963.1,481.0 L966.0,481.0 L957.2,485.5 L962.6,484.5 L966.5,484.2 L969.4,484.1 L960.4,488.5 L965.8,487.5
		L969.6,487.1 L972.5,486.9 L963.2,491.4 L968.6,490.3 L972.4,489.7 L975.3,489.5 L965.8,494.1 L971.1,492.9
		L974.9,492.2 L969.6,495.1 L974.3,494.1 L977.7,493.6 L969.1,497.7 L974.4,496.4 L978.2,495.7 L972.7,498.5
		L977.4,497.4 L980.7,496.8 L971.9,500.9 L977.2,499.5 L981.0,498.7 L975.3,501.6 L980.1,500.3 L983.3,499.6
		L974.3,503.8 L979.7,502.3 L983.4,501.4 L977.6,504.3 L982.3,503.0 L985.6,502.2 L976.4,506.4 L981.8,504.8
		L985.5,503.8 L979.5,506.7 L984.2,505.3 L987.5,504.5 L978.2,508.7 L983.5,507.0 L987.2,506.0 L981.2,508.9
		L985.9,507.4 L989.1,506.6 L979.7,510.8 L985.0,509.1 L988.7,508.0 L982.5,510.9 L987.2,509.4 L990.4,508.5
		L980.9,512.7 L986.2,510.9 L989.8,509.8 L983.5,512.7 L988.2,511.1 L991.5,510.2 L981.9,514.4 L987.2,512.6
		L990.9,511.4 L984.5,514.3 L989.2,512.7 L992.4,511.7 L982.7,515.9 L988.1,514.0 L991.8,512.8 L983.2,516.6
		L988.5,514.7 L992.2,513.5 L985.8,516.3 L990.5,514.7 L985.5,517.0 L990.4,515.2 L993.6,514.2 L984.0,518.4
		L989.4,516.4 L993.1,515.1 L984.4,518.9 L989.7,517.0 L993.4,515.7 L984.6,519.5 L990.0,517.5 L993.7,516.2
		L984.9,520.0 L990.3,518.0 L993.9,516.7 L985.1,520.5 L990.5,518.5 L994.1,517.2 L985.3,521.0 L990.7,519.0
		L994.3,517.7 L985.5,521.5 L990.9,519.4 L987.5,521.0 L992.4,519.1 L987.6,521.3 L992.4,519.4 L987.6,521.6
		L992.5,519.7 L987.7,521.8 L992.6,519.9 L987.8,522.1 L992.7,520.2 L987.9,522.3 L992.8,520.4 L988.0,522.6
		L992.9,520.7 L988.0,522.8 L992.9,520.9 L988.1,523.1 L993.0,521.2 L988.2,523.3 L993.1,521.4 L988.3,523.5
		L993.1,521.6 L988.3,523.8 L993.2,521.9 L988.4,523.9 L993.3,522.0 L988.5,524.1 L993.4,522.2 L988.6,524.3
		L993.5,522.4 L988.6,524.5 L993.5,522.6 L988.6,524.7 L993.6,522.8 L988.7,524.9 L993.6,522.9 L988.8,525.0
		L993.7,523.1 L988.9,525.1 L993.8,523.2 L989.0,525.3 L993.9,523.4 L989.0,525.4 L993.9,523.5 L988.9,525.7
		L993.9,523.7 L989.0,525.8 L993.9,523.8 L989.2,525.9 L994.0,524.0 L989.0,526.1 L994.0,524.2 L989.1,526.3
		L994.0,524.3 L989.1,526.4 L994.0,524.4 L989.1,526.5 L994.1,524.6 L989.2,526.7 L994.1,524.7 L989.3,526.8
		L994.2,524.8 L989.2,526.9 L994.2,525.0 L989.3,527.1 L994.3,525.1 L989.3,527.2 L994.3,525.2 L989.4,527.3
		L994.3,525.3 L989.4,527.4 L994.3,525.4 L989.4,527.5 L994.3,525.5 L989.4,527.6 L994.4,525.6 L989.4,527.7
		L994.4,525.8 L989.4,527.8 L994.4,525.9 L989.5,527.9 L994.4,526.0 L989.5,528.1 L994.4,526.1 L989.5,528.2
		L994.4,526.2 L989.5,528.3 L994.4,526.3 L989.5,528.4 L994.5,526.4 L989.5,528.5 L994.5,526.5 L989.5,528.5
		L994.5,526.6 L989.5,528.7 L994.5,526.7 L989.5,528.8 L994.5,526.8 L989.5,528.8 L994.5,526.9 L989.5,528.9
		L994.5,526.9 L989.5,529.0 L994.5,527.0 L989.5,529.1 L994.5,527.1 L989.5,529.2 L994.5,527.2 L989.5,529.3
		L994.5,527.3 L989.5,529.3 L994.5,527.3 L989.5,529.4 L994.5,527.4 L989.5,529.5 L994.5,527.5 L989.5,529.5
		L994.5,527.5 L989.5,529.6  '/></g>
	</g>
	<g id="gnuplot_plot_6" ><title>3-MeOPhN2+</title>
<g fill="none" color="black" stroke="currentColor" stroke-width="3.00" stroke-linecap="butt" stroke-linejoin="miter">
	<g transform="translate(1253.0,340.1)" stroke="none" fill="black" font-family="Helvetica" font-size="26.00"  text-anchor="end">
		<text><tspan font-family="Helvetica" >3-MeOPhN</tspan><tspan font-family="Helvetica"  font-size="20.8" dy="7.80px">2</tspan><tspan font-family="Helvetica"  dy="-20.80px">+</tspan><tspan font-size="26.0" dy="13.00"></tspan></text>
	</g>
</g>
<g fill="none" color="black" stroke="currentColor" stroke-width="3.00" stroke-linecap="butt" stroke-linejoin="miter">
	<path stroke='rgb(  0, 114, 178)'  d='M1271.2,331.6 L1363.5,331.6 M373.7,434.2 L377.9,430.3 L382.0,426.9 L384.7,423.8 L391.9,419.8 L396.5,416.2
		L398.7,413.4 L406.0,409.3 L408.6,406.5 L411.2,403.5 L418.0,399.8 L420.1,397.1 L426.3,393.4 L428.4,390.9
		L431.5,388.1 L435.1,385.2 L443.1,381.5 L444.9,379.2 L450.8,376.0 L452.8,373.8 L455.8,371.3 L459.3,368.7
		L463.0,366.2 L470.5,363.2 L472.6,361.1 L475.6,358.9 L479.0,356.6 L482.6,354.4 L486.4,352.3 L490.2,350.1
		L494.0,348.1 L497.8,346.0 L501.7,344.0 L505.5,342.1 L509.3,340.2 L513.1,338.4 L516.9,336.6 L520.7,334.8
		L524.5,333.1 L528.4,331.4 L532.2,329.7 L536.0,328.1 L539.8,326.4 L543.7,324.8 L547.5,323.2 L551.4,321.6
		L555.3,320.1 L559.2,318.5 L563.1,316.9 L567.1,315.3 L571.0,313.7 L575.0,312.0 L579.0,310.4 L583.1,308.7
		L587.1,307.0 L591.2,305.2 L595.3,303.4 L599.5,301.6 L603.6,299.6 L607.8,297.7 L612.0,295.7 L616.3,293.6
		L620.5,291.4 L624.8,289.2 L629.1,286.9 L633.4,284.5 L637.8,282.1 L642.1,279.5 L646.5,276.9 L650.9,274.2
		L655.3,271.4 L659.7,268.5 L664.2,265.6 L668.6,262.5 L673.0,259.3 L677.5,256.1 L681.9,252.8 L686.4,249.4
		L690.8,245.9 L695.3,242.3 L699.7,238.6 L704.2,234.9 L708.6,231.1 L713.0,227.2 L717.5,223.2 L721.9,219.2
		L726.2,215.1 L730.6,211.0 L735.0,206.8 L739.3,202.6 L743.6,198.3 L747.9,194.0 L752.1,194.0 L756.4,202.1
		L760.6,210.0 L764.8,217.9 L769.0,225.5 L773.1,232.9 L777.2,240.1 L781.2,247.1 L785.2,253.9 L789.2,260.4
		L793.2,266.8 L797.1,273.0 L801.0,279.0 L804.9,284.8 L808.7,290.4 L812.5,295.8 L816.2,301.1 L819.9,306.2
		L823.5,311.2 L827.2,316.0 L830.7,320.6 L834.3,325.1 L837.8,329.5 L841.2,333.7 L844.6,337.8 L848.0,341.7
		L851.3,345.6 L854.6,349.3 L857.8,352.9 L861.0,356.4 L864.1,359.8 L867.2,363.1 L870.2,366.3 L873.2,369.3
		L876.1,372.3 L879.0,375.2 L881.9,378.0 L884.7,380.8 L887.5,383.4 L890.3,385.9 L893.0,388.4 L895.7,390.8
		L898.3,393.1 L900.9,395.4 L903.5,397.6 L906.0,399.7 L908.5,401.7 L910.9,403.7 L913.3,405.7 L915.6,407.6
		L917.9,409.4 L921.9,410.5 L925.1,411.8 L928.0,413.2 L930.6,414.7 L933.2,416.1 L938.4,416.2 L942.6,416.8
		L946.1,417.6 L949.1,418.5 L943.5,422.6 L948.8,422.6 L952.8,423.0 L956.1,423.7 L958.9,424.5 L961.3,425.3
		L963.5,426.3 L955.7,431.2 L960.9,430.8 L965.0,430.9 L968.3,431.3 L970.9,431.9 L963.5,436.4 L968.8,435.9
		L972.7,435.8 L975.8,436.1 L971.1,439.5 L975.7,439.0 L979.1,438.9 L981.8,439.2 L974.0,443.7 L979.2,442.9
		L983.0,442.6 L986.0,442.6 L980.7,446.0 L985.2,445.3 L988.6,445.0 L983.8,448.2 L988.3,447.4 L991.6,447.1
		L986.7,450.3 L991.2,449.3 L994.5,449.0 L989.5,452.2 L994.0,451.1 L997.2,450.7 L992.0,453.9 L996.5,452.8
		L999.7,452.4 L994.2,455.6 L998.7,454.4 L1001.9,453.9 L996.1,457.2 L1000.7,455.9 L1003.9,455.3 L997.2,458.8
		L1002.0,457.2 L1005.2,456.4 L996.0,460.4 L1001.3,458.1 L1004.9,456.8 L959.4,442.1 L965.2,440.6 L969.5,439.7
		L966.3,441.8 L970.7,440.6 L966.8,442.6 L971.3,441.4 L974.5,440.7 L968.2,443.5 L972.5,442.2 L975.5,441.5
		L968.8,444.5 L973.1,443.1 L976.1,442.4 L965.5,446.4 L970.8,444.7 L974.5,443.7 L969.2,446.1 L973.6,444.7
		L976.6,443.9 L966.1,447.9 L971.3,446.2 L975.0,445.2 L969.7,447.6 L974.0,446.2 L977.1,445.4 L966.5,449.4
		L971.8,447.6 L975.5,446.6 L970.1,449.0 L974.4,447.5 L969.7,449.6 L974.2,448.0 L969.8,450.0 L974.2,448.5
		L969.8,450.4 L974.3,448.9 L969.9,450.8 L974.4,449.2 L970.0,451.2 L974.4,449.6 L970.0,451.6 L974.5,450.0
		L970.1,451.9 L974.5,450.3 L970.1,452.3 L974.6,450.7 L970.1,452.6 L974.6,451.0 L970.2,453.0 L974.7,451.4
		L970.2,453.3 L974.7,451.7 L970.2,453.6 L974.7,452.0 L970.3,453.9 L974.7,452.3 L970.3,454.2 L974.8,452.6
		L970.3,454.5 L974.8,452.9 L970.3,454.8 L974.8,453.1 L970.3,455.1 L974.8,453.4 L970.3,455.4 L974.8,453.7
		L970.3,455.6 L974.8,453.9 L970.3,455.9 L974.8,454.2 L970.3,456.1 L974.8,454.4 L970.3,456.3 L974.8,454.6
		L970.2,456.6 L974.8,454.9 L970.2,456.8 L974.8,455.1 L970.2,457.0 L974.8,455.3 L970.2,457.2 L974.7,455.5
		L970.2,457.4 L974.7,455.7 L970.2,457.6 L974.7,455.9 L970.1,457.8 L974.7,456.1 L970.1,458.0 L974.6,456.3
		L970.1,458.2 L974.6,456.5 L970.0,458.4 L974.6,456.7 L970.0,458.6 L974.5,456.9 L970.0,458.8 L974.5,457.0
		L969.9,459.0 L974.5,457.2 L969.9,459.1 L974.5,457.4 L969.9,459.3 L974.5,457.5 L969.9,459.4 L974.4,457.7
		L969.9,459.6 L974.4,457.8 L969.9,459.7 L974.4,458.0 L969.8,459.8 L974.4,458.1 L969.8,460.0 L974.4,458.2
		L969.8,460.1 L974.3,458.4 L969.7,460.3 L974.3,458.5 L969.7,460.4 L974.3,458.7 L969.7,460.6 L974.3,458.8
		L969.7,460.7 L974.2,458.9 L969.6,460.8 L974.2,459.1 L969.6,461.0 L974.1,459.2 L969.5,461.1 L974.1,459.3
		L969.5,461.2 L974.1,459.4 L969.5,461.3 L974.1,459.6 L969.4,461.4 L974.0,459.7 L969.4,461.6 L974.0,459.8
		L969.4,461.7 L974.0,459.9 L969.4,461.8 L974.0,460.0 L969.3,461.9 L974.0,460.1 L969.3,462.0 L974.0,460.2
		L969.3,462.1 L973.9,460.3 L969.3,462.2 L973.9,460.4 L969.2,462.3 L973.9,460.4 L969.2,462.4 L973.8,460.5
		L969.2,462.5 L973.8,460.6 L969.1,462.6 L973.8,460.7 L969.1,462.7 L973.7,460.8 L969.1,462.8 L973.7,460.9
		L969.0,462.8 L973.7,461.0 L969.0,462.9 L973.6,461.1 L969.0,463.0 L973.6,461.2 L968.9,463.1 L973.6,461.3
		L968.9,463.2 L973.6,461.4 L968.9,463.3 L973.5,461.5 L968.8,463.4 L973.5,461.5 L968.8,463.4 L973.5,461.6
		L968.8,463.5 L973.5,461.7 L968.8,463.6 L973.4,461.8 L968.7,463.7 L973.4,461.8 L968.7,463.7 L973.4,461.9
		L968.7,463.8 L973.4,462.0 L968.7,463.9 L973.3,462.0 L968.6,463.9 L973.3,462.1 L968.6,464.0 L973.3,462.2
		L968.6,464.1 L973.3,462.2  '/></g>
	</g>
	<g id="gnuplot_plot_7" ><title>4-MeOPhN2+</title>
<g fill="none" color="black" stroke="currentColor" stroke-width="3.00" stroke-linecap="butt" stroke-linejoin="miter">
	<g transform="translate(1253.0,379.1)" stroke="none" fill="black" font-family="Helvetica" font-size="26.00"  text-anchor="end">
		<text><tspan font-family="Helvetica" >4-MeOPhN</tspan><tspan font-family="Helvetica"  font-size="20.8" dy="7.80px">2</tspan><tspan font-family="Helvetica"  dy="-20.80px">+</tspan><tspan font-size="26.0" dy="13.00"></tspan></text>
	</g>
</g>
<g fill="none" color="black" stroke="currentColor" stroke-width="3.00" stroke-linecap="butt" stroke-linejoin="miter">
	<path stroke='rgb(255,   0, 255)'  d='M1271.2,370.6 L1363.5,370.6 M346.0,392.5 L342.3,330.7 L344.6,328.0 L351.5,324.7 L355.1,322.1 L357.7,319.6
		L364.7,316.5 L368.5,313.8 L370.8,311.5 L377.0,308.7 L379.1,306.4 L385.6,303.5 L387.5,301.4 L392.8,298.7
		L395.1,296.7 L398.2,294.5 L401.6,292.3 L408.8,289.8 L410.8,287.9 L413.8,285.9 L417.2,283.9 L420.8,282.0
		L424.5,280.1 L431.9,278.1 L433.9,276.5 L436.8,274.8 L440.1,273.2 L443.7,271.6 L447.4,270.1 L451.1,268.6
		L454.8,267.2 L458.5,265.9 L462.3,264.6 L466.0,263.3 L469.8,262.1 L473.5,261.0 L477.3,259.9 L481.0,258.9
		L484.7,257.8 L488.5,256.9 L492.2,256.0 L496.0,255.1 L499.7,254.2 L503.5,253.4 L507.2,252.6 L511.0,251.8
		L514.8,251.1 L518.6,250.3 L522.5,249.6 L526.3,248.9 L530.2,248.1 L534.1,247.4 L538.0,246.7 L541.9,246.0
		L545.9,245.2 L549.9,244.4 L553.9,243.6 L558.0,242.8 L562.0,241.9 L566.1,241.0 L570.3,240.1 L574.4,239.1
		L578.6,238.1 L582.8,237.0 L587.1,235.8 L591.4,234.6 L595.7,233.3 L600.0,232.0 L604.3,230.6 L608.7,229.1
		L613.1,227.5 L617.5,225.8 L621.9,224.1 L626.4,222.3 L630.8,220.4 L635.3,218.3 L639.8,216.3 L644.3,214.0
		L648.8,211.8 L653.3,209.4 L657.8,207.0 L662.4,204.4 L666.9,201.8 L671.4,199.1 L675.9,196.3 L680.4,193.4
		L684.9,190.4 L689.4,187.3 L693.9,184.2 L698.3,181.0 L702.8,177.7 L707.2,174.4 L711.6,183.4 L716.0,192.3
		L720.3,201.0 L724.7,209.5 L729.0,217.8 L733.2,225.8 L737.5,233.5 L741.7,241.1 L745.9,248.4 L750.0,255.5
		L754.1,262.3 L758.2,269.0 L762.2,275.5 L766.3,281.7 L770.2,287.8 L774.1,293.7 L778.0,299.4 L781.9,304.9
		L785.7,310.3 L789.4,315.5 L793.1,320.5 L796.8,325.4 L800.4,330.1 L804.0,334.7 L807.5,339.2 L811.0,343.5
		L814.5,347.7 L817.9,351.7 L821.3,355.7 L824.6,359.5 L827.8,363.2 L831.1,366.8 L834.2,370.2 L837.4,373.6
		L840.4,376.9 L843.4,380.1 L846.4,383.2 L849.4,386.2 L852.3,389.1 L855.1,392.0 L857.9,394.7 L860.7,397.4
		L863.4,400.0 L866.1,402.5 L868.7,404.9 L871.3,407.3 L873.8,409.6 L876.3,411.9 L878.8,414.0 L881.2,416.2
		L883.5,418.3 L885.9,420.3 L888.2,422.2 L890.4,424.1 L892.6,426.0 L894.8,427.8 L898.6,428.8 L904.6,428.9
		L909.2,429.5 L912.9,430.3 L916.1,431.4 L919.0,432.5 L921.5,433.7 L924.0,434.9 L916.7,440.1 L922.0,440.0
		L926.1,440.4 L929.3,441.1 L932.0,441.9 L927.0,446.0 L931.6,445.9 L935.1,446.2 L937.9,446.9 L932.9,450.8
		L937.5,450.5 L940.9,450.7 L943.7,451.2 L938.3,455.2 L942.9,454.8 L946.3,454.8 L949.0,455.2 L943.3,459.2
		L947.8,458.6 L951.2,458.6 L953.8,458.9 L947.7,462.9 L952.2,462.2 L955.6,462.0 L950.8,465.5 L955.3,464.7
		L958.6,464.4 L953.6,467.9 L958.1,467.0 L961.4,466.7 L956.4,470.1 L960.8,469.1 L964.1,468.8 L958.8,472.3
		L963.3,471.2 L966.5,470.8 L961.1,474.3 L965.6,473.2 L968.8,472.7 L963.3,476.1 L967.7,475.0 L970.9,474.4
		L965.3,477.9 L969.7,476.7 L972.8,476.1 L967.1,479.6 L971.5,478.3 L974.6,477.7 L968.8,481.3 L973.2,479.9
		L976.3,479.2 L970.3,482.8 L974.7,481.4 L977.8,480.6 L971.7,484.2 L976.1,482.7 L979.2,482.0 L973.0,485.6
		L977.5,484.0 L980.5,483.2 L974.3,486.8 L978.7,485.3 L981.8,484.4 L975.5,488.0 L979.9,486.4 L982.9,485.6
		L976.5,489.1 L980.9,487.5 L983.9,486.6 L977.5,490.2 L981.9,488.6 L984.9,487.7 L978.3,491.3 L982.7,489.6
		L985.7,488.7 L979.2,492.3 L983.6,490.6 L986.5,489.7 L979.9,493.3 L984.3,491.5 L987.3,490.6 L980.7,494.2
		L985.1,492.4 L988.0,491.4 L981.2,495.1 L985.6,493.3 L988.6,492.2 L981.8,495.9 L986.2,494.0 L989.2,493.0
		L982.4,496.6 L986.8,494.7 L982.4,497.3 L986.9,495.3 L989.9,494.2 L983.2,497.8 L987.6,495.9 L983.2,498.3
		L987.7,496.4 L983.5,498.8 L988.0,496.8 L983.7,499.2 L988.2,497.3 L984.1,499.6 L988.5,497.6 L984.2,500.0
		L988.7,498.1 L984.5,500.4 L989.0,498.4 L984.8,500.8 L989.2,498.8 L984.9,501.2 L989.4,499.2 L985.1,501.5
		L989.6,499.5 L985.3,501.9 L989.8,499.9 L985.5,502.2 L990.0,500.2 L985.7,502.5 L990.2,500.5 L985.7,502.9
		L990.2,500.8 L985.9,503.2 L990.4,501.1 L986.1,503.5 L990.6,501.4 L986.2,503.7 L990.7,501.6 L986.4,504.0
		L990.9,501.9 L986.5,504.2 L991.0,502.2 L986.6,504.5 L991.1,502.4 L986.7,504.7 L991.2,502.6 L986.8,505.0
		L991.3,502.9 L986.9,505.3 L991.4,503.2 L987.0,505.5 L991.5,503.4 L987.1,505.8 L991.6,503.7 L987.1,506.0
		L991.6,503.9 L987.2,506.3 L991.7,504.1 L987.4,506.4 L991.9,504.3 L987.4,506.7 L991.9,504.5 L987.4,506.9
		L992.0,504.7 L987.5,507.1 L992.0,504.9 L987.6,507.3 L992.1,505.1 L987.6,507.5 L992.2,505.3 L987.7,507.6
		L992.2,505.5 L987.7,507.8 L992.3,505.6 L987.8,508.0 L992.3,505.8 L987.8,508.1 L992.4,506.0 L987.8,508.3
		L992.4,506.2 L987.9,508.5 L992.5,506.3 L987.9,508.7 L992.5,506.5 L988.0,508.8 L992.5,506.6 L988.0,509.0
		L992.6,506.8 L988.1,509.1 L992.7,506.9 L988.1,509.3 L992.7,507.1 L988.2,509.4 L992.7,507.2 L988.1,509.6
		L992.7,507.4 L988.2,509.7 L992.8,507.5 L988.2,509.9 L992.8,507.7 L988.3,510.0 L992.9,507.8 L988.3,510.1
		L992.9,507.9 L988.3,510.3 L992.9,508.0 L988.4,510.4 L993.0,508.1 L988.3,510.5 L993.0,508.3 L988.4,510.6
		L993.0,508.4 L988.4,510.7 L993.0,508.5 L988.4,510.9 L993.0,508.6 L988.4,511.0 L993.1,508.7 L988.4,511.1
		L993.1,508.9 L988.4,511.2 L993.1,509.0 L988.5,511.3 L993.1,509.1 L988.5,511.4 L993.1,509.2 L988.5,511.5
		L993.1,509.2 L988.5,511.6 L993.1,509.4 L988.5,511.7 L993.1,509.5 L988.5,511.8 L993.2,509.6 L988.5,511.9
		L993.2,509.7 L988.5,512.0 L993.2,509.8 L988.5,512.1 L993.1,509.9 L988.5,512.2 L993.1,510.0 L988.6,512.3
		L993.2,510.0 L988.5,512.4 L993.1,510.1 L988.5,512.5 L993.1,510.2 L988.4,512.6 L993.1,510.3 L988.4,512.7
		L993.0,510.4 L988.3,512.7  '/></g>
	</g>
<g fill="none" color="white" stroke="rgb(255,   0, 255)" stroke-width="2.00" stroke-linecap="butt" stroke-linejoin="miter">
</g>
<g fill="none" color="black" stroke="currentColor" stroke-width="2.00" stroke-linecap="butt" stroke-linejoin="miter">
</g>
<g fill="none" color="black" stroke="black" stroke-width="1.00" stroke-linecap="butt" stroke-linejoin="miter">
</g>
<g fill="none" color="black" stroke="currentColor" stroke-width="1.00" stroke-linecap="butt" stroke-linejoin="miter">
	<path stroke='black'  d='M175.5,117.1 L175.5,736.2 L1052.8,736.2 L1052.8,117.1 L175.5,117.1 Z  '/></g>
<g fill="none" color="black" stroke="currentColor" stroke-width="1.00" stroke-linecap="butt" stroke-linejoin="miter">
</g>
</g>
</svg>

