11
Coordinates from ORCA-job Pyrrole-3-N2+-scan-d09-169-n800
  N   9.56455056611923      8.03013693222790      2.11812282667796
  N   10.48193441184362      8.63640795902158      2.23174975578893
  C   -3.92342529122505     -1.82363835588932     -0.44851302133455
  C   -4.34603402540719     -0.81531000949271     -1.25857600639478
  H   -5.32513837261635     -0.51228391381896     -1.60333223206561
  C   -3.30336726219523      0.06466721625287     -0.88688300499649
  H   -3.43558634814691      1.13729260463717     -0.77073194316216
  N   -2.24390381982857     -0.58416724496613     -0.23842445179204
  H   -1.40023286343136     -0.12289877638343      0.09226459231755
  C   -2.57068457802755     -1.87995351157548     -0.10296720938819
  H   -1.91471241708456     -2.69825290001342      0.15849069434942
