22
Coordinates from ORCA-job C6H6+AlCl4-+NH2N2+-scan
  N   4.31527301636234     -2.22324659877032     -3.91880861355026
  N   5.00195469158460     -2.93713144378959     -4.43923659963218
  N   3.20540339120417     -1.49720194859613     -3.70025358230482
  H   2.85658960891420     -1.75080191050086     -2.73735069549224
  H   3.50982449941267     -0.49152035344652     -3.60369657419709
  C   1.41360196513845     -1.14492879691288     -6.88122943491227
  C   1.62248181371730     -0.44566803128018     -5.69867342098989
  C   1.33157488357267     -1.04913085322067     -4.46202628542723
  C   0.67186106291710     -2.29117978244152     -4.44519786115060
  C   0.46515536612292     -2.98618468366834     -5.63060495436344
  C   0.84837273144114     -2.42186485394599     -6.84955045963521
  H   1.66581495984651     -0.68804828057571     -7.83165529961690
  H   2.03290241952974      0.55850911133504     -5.72268753204993
  H   1.31180445504144     -0.43196037198410     -3.56857739742007
  H   0.34725892359003     -2.71401724554953     -3.50007643242134
  H   -0.01788076143556     -3.95673999062122     -5.61153283505617
  H   0.68070484248770     -2.96323446402486     -7.77374592658615
  Al  4.10710721824271      0.12526922704488     -0.66577668393585
  Cl  4.09019231507108      1.32881362215170      1.06647847542733
  Cl  3.78880199372710      1.30685978331727     -2.51714649914593
  Cl  5.87150011509475     -1.04633926895092     -1.03610309299089
  Cl  2.42430048841695     -1.32085286556967     -0.70614829454876
