22
Coordinates from ORCA-job C6H6+AlCl4-+NH2N2+-scan
  N   3.76115829382772     -0.41692300627083     -4.50960236795847
  N   4.11814452150954     -0.87012425070905     -5.45969930622771
  N   3.38601732443792      0.20582237958960     -3.45983979023619
  H   2.59304325316979     -0.25326109122126     -2.96773491917579
  H   4.18632207412171      0.42441326308119     -2.78334437673178
  C   1.54721514951344     -2.18746122794449     -6.87355672899821
  C   1.01012742999498     -0.90412233921521     -6.75706827822061
  C   0.50294924282344     -0.47012506122546     -5.53217942853007
  C   0.52791638145508     -1.32306242034197     -4.42537992710001
  C   1.07189288978433     -2.60456962589058     -4.54032196237062
  C   1.58074785242566     -3.03592747683070     -5.76565943674188
  H   1.93500281097488     -2.52746233122777     -7.82750158212655
  H   0.97875630216619     -0.24875086774072     -7.62058449453515
  H   0.06946035278099      0.52027239335037     -5.44388461633877
  H   0.10880842667406     -0.99959423668963     -3.47836291002367
  H   1.09457481416106     -3.26174543705646     -3.67870471355813
  H   1.99850334629291     -4.03214932803893     -5.85681492536868
  Al  4.23721830543617     -1.49258684394985     -0.55655127154422
  Cl  4.68891229105828     -2.07724141643581      1.41904737838126
  Cl  5.27047320156522      0.40144675315545     -1.11949115056940
  Cl  4.76380993566608     -2.87637533509616     -2.12487771856891
  Cl  2.11354580016056     -1.01107249329179     -0.87148747345634
